<?xml version="1.0" encoding="UTF-8"?>
<svg width="958px" height="575px" viewBox="0 0 958 575" version="1.1" xmlns="http://www.w3.org/2000/svg" xmlns:xlink="http://www.w3.org/1999/xlink">
    <title>404</title>
    <defs>
        <linearGradient x1="50%" y1="0%" x2="50%" y2="100%" id="linearGradient-1">
            <stop stop-color="#627DF4" stop-opacity="0.124672203" offset="0%"></stop>
            <stop stop-color="#A9BFF6" stop-opacity="0.109129152" offset="46.1019449%"></stop>
            <stop stop-color="#0A48A9" stop-opacity="0" offset="100%"></stop>
        </linearGradient>
        <linearGradient x1="15.8754696%" y1="13.2046414%" x2="77.7050508%" y2="89.2813953%" id="linearGradient-2">
            <stop stop-color="#627DF4" stop-opacity="0.124672203" offset="0%"></stop>
            <stop stop-color="#A9BFF6" stop-opacity="0.109129152" offset="46.1019449%"></stop>
            <stop stop-color="#0A48A9" stop-opacity="0" offset="100%"></stop>
        </linearGradient>
    </defs>
    <g id="页面-1" stroke="none" stroke-width="1" fill="none" fill-rule="evenodd">
        <g id="404" transform="translate(-321.000000, -163.000000)">
            <g transform="translate(321.000000, 163.000000)">
                <g id="编组-6">
                    <g id="编组-5" transform="translate(0.000000, 97.000000)">
                        <path d="M271.186238,0.603109528 C167.584024,4.27079366 97.1871125,12.0758517 76.0934693,78.8807982 C54.9998261,145.685745 201.532395,164.194194 195.693673,239.692997 C189.85495,315.191801 6.63053787,326.098857 52.3043302,386.491166 C97.9781224,446.883474 189.932918,447.506439 364.866141,463.3818 C539.799363,479.257161 616.803742,491.636332 727.970461,447.808529 C839.137181,403.980725 896.144809,338.387994 842.756822,274.972005 C789.368834,211.556015 588.484573,247.389703 522.481557,203.72212 C456.478542,160.054536 589.318514,117.101461 522.481557,63.0779458 C455.6446,9.05443047 374.788452,-3.0645746 271.186238,0.603109528 Z" id="路径-6" fill="url(#linearGradient-1)"></path>
                        <circle id="椭圆形" fill="url(#linearGradient-2)" cx="45" cy="239" r="45"></circle>
                        <ellipse id="椭圆形" fill-opacity="0.5" fill="#CBCFDB" cx="409" cy="384.5" rx="64" ry="5.5"></ellipse>
                        <g id="编组-3" transform="translate(412.750000, 222.112505) rotate(30.000000) translate(-412.750000, -222.112505) translate(281.750000, 149.612505)">
                            <g id="编组-2" transform="translate(0.357579, 0.362382)">
                                <ellipse id="椭圆形备份-4" fill="#1143B6" cx="130.5" cy="112.137618" rx="54" ry="31.5"></ellipse>
                                <ellipse id="椭圆形备份-3" fill="#A0B6FF" cx="130.5" cy="87.5" rx="130.5" ry="39.5"></ellipse>
                                <path d="M130.497565,1.13686838e-13 C182.274617,1.13686838e-13 224.24821,38.4223837 224.24821,85.818796 L224.244024,85.279635 C200.532982,96.2462727 167.380416,103.058333 130.692069,103.058333 C93.8032252,103.058333 60.4889143,96.1716156 36.7522294,85.0994705 C37.1731204,38.0334629 78.9832303,1.13686838e-13 130.497565,1.13686838e-13 Z" id="顶舱备份-4" fill-opacity="0.780785621" fill="#1854E3"></path>
                            </g>
                            <path d="M69.4460145,58.3514023 C74.1322624,47.5903918 82.4655957,38.5903918 94.4460145,31.3514023" id="路径" stroke="#FFFFFF" stroke-width="5" stroke-linecap="round"></path>
                            <circle id="椭圆形" fill="#FFFFFF" cx="103.886221" cy="27.6866904" r="3.5"></circle>
                        </g>
                        <g id="编组-4" transform="translate(673.000000, 134.000000)" fill="#B0C7FF" fill-rule="nonzero">
                            <path d="M13.14,126.96 L15.18,125.16 L17.1,111.3 L38.88,111.3 L36.96,125.16 L38.52,126.96 L47.52,126.96 L50.58,105.18 L33.3,105.18 L34.44,102.36 L53.46,102.36 L54.3,96.3 L6.54,96.3 L5.7,102.36 L23.22,102.36 L22.08,105.18 L7.2,105.18 L4.14,126.96 L13.14,126.96 Z M16.38,138.48 L25.26,129.42 L31.02,138.48 L48.12,138.48 L31.8,122.7 L33.12,113.28 L22.38,113.28 L21.06,122.7 L0.9,138.48 L16.38,138.48 Z M104.386667,137.52 L108.886667,105.6 L88.4266668,105.6 L91.0666668,102.18 L110.506667,102.18 L111.286667,96.48 L61.1266668,96.48 L60.3466668,102.18 L79.6666668,102.18 L77.0266668,105.6 L59.8666668,105.6 L61.7866668,107.88 L57.6466668,137.52 L104.386667,137.52 Z M72.1666668,131.82 L68.6866668,131.82 L71.5666668,111.3 L75.0466668,111.3 L72.1666668,131.82 Z M94.9066668,131.82 L91.5466668,131.82 L94.4266668,111.3 L97.7866668,111.3 L94.9066668,131.82 Z M86.0866668,113.58 L82.7866668,113.58 L83.0866668,111.3 L86.3866668,111.3 L86.0866668,113.58 Z M84.7666668,122.7 L81.4666668,122.7 L81.9466668,119.28 L85.2466668,119.28 L84.7666668,122.7 Z M83.5066668,131.82 L80.2066668,131.82 L80.6866668,128.4 L83.9866668,128.4 L83.5066668,131.82 Z M144.153334,138.54 L147.153334,117 L153.093334,131.82 L164.493334,131.82 L154.053334,105.6 L143.433334,105.6 L145.773334,102.18 L167.493334,102.18 L168.273334,96.48 L120.393334,96.48 L119.613334,102.18 L134.373334,102.18 L114.333334,131.82 L125.733334,131.82 L135.753334,117 L132.753334,138.54 L144.153334,138.54 Z M186.38,137.52 L189.32,116.4 L195.86,106.74 L223.16,106.74 L223.94,101.04 L199.76,101.04 L203.66,95.34 L188.84,95.34 L190.16,96.84 L187.28,101.04 L177.26,101.04 L176.48,106.74 L183.38,106.74 L172.46,122.7 L177.02,122.7 L174.98,137.52 L186.38,137.52 Z M205.64,137.52 C206.8,137.52 207.82,137.13 208.7,136.35 C209.58,135.57 210.1,134.6 210.26,133.44 L210.26,133.44 L211.28,126.12 L222.14,126.12 L222.98,120.42 L212.06,120.42 L212.18,119.88 L219.56,115.86 L220.52,109.02 L197.18,109.02 L196.4,114.72 L209.54,114.72 L209.54,114.78 L202.7,118.74 L202.46,120.42 L191.06,120.42 L190.22,126.12 L201.62,126.12 L200.84,131.88 L195.56,137.52 L205.64,137.52 Z M243.246667,137.52 L246.186667,116.4 L252.726667,106.74 L280.026667,106.74 L280.806667,101.04 L256.626667,101.04 L260.526667,95.34 L245.706667,95.34 L247.026667,96.84 L244.146667,101.04 L234.126667,101.04 L233.346667,106.74 L240.246667,106.74 L229.326667,122.7 L233.886667,122.7 L231.846667,137.52 L243.246667,137.52 Z M276.306667,137.52 L277.086667,131.82 L267.426667,131.82 L268.866667,121.56 L277.386667,121.56 L278.166667,115.86 L269.646667,115.86 L270.606667,109.02 L259.206667,109.02 L258.246667,115.86 L249.666667,115.86 L248.886667,121.56 L257.466667,121.56 L256.026667,131.82 L246.306667,131.82 L245.526667,137.52 L276.306667,137.52 Z" id="页面不存在"></path>
                            <path d="M33,56.4 L33.96,49.56 L38.52,49.56 L39.3,43.86 L34.74,43.86 L37.8,22.26 L24.12,22.26 L26.1,24.48 L23.34,43.86 L14.46,43.86 L20.7,22.26 L7.62,22.26 L8.94,23.7 L2.88,43.86 L2.1,49.56 L22.56,49.56 L21.6,56.4 L33,56.4 Z M75.8266668,56.4 C76.9866668,56.4 78.0066668,56.01 78.8866668,55.23 C79.7666668,54.45 80.3066668,53.48 80.5066668,52.32 L80.5066668,52.32 L84.7066668,22.26 L54.6466668,22.26 C53.4866668,22.26 52.4566668,22.65 51.5566668,23.43 C50.6566668,24.21 50.1266668,25.18 49.9666668,26.34 L49.9666668,26.34 L45.7666668,56.4 L75.8266668,56.4 Z M69.2866668,50.7 L57.9466668,50.7 L61.1866668,27.9 L72.5266668,27.9 L69.2866668,50.7 Z M122.073334,56.4 L123.033334,49.56 L127.593334,49.56 L128.373334,43.86 L123.813334,43.86 L126.873334,22.26 L113.193334,22.26 L115.173334,24.48 L112.413334,43.86 L103.533334,43.86 L109.773334,22.26 L96.6933336,22.26 L98.0133336,23.7 L91.9533336,43.86 L91.1733336,49.56 L111.633334,49.56 L110.673334,56.4 L122.073334,56.4 Z" id="404"></path>
                        </g>
                    </g>
                    <circle id="椭圆形" fill="url(#linearGradient-2)" cx="649" cy="84" r="84"></circle>
                    <circle id="椭圆形" fill="url(#linearGradient-2)" cx="913" cy="305" r="45"></circle>
                    <rect id="矩形" fill="#A0B6FF" transform="translate(311.742641, 407.757359) scale(-1, 1) rotate(45.000000) translate(-311.742641, -407.757359) " x="294.242641" y="406.757359" width="35" height="2"></rect>
                    <rect id="矩形备份" fill="#A0B6FF" transform="translate(343.278175, 408.221825) scale(-1, 1) rotate(45.000000) translate(-343.278175, -408.221825) " x="326.778175" y="407.221825" width="33" height="2"></rect>
                </g>
                <rect id="矩形" x="0" y="0" width="958" height="575"></rect>
            </g>
        </g>
    </g>
</svg>