<?xml version="1.0" encoding="UTF-8"?>
<svg width="16px" height="16px" viewBox="0 0 16 16" version="1.1" xmlns="http://www.w3.org/2000/svg" xmlns:xlink="http://www.w3.org/1999/xlink">
    <title>警告</title>
    <g id="页面-1" stroke="none" stroke-width="1" fill="none" fill-rule="evenodd">
        <g id="二次确认弹窗" transform="translate(-662.000000, -223.000000)" fill="#FAAD14">
            <g id="编组-26" transform="translate(646.000000, 205.000000)">
                <g id="警告" transform="translate(16.000000, 18.000000)">
                    <path d="M8,0 C12.418278,0 16,3.581722 16,8 C16,12.418278 12.418278,16 8,16 C3.581722,16 0,12.418278 0,8 C0,3.581722 3.581722,0 8,0 Z M8,11.4285714 C7.36881743,11.4285714 6.85714286,11.940246 6.85714286,12.5714286 C6.85714286,13.2026111 7.36881743,13.7142857 8,13.7142857 C8.63118257,13.7142857 9.14285714,13.2026111 9.14285714,12.5714286 C9.14285714,11.940246 8.63118257,11.4285714 8,11.4285714 Z M8.85714286,3.42857143 L7.14285714,3.42857143 L7.14285714,10.2857143 L8.85714286,10.2857143 L8.85714286,3.42857143 Z" id="形状结合"></path>
                </g>
            </g>
        </g>
    </g>
</svg>