<?xml version="1.0" encoding="UTF-8"?>
<svg width="23px" height="22px" viewBox="0 0 23 22" version="1.1" xmlns="http://www.w3.org/2000/svg" xmlns:xlink="http://www.w3.org/1999/xlink">
    <title>编组 28备份@2x</title>
    <g id="dmp" stroke="none" stroke-width="1" fill="none" fill-rule="evenodd">
        <g id="内容页切图" transform="translate(-370.000000, -95.000000)">
            <g id="编组-28备份" transform="translate(370.766131, 95.000000)">
                <g id="编组-17备份-3" fill="#3F73FF">
                    <rect id="矩形" x="0" y="0" width="22" height="22" rx="5"></rect>
                </g>
                <g id="数据监控" transform="translate(3.000000, 3.000000)" fill-rule="nonzero">
                    <rect id="矩形" fill="#000000" opacity="0" x="0" y="0" width="16" height="16"></rect>
                    <path d="M0,8 C0,3.582 3.582,0 8,0 C12.418,0 16,3.582 16,8 C16,12.418 12.418,16 8,16 C3.582,16 0,12.418 0,8 Z" id="路径" fill="#FFFFFF"></path>
                    <path d="M12.395,9.998 L11.859,9.998 L11.859,6.052 C11.859,5.852 11.697,5.688 11.495,5.688 L5.567,5.688 L5.567,4.864 C5.567,4.664 5.729,4.5 5.931,4.5 L12.393,4.5 C12.593,4.5 12.757,4.662 12.757,4.864 L12.757,9.634 C12.757,9.834 12.595,9.998 12.395,9.998 L12.395,9.998 Z" id="路径" fill="#A1B9FB"></path>
                    <path d="M3.24299994,10.692 L3.24299994,6.346 C3.24299994,6.146 3.405,5.982 3.607,5.982 L11.127,5.982 C11.327,5.982 11.491,6.144 11.491,6.346 L11.491,10.694 C11.491,10.894 11.329,11.058 11.127,11.058 L3.607,11.058 C3.40559877,11.0570107 3.24288573,10.8934036 3.24299994,10.692 Z" id="路径" fill="#3F73FF"></path>
                    <path d="M5.145,6.826 C5.613,6.826 5.991,7.204 5.991,7.672 C5.991,8.14 5.613,8.518 5.145,8.518 C4.677,8.518 4.299,8.14 4.299,7.672 C4.299,7.204 4.677,6.826 5.145,6.826 L5.145,6.826 Z M9.35459375,7.14679688 L9.02179687,7.304 C8.90514698,7.3595612 8.76553736,7.31015808 8.70979687,7.19359375 C8.65426321,7.0768893 8.70376453,6.93725906 8.82040625,6.88159375 L9.66640625,6.48059375 C9.72235713,6.45364259 9.7867522,6.4501433 9.84529409,6.47087279 C9.90383599,6.49160228 9.95167986,6.53484502 9.97820313,6.591 L9.979,6.593 L10.3761875,7.445 C10.4302031,7.561 10.381,7.701 10.263,7.75579687 C10.147,7.80979687 10.007,7.76040625 9.95220313,7.64259375 L9.79420312,7.30359375 L8.78020312,10.0845937 C8.74725664,10.1754351 8.66161942,10.2364811 8.565,10.238 L5.497,10.2937969 C5.36720312,10.2992031 5.259,10.1995938 5.25359375,10.0697969 C5.2481875,9.94 5.3478125,9.83159375 5.47759375,9.82620312 C5.48220313,9.82620312 5.484,9.82540625 5.48840625,9.82559375 L8.397,9.77359375 L9.35459375,7.14679688 L9.35459375,7.14679688 Z" id="形状" fill="#FFFFFF"></path>
                </g>
            </g>
        </g>
    </g>
</svg>