<?xml version="1.0" encoding="UTF-8"?>
<svg width="18px" height="18px" viewBox="0 0 18 18" version="1.1" xmlns="http://www.w3.org/2000/svg" xmlns:xlink="http://www.w3.org/1999/xlink">
    <title>定制化资源文件夹</title>
    <g id="12..14" stroke="none" stroke-width="1" fill="none" fill-rule="evenodd">
        <g id="创建报告-保存为资源到资源列表" transform="translate(-10.000000, -719.000000)" fill-rule="nonzero">
            <g id="定制化资源文件夹" transform="translate(10.000000, 719.000000)">
                <rect id="定制化组件资源库" fill-opacity="0.1" fill="#000000" opacity="0.95" x="0" y="0" width="18" height="18" rx="2"></rect>
                <path d="M8.33333333,15 L3,15 L3,6 L5.66666667,3 L8.33333333,6 L8.33333333,15 Z M15,3.61142578 L15,15 L9.61083984,15 L9.61083984,3.61142578 L15,3.61142578 Z M7.799,12.933 L3.599,12.933 L3.6,14.45 L7.8,14.45 L7.799,12.933 Z M14.4139893,4.21574707 L10.1828613,4.21574707 L10.1828613,14.4 L14.4139893,14.4 L14.413,12.599 L13,12.6 L13,12 L14.413,11.999 L14.413,9.599 L13,9.6 L13,9 L14.413,8.999 L14.413,6.599 L13,6.6 L13,6 L14.413,5.999 L14.4139893,4.21574707 Z M7.799,6.599 L3.599,6.599 L3.599,12.333 L7.799,12.333 L7.799,6.599 Z M5.7,3.75769043 L3.709,5.999 L7.691,5.999 L5.7,3.75769043 Z" id="形状结合" stroke="#2D395C" stroke-width="0.2" fill="#222E53" opacity="0.60437593" stroke-linejoin="round"></path>
            </g>
        </g>
    </g>
</svg>