<?xml version="1.0" encoding="UTF-8"?>
<svg width="16px" height="17px" viewBox="0 0 16 17" version="1.1" xmlns="http://www.w3.org/2000/svg" xmlns:xlink="http://www.w3.org/1999/xlink">
    <title>加</title>
    <g id="数据模型" stroke="none" stroke-width="1" fill="none" fill-rule="evenodd">
        <g id="变量配置弹窗" transform="translate(-604.000000, -288.000000)" fill-rule="nonzero">
            <g id="编组-61" transform="translate(401.000000, 200.000000)">
                <g id="编组-53" transform="translate(203.000000, 88.000000)">
                    <rect id="矩形" fill="#000000" opacity="0" x="0" y="1.3127277e-12" width="16" height="16.0909091"></rect>
                    <path d="M7.53125,2.38849432 L8.46875,2.38849432 C8.55208333,2.38849432 8.59375,2.43039773 8.59375,2.51420455 L8.59375,13.5767045 C8.59375,13.6605114 8.55208333,13.7024148 8.46875,13.7024148 L7.53125,13.7024148 C7.44791667,13.7024148 7.40625,13.6605114 7.40625,13.5767045 L7.40625,2.51420455 C7.40625,2.43039773 7.44791667,2.38849432 7.53125,2.38849432 Z M2.75,7.44833097 L13.25,7.44833097 C13.3333333,7.44833097 13.375,7.49023438 13.375,7.57404119 L13.375,8.5168679 C13.375,8.60067472 13.3333333,8.64257813 13.25,8.64257813 L2.75,8.64257813 C2.66666667,8.64257813 2.625,8.60067472 2.625,8.5168679 L2.625,7.57404119 C2.625,7.49023438 2.66666667,7.44833097 2.75,7.44833097 Z" id="形状" fill="#333333"></path>
                </g>
            </g>
        </g>
    </g>
</svg>