<?xml version="1.0" encoding="UTF-8"?>
<svg width="20px" height="20px" viewBox="0 0 20 20" version="1.1" xmlns="http://www.w3.org/2000/svg" xmlns:xlink="http://www.w3.org/1999/xlink">
    <title>编组 6</title>
    <g id="数据模型" stroke="none" stroke-width="1" fill="none" fill-rule="evenodd">
        <g id="数据模型-变量配置" transform="translate(-1162.000000, -90.000000)" fill-rule="nonzero">
            <g id="编组-6" transform="translate(1162.000000, 90.000000)">
                <rect id="矩形" opacity="0.95" x="0" y="0" width="20" height="20"></rect>
                <g id="配置管理" transform="translate(1.000000, 1.000000)">
                    <rect id="矩形" fill="#000000" opacity="0" x="0" y="0" width="18" height="18"></rect>
                    <path d="M9.29456546,8.80244122 L9.29456546,1.419625 C9.29456546,1.10898348 9.04005785,0.857142857 8.72941633,0.857142857 C8.41877481,0.857142857 8.1642672,1.10898348 8.16426719,1.419625 L8.16426719,8.80352073 C7.19906865,9.05402786 6.48012276,9.93439051 6.48012276,10.9820754 C6.48012276,12.0313478 7.19767167,12.91279 8.16922019,13.1617731 C8.16610999,13.1851214 8.16445579,13.2086407 8.16426719,13.2321945 L8.16426719,16.0446052 C8.16426719,16.3552467 8.41877479,16.6070873 8.72941633,16.6070873 C9.04005787,16.6070873 9.29456546,16.3552467 9.29456546,16.0446052 L9.29456546,13.2321945 C9.29412016,13.2090092 9.292254,13.185873 9.28897748,13.1629161 C10.2626215,12.9152664 10.9834724,12.0326178 10.9834724,10.9822024 C10.9836629,9.93292999 10.266114,9.05155135 9.29456546,8.80244122 Z M9.52697511,11.7775387 C9.14746167,12.1570636 8.5527043,12.2156516 8.10643198,11.9174728 C7.66015967,11.6192939 7.48666509,11.0473949 7.69205034,10.5515254 C7.8974356,10.055656 8.42449821,9.77392223 8.95090851,9.87862091 C9.4773188,9.98331959 9.85648059,10.4452907 9.85648059,10.9820119 C9.85732199,11.2805753 9.73866986,11.5670645 9.52697511,11.7776022 L9.52697511,11.7775387 Z M3.66333057,3.17749282 C3.66650235,3.15416953 3.66822016,3.13067152 3.66847405,3.10713493 L3.66847405,1.419625 C3.66847405,1.10925525 3.41686966,0.857650856 3.10649991,0.857650856 C2.79613016,0.857650856 2.54452577,1.10925525 2.54452577,1.419625 L2.54452577,3.10713493 C2.54408801,3.13096924 2.54514843,3.15480751 2.54770077,3.17850881 C1.57615224,3.42742844 0.857142857,4.30880709 0.857142857,5.35820649 C0.857142857,6.40760589 1.57627926,7.28860354 2.54782777,7.53784066 C2.54534277,7.56082504 2.54426127,7.58393954 2.54458928,7.60705555 L2.54458928,16.0446052 C2.54458927,16.2453792 2.65170094,16.4309021 2.82557634,16.5312891 C2.99945175,16.6316761 3.21367509,16.6316761 3.3875505,16.5312891 C3.5614259,16.4309021 3.66853757,16.2453792 3.66853756,16.0446052 L3.66853756,7.60711906 C3.66828232,7.58428729 3.66664952,7.56149172 3.66364807,7.53885666 C4.63722859,7.29120703 5.35731748,6.40855838 5.35731748,5.35820649 C5.35731748,4.3078546 4.63703807,3.42501544 3.66333057,3.17749282 Z M3.9019632,6.15373328 C3.52244974,6.53325818 2.92769237,6.5918462 2.48142006,6.29366733 C2.03514775,5.99548845 1.86165319,5.42358941 2.06703845,4.92771996 C2.27242372,4.43185052 2.79948633,4.1501168 3.32589663,4.25481549 C3.85230692,4.35951418 4.23146852,4.82148532 4.23146852,5.35820649 C4.23229311,5.65674786 4.11364228,5.94321107 3.9019632,6.15373328 L3.9019632,6.15373328 Z M16.6064523,5.35820649 C16.6064523,4.3074736 15.8849029,3.42501544 14.9110049,3.17749282 C14.9134731,3.15412565 14.914491,3.130628 14.9140529,3.10713493 L14.9140529,1.419625 C14.9140529,1.10925525 14.6624485,0.857650856 14.3520787,0.857650856 C14.041709,0.857650856 13.7901046,1.10925525 13.7901046,1.419625 L13.7901046,3.10713493 C13.7903583,3.1310134 13.7921187,3.15485207 13.7953751,3.17850881 C12.8238266,3.42742844 12.1058332,4.30880709 12.1058332,5.35820649 C12.1058332,6.40760589 12.8233821,7.28892105 13.7949306,7.53790415 C13.7918256,7.56121045 13.7901715,7.58468713 13.7899776,7.60819855 L13.7899776,16.0446052 C13.7899776,16.3549749 14.041582,16.6065793 14.3519517,16.6065793 C14.6623215,16.6065793 14.9139259,16.3549749 14.9139259,16.0446052 L14.9139259,7.60819855 C14.914361,7.58506785 14.9133855,7.56193213 14.9110049,7.53892015 C15.8849664,7.29133403 16.6064523,6.40887588 16.6064523,5.35820649 L16.6064523,5.35820649 Z M15.1519235,6.15366977 C14.7723934,6.53313307 14.1776655,6.59165724 13.731444,6.29345148 C13.2852332,5.99524571 13.111805,5.42336375 13.3172259,4.92754342 C13.5226468,4.43172308 14.0497047,4.15005605 14.5760741,4.25479746 C15.1024435,4.35953888 15.4815246,4.82151706 15.481492,5.35820649 C15.4822832,5.65673504 15.3636102,5.94317353 15.1519235,6.15366977 L15.1519235,6.15366977 Z" id="形状" fill="#3F73FF"></path>
                </g>
            </g>
        </g>
    </g>
</svg>