<?xml version="1.0" encoding="UTF-8"?>
<svg xmlns:xlink="http://www.w3.org/1999/xlink" width="324px" height="210px" viewBox="0 0 324 210" version="1.1" xmlns="http://www.w3.org/2000/svg">
    <title>仪表盘</title>
    <g id="凡软自研" stroke="none" stroke-width="1" fill="none" fill-rule="evenodd">
        <g id="仪表盘" fill-rule="nonzero">
            <rect id="矩形备份-320" x="0" y="0" width="324" height="210"></rect>
            <g id="编组-97备份-2" transform="translate(68.000000, 30.000000)">
                <path d="M94.291603,14.0460525 C82.3179035,14.1508464 70.9767097,16.9024381 60.8259338,21.743562 M58.3784859,22.9631465 C47.871003,28.4276383 38.740483,36.1701528 31.6431964,45.5351798 M30.3208255,47.3318212 C23.4840478,56.8986231 18.7216358,68.0461764 16.6896778,80.119153 M16.263817,82.964852 C15.8175278,86.3686045 15.5872828,89.8402556 15.5872828,93.3656209 C15.5872828,101.638452 16.855198,109.615489 19.207518,117.113433 M19.9135633,119.255839 C23.9439097,130.919917 30.6215836,141.351526 39.2292253,149.834138" id="形状" stroke="#E6E6E6" stroke-width="13.0904074"></path>
                <path d="M130.187018,22.2254358 C119.833544,17.076619 108.354291,14.20684 96.0379851,14.0495568" id="路径" stroke="#E6E6E6" stroke-width="13.0904074"></path>
                <path d="M146.922355,33.3422242 C144.311986,31.0874826 141.553006,28.9997716 138.662066,27.0957245 C136.399077,25.6052617 134.153127,24.3016711 131.742416,23.0488306" id="路径" stroke="#E6E6E6" stroke-width="13.0904074"></path>
                <path d="M151.492781,149.117456 C159.724749,140.796316 166.127316,130.665565 170.048651,119.376279 M170.803268,117.091603 C173.151202,109.600006 174.416658,101.630424 174.416658,93.3656209 C174.416658,89.8952459 174.19354,86.4769226 173.76085,83.1241817 M173.381071,80.5224736 C171.452825,68.6920136 166.904619,57.740182 160.350658,48.2804708 M158.829873,46.1605586 C155.341319,41.462218 151.345148,37.1624726 146.922355,33.3422242" id="形状" stroke="#E6E6E6" stroke-width="13.0904074"></path>
                <g id="编组-14" transform="translate(17.778033, 124.675820)" opacity="0.95" stroke="#FFFFFF" stroke-width="1.19003704">
                    <line x1="13.1984589" y1="23.4770955" x2="17.7038317" y2="19.3077943" id="路径"></line>
                    <line x1="7.71102745" y1="16.3410064" x2="12.6919133" y2="12.76976" id="路径"></line>
                    <line x1="3.54271155" y1="9.64070311" x2="8.8867842" y2="6.62835214" id="路径"></line>
                    <line x1="0" y1="2.59807318" x2="5.56762337" y2="6.22648598e-14" id="路径"></line>
                </g>
                <g id="编组-14备份-8" transform="translate(165.212112, 135.546354) scale(-1, 1) translate(-165.212112, -135.546354) translate(156.007567, 123.580445)" opacity="0.95" stroke="#FFFFFF" stroke-width="1.19003704">
                    <line x1="13.1984589" y1="23.4770955" x2="17.7038317" y2="19.3077943" id="路径"></line>
                    <line x1="7.71102745" y1="16.3410064" x2="12.6919133" y2="12.76976" id="路径"></line>
                    <line x1="3.54271155" y1="9.64070311" x2="8.8867842" y2="6.62835214" id="路径"></line>
                    <line x1="0" y1="2.59807318" x2="5.56762337" y2="6.22648598e-14" id="路径"></line>
                </g>
                <g id="编组-14备份" transform="translate(13.811479, 100.913239) rotate(28.000000) translate(-13.811479, -100.913239) translate(4.606934, 88.947330)" opacity="0.95" stroke="#FFFFFF" stroke-width="1.19003704">
                    <line x1="13.1238914" y1="23.3069716" x2="17.6038101" y2="19.1678828" id="路径"></line>
                    <line x1="7.66746232" y1="16.2225933" x2="12.6202076" y2="12.6772255" id="路径"></line>
                    <line x1="3.52269623" y1="9.57084294" x2="8.83657638" y2="6.58032061" id="路径"></line>
                    <line x1="0" y1="2.57924656" x2="5.53616787" y2="6.18136652e-14" id="路径"></line>
                </g>
                <g id="编组-14备份-9" transform="translate(177.287836, 100.913239) scale(-1, 1) rotate(28.000000) translate(-177.287836, -100.913239) translate(168.083291, 88.947330)" opacity="0.95" stroke="#FFFFFF" stroke-width="1.19003704">
                    <line x1="13.1238914" y1="23.3069716" x2="17.6038101" y2="19.1678828" id="路径"></line>
                    <line x1="7.66746232" y1="16.2225933" x2="12.6202076" y2="12.6772255" id="路径"></line>
                    <line x1="3.52269623" y1="9.57084294" x2="8.83657638" y2="6.58032061" id="路径"></line>
                    <line x1="0" y1="2.57924656" x2="5.53616787" y2="6.18136652e-14" id="路径"></line>
                </g>
                <g id="编组-14备份-2" transform="translate(19.273272, 61.744912) rotate(56.000000) translate(-19.273272, -61.744912) translate(10.068726, 49.779003)" opacity="0.95" stroke="#FFFFFF" stroke-width="1.19003704">
                    <line x1="13.1238914" y1="23.3069716" x2="17.6038101" y2="19.1678828" id="路径"></line>
                    <line x1="7.66746232" y1="16.2225933" x2="12.6202076" y2="12.6772255" id="路径"></line>
                    <line x1="3.52269623" y1="9.57084294" x2="8.83657638" y2="6.58032061" id="路径"></line>
                    <line x1="0" y1="2.57924656" x2="5.53616787" y2="6.18136652e-14" id="路径"></line>
                </g>
                <g id="编组-14备份-7" transform="translate(171.826043, 62.832350) scale(-1, 1) rotate(56.000000) translate(-171.826043, -62.832350) translate(162.621498, 50.866441)" opacity="0.95" stroke="#FFFFFF" stroke-width="1.19003704">
                    <line x1="13.1238914" y1="23.3069716" x2="17.6038101" y2="19.1678828" id="路径"></line>
                    <line x1="7.66746232" y1="16.2225933" x2="12.6202076" y2="12.6772255" id="路径"></line>
                    <line x1="3.52269623" y1="9.57084294" x2="8.83657638" y2="6.58032061" id="路径"></line>
                    <line x1="0" y1="2.57924656" x2="5.53616787" y2="6.18136652e-14" id="路径"></line>
                </g>
                <g id="编组-14备份-3" transform="translate(42.168014, 30.198872) rotate(82.000000) translate(-42.168014, -30.198872) translate(32.963469, 18.232963)" opacity="0.95" stroke="#FFFFFF" stroke-width="1.19003704">
                    <line x1="13.1238914" y1="23.3069716" x2="17.6038101" y2="19.1678828" id="路径"></line>
                    <line x1="7.66746232" y1="16.2225933" x2="12.6202076" y2="12.6772255" id="路径"></line>
                    <line x1="3.52269623" y1="9.57084294" x2="8.83657638" y2="6.58032061" id="路径"></line>
                    <line x1="0" y1="2.57924656" x2="5.53616787" y2="6.18136652e-14" id="路径"></line>
                </g>
                <g id="编组-14备份-6" transform="translate(150.020488, 31.286309) scale(-1, 1) rotate(82.000000) translate(-150.020488, -31.286309) translate(140.815942, 19.320400)" opacity="0.95" stroke="#FFFFFF" stroke-width="1.19003704">
                    <line x1="13.1238914" y1="23.3069716" x2="17.6038101" y2="19.1678828" id="路径"></line>
                    <line x1="7.66746232" y1="16.2225933" x2="12.6202076" y2="12.6772255" id="路径"></line>
                    <line x1="3.52269623" y1="9.57084294" x2="8.83657638" y2="6.58032061" id="路径"></line>
                    <line x1="0" y1="2.57924656" x2="5.53616787" y2="6.18136652e-14" id="路径"></line>
                </g>
                <g id="编组-14备份-4" transform="translate(77.047950, 12.800608) rotate(110.000000) translate(-77.047950, -12.800608) translate(67.843405, 0.834699)" opacity="0.95" stroke="#FFFFFF" stroke-width="1.19003704">
                    <line x1="13.1238914" y1="23.3069716" x2="17.6038101" y2="19.1678828" id="路径"></line>
                    <line x1="7.66746232" y1="16.2225933" x2="12.6202076" y2="12.6772255" id="路径"></line>
                    <line x1="3.52269623" y1="9.57084294" x2="8.83657638" y2="6.58032061" id="路径"></line>
                    <line x1="0" y1="2.57924656" x2="5.53616787" y2="6.18136652e-14" id="路径"></line>
                </g>
                <g id="编组-14备份-5" transform="translate(116.232464, 13.887360) scale(-1, 1) rotate(107.000000) translate(-116.232464, -13.887360) translate(107.027919, 1.921451)" opacity="0.95" stroke="#FFFFFF" stroke-width="1.19003704">
                    <line x1="13.1238914" y1="23.3069716" x2="17.6038101" y2="19.1678828" id="路径"></line>
                    <line x1="7.66746232" y1="16.2225933" x2="12.6202076" y2="12.6772255" id="路径"></line>
                    <line x1="3.52269623" y1="9.57084294" x2="8.83657638" y2="6.58032061" id="路径"></line>
                    <line x1="0" y1="2.57924656" x2="5.53616787" y2="6.18136652e-14" id="路径"></line>
                </g>
                <polygon id="路径-2备份" fill="#E6E6E6" opacity="0.95" transform="translate(127.618010, 97.189504) rotate(57.000000) translate(-127.618010, -97.189504) " points="105.858587 122.823137 109.024858 112.198691 149.377432 71.5558706 116.769194 118.244084"></polygon>
            </g>
        </g>
    </g>
</svg>
