<?xml version="1.0" encoding="UTF-8"?>
<svg width="20px" height="20px" viewBox="0 0 20 20" version="1.1" xmlns="http://www.w3.org/2000/svg" xmlns:xlink="http://www.w3.org/1999/xlink">
    <title>数据模型</title>
    <g id="指标浏览器1105" stroke="none" stroke-width="1" fill="none" fill-rule="evenodd">
        <g id="指标浏览器2-菜单收起" transform="translate(-726.000000, -681.000000)" fill-rule="nonzero">
            <g id="数据模型" transform="translate(726.000000, 681.000000)">
                <rect id="矩形备份-11" opacity="0.95" x="0" y="0" width="20" height="20"></rect>
                <g id="数据集列表-面性备份-3" transform="translate(2.000000, 1.000000)">
                    <path d="M14.6010126,0.343000587 L1.59899106,0.343000587 C0.740990711,0.343000587 0.0479899043,1.03600139 0.0479899043,1.89400175 L0.0479899043,16.128014 C0.0479899043,16.9860144 0.740990711,17.6790152 1.59899106,17.6790152 L7.82499616,17.6790152 C8.68299651,17.6790152 9.37599732,16.9860144 9.37599732,16.128014 L9.37599732,11.0900103 C9.37599732,10.6610092 9.71699858,10.3200098 10.1459978,10.3200098 L14.5900008,10.3200098 C15.4480012,10.3200098 16.141002,9.62700903 16.141002,8.76900867 L16.141002,1.88300925 C16.141002,1.0250089 15.4480012,0.343000587 14.601001,0.343000587 L14.6010126,0.343000587 Z M7.22001264,12.9490217 C7.22001264,13.290023 6.94501275,13.5650228 6.6040115,13.5650228 L3.65601236,13.5650228 C3.31501111,13.5650228 3.04001122,13.290023 3.04001122,12.9490217 C3.04001122,12.6080204 3.31501111,12.3330206 3.65601236,12.3330206 L6.6040115,12.3330206 C6.93401253,12.3220205 7.22001264,12.6080204 7.22001264,12.9490217 Z M8.83701517,10.1330098 C8.83701517,10.4740111 8.56201528,10.749011 8.22101402,10.749011 L3.65600656,10.749011 C3.31500531,10.749011 3.04000542,10.4740111 3.04000542,10.1330098 C3.04000542,9.79200857 3.31500531,9.51700868 3.65600656,9.51700868 L8.22101402,9.51700868 C8.55101505,9.51700868 8.83701517,9.79200857 8.83701517,10.1330098 Z M11.0040155,7.32800012 C11.0040155,7.66900138 10.7290157,7.94400127 10.3880144,7.94400127 L3.65600656,7.94400127 C3.31500531,7.94400127 3.04000542,7.66900138 3.04000542,7.32800012 C3.04000542,6.98699887 3.31500531,6.71199897 3.65600656,6.71199897 L10.3880144,6.71199897 C10.7180154,6.70099896 11.0040155,6.98699887 11.0040155,7.32800012 Z M12.9290186,4.51198825 C12.9290186,4.85298951 12.6540188,5.1279894 12.3130175,5.1279894 L3.65599883,5.1279894 C3.31499757,5.1279894 3.03999768,4.85298951 3.03999768,4.51198825 C3.03999768,4.17098699 3.31499757,3.8959871 3.65599883,3.8959871 L12.3240003,3.8959871 C12.6540014,3.8959871 12.9290186,4.17098699 12.9290186,4.51198825 L12.9290186,4.51198825 Z" id="形状" fill="#6479AE"></path>
                    <path d="M15.5690288,13.2350122 L10.3000184,13.2350122 C9.98101758,13.2350122 9.71701791,13.4990118 9.71701791,13.8180126 L9.71701791,14.632014 C9.71701791,14.9510148 9.98101758,15.2150145 10.3000184,15.2150145 L15.5580266,15.2150145 C15.8770274,15.2150145 16.1410271,14.9510148 16.1410271,14.632014 L16.1410271,13.8180126 C16.1410271,13.4990118 15.8880277,13.2350122 15.5690269,13.2350122 L15.5690288,13.2350122 Z M15.5690288,10.7820136 L10.3000184,10.7820136 C9.98101758,10.7820136 9.71701791,11.0460133 9.71701791,11.3650141 L9.71701791,12.1790154 C9.71701791,12.4980162 9.98101758,12.7620159 10.3000184,12.7620159 L15.5580266,12.7620159 C15.8770274,12.7620159 16.1410271,12.4980162 16.1410271,12.1790154 L16.1410271,11.3650141 C16.1410271,11.035013 15.8880277,10.7820136 15.5690269,10.7820136 L15.5690288,10.7820136 Z M10.9270256,12.1680152 C10.7070249,12.1680152 10.5200249,11.992015 10.5200249,11.7610145 C10.5200249,11.5300136 10.7070251,11.3540138 10.9270256,11.3540138 C11.1470262,11.3540138 11.3340262,11.530014 11.3340262,11.7610145 C11.3340262,11.9920154 11.147026,12.1680152 10.9270256,12.1680152 Z M15.5690288,15.6880107 L10.3000184,15.6880107 C9.98101758,15.6880107 9.71701791,15.9520104 9.71701791,16.2710112 L9.71701791,17.0850125 C9.71701791,17.4040133 9.98101758,17.668013 10.3000184,17.668013 L15.5580266,17.668013 C15.8770274,17.668013 16.1410271,17.4040133 16.1410271,17.0850125 L16.1410271,16.2710112 C16.1410271,15.9520104 15.8880277,15.6880107 15.5690269,15.6880107 L15.5690288,15.6880107 Z" id="形状" fill="#C5CFE7"></path>
                </g>
            </g>
        </g>
    </g>
</svg>