<?xml version="1.0" encoding="UTF-8"?>
<svg width="20px" height="20px" viewBox="0 0 20 20" version="1.1" xmlns="http://www.w3.org/2000/svg" xmlns:xlink="http://www.w3.org/1999/xlink">
    <title>搜索分析</title>
    <g id="资源发布审批" stroke="none" stroke-width="1" fill="none" fill-rule="evenodd">
        <g id="搜索分析" fill-rule="nonzero">
            <g id="维度管理/选中备份-3" opacity="0.95">
                <rect id="矩形备份-6" x="0" y="0" width="20" height="20"></rect>
            </g>
            <g id="dangan" transform="translate(2.000000, 2.000000)">
                <path d="M7.01793287,6.49643591 C11.4486853,6.49643591 14.5384709,5.37706899 14.5384709,3.99685877 L14.5384709,2.49957714 C14.5384709,1.11936692 11.4507452,0 7.01793287,0 C2.58924028,0 0,1.11936692 0,2.49957714 L0,3.99685877 C0.00205985702,5.3750151 2.58924028,6.49643591 7.01793287,6.49643591 Z M6.10953593,12.4773469 C3.06712711,12.3643832 1.2894705,11.6722242 0.356355265,10.7459224 C0.11741185,10.9821191 0.00205985702,11.2347469 0.00205985702,11.4955902 L0.00205985702,13.4940196 C0.00205985702,14.8742298 2.58924028,15.9935967 7.01999273,15.9935967 C7.46286199,15.9935967 7.89543196,15.9792195 8.31976251,15.9566268 C7.18066158,15.1391809 6.36907791,13.9047964 6.10953593,12.4773469 L6.10953593,12.4773469 Z M6.01684236,11.4709436 C6.02302193,10.1482421 6.49472919,8.93850429 7.27953471,7.99166365 C7.18272143,7.99166365 7.09208773,7.99371753 6.99321459,7.99371753 C3.40082394,7.99371753 1.37598449,7.25842697 0.356355265,6.24380814 C0.11741185,6.48205872 0.00205985702,6.7326326 0.00205985702,6.9934759 L0.00205985702,8.99395916 C0.00205985702,10.2653135 2.20404701,11.3169023 6.01684236,11.4709436 L6.01684236,11.4709436 Z" id="形状" fill="#6479AE"></path>
                <path d="M11.467224,7.15984052 C13.9246335,7.15984052 15.9185751,9.14800048 15.9185751,11.5982844 C15.9185751,12.456808 15.6734521,13.2578229 15.2511814,13.9356047 L15.2511814,13.9356047 L16.7280989,15.4226169 C16.8949473,15.5869276 16.9979401,15.8190166 17,16.0757521 C17,16.5851154 16.5839089,17 16.0730643,17 C15.8176421,17 15.5848782,16.8993597 15.41597,16.7309412 L15.41597,16.7309412 L13.9658306,15.2706295 C13.2531201,15.7532923 12.3920998,16.0367283 11.467224,16.0367283 C9.00775476,16.0367283 7.01587302,14.0485683 7.01587302,11.5982844 C7.01587302,9.14800048 9.00981461,7.15984052 11.467224,7.15984052 Z M11.4692839,8.53183521 C9.77196171,8.53183521 8.39597722,9.90177601 8.39597722,11.5962305 C8.39597722,13.2886311 9.76990185,14.6606258 11.4692839,14.6606258 C13.1666061,14.6606258 14.5425906,13.2886311 14.5425906,11.5962305 C14.5425906,9.90382989 13.1666061,8.53183521 11.4692839,8.53183521 Z" id="形状结合" fill="#C5CFE7"></path>
            </g>
        </g>
    </g>
</svg>