<?xml version="1.0" encoding="UTF-8"?>
<svg width="20px" height="20px" viewBox="0 0 20 20" version="1.1" xmlns="http://www.w3.org/2000/svg" xmlns:xlink="http://www.w3.org/1999/xlink">
    <title>编组</title>
    <g id="指标管理04.10" stroke="none" stroke-width="1" fill="none" fill-rule="evenodd">
        <g id="故事管理" transform="translate(-19.000000, -250.000000)" fill-rule="nonzero">
            <g id="故事管理选中" transform="translate(19.000000, 250.000000)">
                <g id="预警目标选中" fill="#000000" opacity="0">
                    <g id="编组-26">
                        <rect id="矩形" x="0" y="0" width="20" height="20"></rect>
                    </g>
                </g>
                <path d="M14.2093373,3 C14.9482111,3 15.549072,3.57898079 15.549072,4.29260827 L15.549072,4.29260827 L15.549072,9.67342681 L9.83500284,9.67342681 L9.22572655,8.25627035 C9.0759321,7.91965361 8.74099845,7.7042189 8.37576929,7.70926815 L8.37576929,7.70926815 L5.16444562,7.70926815 L5.16444562,4.29260827 C5.16444562,3.5772977 5.76530649,3 6.50418023,3 L6.50418023,3 Z M12.7315899,5.011285 L7.98529388,5.011285 C7.75471141,5.011285 7.56620604,5.19979038 7.56620604,5.43037284 C7.56620604,5.66095531 7.75134524,5.84946068 7.98529388,5.84946068 L7.98529388,5.84946068 L12.7315899,5.84946068 C12.9621723,5.84946068 13.1506777,5.66095531 13.1506777,5.43037284 C13.1506777,5.19979038 12.9621723,5.011285 12.7315899,5.011285 L12.7315899,5.011285 Z" id="形状结合" fill="#FFAF48"></path>
                <path d="M8.07954656,8.27815044 C8.45487422,8.27815044 8.78812479,8.50200057 8.93118691,8.84703272 L8.93118691,8.84703272 L9.5404632,10.3163648 L15.9833075,10.3163648 C16.2408194,10.3163648 16.4882327,10.4190329 16.6733719,10.6008059 C16.856828,10.784262 16.9594961,11.0333584 16.9594961,11.2925533 L16.9594961,11.2925533 L16.9594961,15.9799414 C16.9594961,16.2391363 16.856828,16.4882327 16.6733719,16.6716888 C16.4899157,16.8551449 16.2408194,16.957813 15.9816245,16.957813 L15.9816245,16.957813 L3.97787162,16.957813 C3.71867673,16.957813 3.46958035,16.8551449 3.28612423,16.6716888 C3.1026681,16.4882327 3,16.2391363 3,15.9799414 L3,15.9799414 L3,11.2891871 C3,11.2622578 3.00336617,11.2336454 3.00504925,11.206716 C3.00168308,11.1797867 3,11.1511743 3,11.1242449 L3,11.1242449 L3,9.19879721 C3,8.69050594 3.4123555,8.27815044 3.92064678,8.27815044 L3.92064678,8.27815044 Z M5.70134931,11.6577825 C5.27384606,11.4810587 4.78070254,11.5803606 4.4541843,11.9068789 C4.12598299,12.2333971 4.02836413,12.7265406 4.20508792,13.1540439 C4.38181171,13.5815471 4.79921646,13.860939 5.26206447,13.860939 C5.89322085,13.860939 6.40656138,13.3475985 6.40824446,12.714759 C6.40824446,12.2535941 6.12885257,11.8345063 5.70134931,11.6577825 Z" id="形状结合" fill="#3F73FF"></path>
            </g>
        </g>
    </g>
</svg>