<?xml version="1.0" encoding="UTF-8"?>
<svg width="12px" height="12px" viewBox="0 0 12 12" version="1.1" xmlns="http://www.w3.org/2000/svg" xmlns:xlink="http://www.w3.org/1999/xlink">
    <title>黑色/指标看板</title>
    <g id="11.11" stroke="none" stroke-width="1" fill="none" fill-rule="evenodd">
        <g id="画板" transform="translate(-865.000000, -288.000000)" fill-rule="nonzero">
            <g id="黑色/指标看板" transform="translate(865.000000, 288.000000)">
                <rect id="矩形备份-17" opacity="0.95" x="0" y="0" width="12" height="12"></rect>
                <path d="M11.4,0.6 L11.4,11.4 L0.6,11.4 L0.6,0.6 L11.4,0.6 Z M10.8782609,1.12173913 L1.12173913,1.12173913 L1.12173913,10.8782609 L10.8782609,10.8782609 L10.8782609,1.12173913 Z M3.15789474,7.98947368 L4.01052632,9.12631579 L2.30526316,9.12631579 L3.15789474,7.98947368 Z M7.13684211,7.98947368 L7.98947368,9.12631579 L6.28421053,9.12631579 L7.13684211,7.98947368 Z M5.71578947,7.98947368 L4.86315789,9.12631579 L4.01052632,7.98947368 L5.71578947,7.98947368 Z M9.69473684,7.98947368 L8.84210526,9.12631579 L7.98947368,7.98947368 L9.69473684,7.98947368 Z M9.69473684,6.28421053 L9.69473684,6.85263158 L2.30526316,6.85263158 L2.30526316,6.28421053 L9.69473684,6.28421053 Z M3.15789474,4.01052632 L4.01052632,5.14736842 L2.30526316,5.14736842 L3.15789474,4.01052632 Z M7.13684211,4.01052632 L7.98947368,5.14736842 L6.28421053,5.14736842 L7.13684211,4.01052632 Z M5.71578947,4.01052632 L4.86315789,5.14736842 L4.01052632,4.01052632 L5.71578947,4.01052632 Z M9.69473684,4.01052632 L8.84210526,5.14736842 L7.98947368,4.01052632 L9.69473684,4.01052632 Z M9.69473684,2.87368421 L9.69473684,3.44210526 L2.30526316,3.44210526 L2.30526316,2.87368421 L9.69473684,2.87368421 Z" id="形状结合" fill="#16234A"></path>
            </g>
        </g>
    </g>
</svg>