<?xml version="1.0" encoding="UTF-8"?>
<svg width="36px" height="36px" viewBox="0 0 36 36" version="1.1" xmlns="http://www.w3.org/2000/svg" xmlns:xlink="http://www.w3.org/1999/xlink">
    <title>指标icon</title>
    <g id="页面-1" stroke="none" stroke-width="1" fill="none" fill-rule="evenodd">
        <g id="指标和报表搜索结果" transform="translate(-63.000000, -532.000000)" fill-rule="nonzero">
            <g id="指标icon" transform="translate(63.000000, 532.000000)">
                <rect id="矩形" opacity="0.95" x="0" y="0" width="36" height="36"></rect>
                <g id="指标" transform="translate(2.000000, 6.000000)" fill="#C5CFE7">
                    <path d="M16.0000205,11.9540434 C18.346691,11.9540434 20.1067034,13.902109 20.1067034,16.2398022 C20.1067034,18.5774817 18.1511452,20.525561 16.0000205,20.525561 C13.8489061,20.525561 11.8933376,18.5774954 11.8933376,16.2398022 C11.8933376,13.9021227 13.6533396,11.9540434 16.0000205,11.9540434 M16.0000205,10.2007846 C12.8711287,10.2007846 10.1333355,12.9280745 10.1333355,16.2398022 C10.1333355,19.5515128 12.6755622,22.2788198 16.0000205,22.2788198 C19.3244684,22.2788198 21.8667054,19.5515299 21.8667054,16.2398022 C21.8667054,12.9280916 19.128926,10.2007846 16.0000205,10.2007846" id="形状"></path>
                    <path d="M28.3200348,10.2007846 C29.2978122,12.1488503 29.6889245,14.0969228 29.6889245,16.2398022 C29.6889245,18.3826748 29.2978122,20.525561 28.3200348,22.2788198 L30.0800369,23.0580474 C31.0578143,20.9151748 31.6444827,18.5775125 31.6444827,16.0450124 C31.6444827,13.707333 31.0578143,11.3696672 30.0800369,9.22678777 L28.3200348,10.2008189 L28.3200348,10.2007846 Z M3.48444654,21.8891649 C2.70222188,20.1359061 2.31111299,18.187837 2.31111299,16.239768 C2.31111299,8.44749166 8.56888277,2.213698 16.0000102,2.213698 C18.3466807,2.213698 20.4977779,2.79811873 22.4533396,3.77214984 L23.2355642,2.213698 C21.0844498,1.04485998 18.5422369,0.265632351 15.9999964,0.265632351 C7.39554578,0.265632351 0.355537588,7.27866733 0.355537588,16.0449611 C0.355537588,18.3826405 0.746649918,20.525496 1.72442731,22.473565 L3.48442935,21.8891443 L3.48444654,21.8891649 Z M28.1577159,6.01631761 L20.6385884,13.6761065 L19.240363,12.31441 L26.7594905,4.65266926 L28.1577159,6.01631761 Z" id="形状"></path>
                </g>
            </g>
        </g>
    </g>
</svg>