<?xml version="1.0" encoding="UTF-8"?>
<svg width="13px" height="13px" viewBox="0 0 13 13" version="1.1" xmlns="http://www.w3.org/2000/svg" xmlns:xlink="http://www.w3.org/1999/xlink">
    <title>编组 12备份</title>
    <g id="分级授权" stroke="none" stroke-width="1" fill="none" fill-rule="evenodd" fill-opacity="0.15">
        <g id="切图" transform="translate(-62.000000, -241.000000)" fill="#000000">
            <g id="编组-12备份" transform="translate(62.250000, 241.505711)">
                <circle id="椭圆形" cx="6" cy="6" r="6"></circle>
            </g>
        </g>
    </g>
</svg>