<?xml version="1.0" encoding="UTF-8"?>
<svg width="17px" height="16px" viewBox="0 0 17 16" version="1.1" xmlns="http://www.w3.org/2000/svg" xmlns:xlink="http://www.w3.org/1999/xlink">
    <title>筛选</title>
    <g id="分级授权" stroke="none" stroke-width="1" fill="none" fill-rule="evenodd">
        <g id="切图" transform="translate(-31.000000, -276.000000)" fill="#3F73FF" fill-rule="nonzero">
            <g id="筛选" transform="translate(31.500000, 276.000000)">
                <rect id="矩形" opacity="0" x="0" y="0" width="16" height="16"></rect>
                <path d="M13.1239063,4.46434375 C13.2060625,4.382375 13.2983906,4.28989063 13.358375,4.18429688 C13.8077813,3.626375 13.8614688,2.781875 13.484375,2.16898438 C13.1045,1.55164063 12.5414063,1.23860938 11.8108906,1.23860938 L2.76957813,1.23860938 C2.594375,1.23860938 2.41332813,1.23860938 2.25567188,1.28832813 C1.86964063,1.38170313 1.51646875,1.60985938 1.26051563,1.93139063 C0.999796875,2.25875 0.85625,2.6634375 0.85625,3.07084375 C0.85625,3.59951563 1.05770313,4.06804688 1.42370313,4.39076563 C2.58628125,5.51345313 3.74698438,6.67370313 4.87010938,7.79690625 L4.87010938,11.504 L4.87204688,11.5352031 C4.93309375,12.0232969 5.30389063,12.2899219 5.75270313,12.0971719 L5.76051563,12.0935 C6.00334375,11.9721406 6.14254688,11.7277344 6.14254688,11.4229219 L6.14254688,7.61179688 C6.14254688,7.35454688 6.06326563,7.14476563 5.90682813,6.98832813 C5.34582813,6.42725 4.79307813,5.84420313 4.258625,5.28026563 C3.70759375,4.69885938 3.13775,4.09767188 2.54217188,3.50209375 L2.513,3.472625 L2.47784375,3.45528125 C2.4695625,3.44959375 2.45128125,3.42575 2.43740625,3.40753125 C2.42217188,3.38779688 2.40732813,3.369125 2.39173438,3.35209375 C2.28889063,3.22032812 2.26720313,3.10834375 2.31521875,2.95723438 C2.39870313,2.76829687 2.56610938,2.55146875 2.7695,2.55146875 L11.8919063,2.55146875 C12.0029844,2.55146875 12.1100781,2.61146875 12.1933906,2.72051562 C12.3014688,2.86204687 12.3416719,3.04917187 12.2972031,3.21253125 C12.2745469,3.30290625 12.2368281,3.34384375 12.1228906,3.458 C10.8667344,4.67353125 9.666875,5.87329688 8.39660938,7.1435 L8.38985938,7.15032813 C8.26115625,7.278875 8.11348438,7.466 8.11348438,7.773875 L8.11348438,14.18 C8.11348438,14.25875 8.11348438,14.4806719 8.27570313,14.6582812 C8.27570313,14.6582812 8.32496875,14.7695 8.537375,14.8502656 C8.799875,14.9500313 9.05629688,14.8363906 9.05629688,14.8363906 L9.12326563,14.7862969 C9.38592188,14.5892031 9.38592188,14.2822344 9.38592188,14.0987813 L9.38592188,8.0401875 C10.0140469,7.41357813 10.6649063,6.80404688 11.29475,6.21425 C11.9361562,5.6138125 12.5418438,5.0465 13.1239219,4.46434375 L13.1239063,4.46434375 Z M14.5273438,12.6719063 L11.081,12.6719063 C10.7209531,12.6719063 10.5057656,12.9644688 10.5057656,13.247375 L10.5057656,13.4096875 C10.5057656,13.7698438 10.7981875,13.985 11.081,13.985 L14.5273438,13.985 C14.8875625,13.985 15.1027344,13.6925 15.1027344,13.4096719 L15.1027344,13.2473438 C15.1027344,12.9031875 14.8715156,12.671875 14.5273438,12.671875 L14.5273438,12.6719063 Z M14.5273438,10.6042969 L11.081,10.6042969 C10.7209531,10.6042969 10.5057656,10.896875 10.5057656,11.1797656 L10.5057656,11.3012031 C10.5057656,11.6615 10.7981875,11.8767344 11.081,11.8767344 L14.5273438,11.8767344 C14.8875625,11.8767344 15.1027344,11.5841719 15.1027344,11.3012031 L15.1027344,11.1797656 C15.1027344,10.896875 14.8875781,10.6042969 14.5273438,10.6042969 Z M14.5273438,8.617625 L11.081,8.617625 C10.7209531,8.617625 10.5057656,8.9101875 10.5057656,9.19309375 L10.5057656,9.2741875 C10.5057656,9.63423438 10.7981875,9.8495 11.081,9.8495 L14.5273438,9.8495 C14.8875625,9.8495 15.1027344,9.557 15.1027344,9.2741875 L15.1027344,9.19309375 C15.1027344,8.848875 14.8715156,8.617625 14.5273438,8.617625 Z" id="形状"></path>
            </g>
        </g>
    </g>
</svg>