<?xml version="1.0" encoding="UTF-8"?>
<svg width="12px" height="13px" viewBox="0 0 12 13" version="1.1" xmlns="http://www.w3.org/2000/svg" xmlns:xlink="http://www.w3.org/1999/xlink">
    <title>编组 38</title>
    <g id="分级授权" stroke="none" stroke-width="1" fill="none" fill-rule="evenodd">
        <g id="切图" transform="translate(-96.000000, -241.000000)">
            <g id="编组-38" transform="translate(96.000000, 241.505711)">
                <circle id="椭圆形" fill="#3F73FF" cx="6" cy="6" r="6"></circle>
                <g id="选中" transform="translate(1.000000, 1.000000)" fill="#FFFFFF" fill-rule="nonzero">
                    <rect id="矩形" opacity="0" x="0" y="0" width="10" height="10"></rect>
                    <path d="M4.21445313,8.12826172 C4.01420898,8.12826172 3.82195312,8.04922852 3.67897461,7.90625 L2.26739258,6.49467773 L1.5497168,5.80306641 C1.36331055,5.62341797 1.3578125,5.32667969 1.53746094,5.14026367 C1.71710938,4.95384766 2.01384766,4.94837891 2.20026367,5.12799805 L2.92725586,5.82870117 L4.19126953,7.09272461 L7.74223633,2.06994141 C7.89167969,1.85854492 8.18420898,1.80832031 8.39558594,1.9577832 C8.60697266,2.10723633 8.65719727,2.39974609 8.50774414,2.61113281 L4.83379883,7.8078418 C4.70451172,7.99071289 4.50239258,8.10649414 4.27924805,8.12550781 C4.25769854,8.12734387 4.23608071,8.12826172 4.21445313,8.12826172 Z" id="路径"></path>
                </g>
            </g>
        </g>
    </g>
</svg>