<?xml version="1.0" encoding="UTF-8"?>
<svg width="16px" height="16px" viewBox="0 0 16 16" version="1.1" xmlns="http://www.w3.org/2000/svg" xmlns:xlink="http://www.w3.org/1999/xlink">
    <title>行列转置-可选择 2</title>
    <g id="即席分析" stroke="none" stroke-width="1" fill="none" fill-rule="evenodd">
        <g id="切图" transform="translate(-976.000000, -18.000000)">
            <g id="行列转置-可选择" transform="translate(984.000000, 26.000000) scale(-1, 1) translate(-984.000000, -26.000000) translate(976.000000, 18.000000)">
                <g id="编组-43">
                    <rect id="矩形备份-5" x="0" y="0" width="16" height="16"></rect>
                    <path d="M12.6363636,2 C13.3894884,2 14,2.61051865 14,3.36363636 L14,12.6363636 C14,13.3894917 13.3894917,14 12.6363636,14 L3.36363636,14 C2.61051865,14 2,13.3894884 2,12.6363636 L2,3.36363636 C2,2.61052195 2.61052195,2 3.36363636,2 Z M9.909,6.639 L3.09,6.646 L3.09090909,12.6363636 C3.09090909,12.7654746 3.18061463,12.8736235 3.30110094,12.9018883 L3.36363636,12.9090909 L9.909,12.909 L9.909,6.639 Z M12.909,6.637 L11,6.638 L11,12.909 L12.6363636,12.9090909 C12.7654799,12.9090909 12.873625,12.8193909 12.9018886,12.6989014 L12.9090909,12.6363636 L12.909,6.637 Z M9.909,3.09 L3.36363636,3.09090909 C3.21301441,3.09090909 3.09090909,3.21301441 3.09090909,3.36363636 L3.09,5.554 L9.909,5.548 L9.909,3.09 Z M12.6363636,3.09090909 L11,3.09 L11,5.547 L12.909,5.545 L12.9090909,3.36363636 C12.9090909,3.23452659 12.8193864,3.1263768 12.6988995,3.09811175 L12.6363636,3.09090909 Z" id="形状结合" fill="#BFBFBF" fill-rule="nonzero"></path>
                </g>
                <g id="编组" transform="translate(2.000000, 2.000000)"></g>
            </g>
        </g>
    </g>
</svg>