<?xml version="1.0" encoding="UTF-8"?>
<svg width="16px" height="16px" viewBox="0 0 16 16" version="1.1" xmlns="http://www.w3.org/2000/svg" xmlns:xlink="http://www.w3.org/1999/xlink">
    <title>编组 28@2x</title>
    <g id="即席分析" stroke="none" stroke-width="1" fill="none" fill-rule="evenodd">
        <g id="切图" transform="translate(-1015.000000, -41.000000)">
            <g id="编组-34" transform="translate(1015.000000, 41.000000)">
                <path d="M14.0006482,3 L2.49752323,3 C2.11471073,3 1.87564823,3.4171875 2.06783573,3.75 L5.70221073,9.928125 L5.70221073,13.6875 C5.70221073,13.9640625 5.92408573,14.1875 6.19908573,14.1875 L10.2990857,14.1875 C10.5740857,14.1875 10.7959607,13.9640625 10.7959607,13.6875 L10.7959607,9.928125 L14.4318982,3.75 C14.6225232,3.4171875 14.3834607,3 14.0006482,3 Z M9.67721073,13.0625 L6.82096073,13.0625 L6.82096073,10.625 L9.67877323,10.625 L9.67877323,13.0625 L9.67721073,13.0625 Z M9.82721073,9.365625 L9.67877323,9.625 L6.81939823,9.625 L6.67096073,9.365625 L3.57252323,4.125 L12.9256482,4.125 L9.82721073,9.365625 Z" id="形状" fill="#333333" fill-rule="nonzero"></path>
                <rect id="矩形" x="0" y="0" width="16" height="16"></rect>
            </g>
        </g>
    </g>
</svg>