<?xml version="1.0" encoding="UTF-8"?>
<svg width="24px" height="24px" viewBox="0 0 24 24" version="1.1" xmlns="http://www.w3.org/2000/svg" xmlns:xlink="http://www.w3.org/1999/xlink">
    <title>编组 18备份@2x</title>
    <defs>
        <rect id="path-1" x="0" y="0" width="22" height="22" rx="3"></rect>
        <filter x="-6.8%" y="-6.8%" width="113.6%" height="113.6%" filterUnits="objectBoundingBox" id="filter-2">
            <feMorphology radius="0.5" operator="dilate" in="SourceAlpha" result="shadowSpreadOuter1"></feMorphology>
            <feOffset dx="0" dy="0" in="shadowSpreadOuter1" result="shadowOffsetOuter1"></feOffset>
            <feComposite in="shadowOffsetOuter1" in2="SourceAlpha" operator="out" result="shadowOffsetOuter1"></feComposite>
            <feColorMatrix values="0 0 0 0 0.771116395   0 0 0 0 0.771116395   0 0 0 0 0.771116395  0 0 0 0.5 0" type="matrix" in="shadowOffsetOuter1"></feColorMatrix>
        </filter>
    </defs>
    <g id="即席分析" stroke="none" stroke-width="1" fill="none" fill-rule="evenodd">
        <g id="切图" transform="translate(-203.000000, -71.000000)">
            <g id="编组-18备份" transform="translate(204.000000, 72.000000)">
                <g id="矩形">
                    <use fill="black" fill-opacity="1" filter="url(#filter-2)" xlink:href="#path-1"></use>
                    <rect stroke="#BDBDBD" stroke-width="1" stroke-linejoin="square" fill="#FFFFFF" fill-rule="evenodd" x="0.5" y="0.5" width="21" height="21" rx="3"></rect>
                </g>
                <g id="编组-8" transform="translate(5.000000, 6.000000)" fill="#D0D0D0" fill-rule="nonzero">
                    <polygon id="路径" transform="translate(2.500000, 1.500000) rotate(90.000000) translate(-2.500000, -1.500000) " points="2.9 -0.968273502 2.1 -1 2.1 4 2.9 4"></polygon>
                    <polygon id="路径备份" transform="translate(9.500000, 1.500000) rotate(90.000000) translate(-9.500000, -1.500000) " points="9.9 -0.968273502 9.1 -1 9.1 4 9.9 4"></polygon>
                    <polygon id="路径" transform="translate(9.500000, 3.333333) rotate(90.000000) translate(-9.500000, -3.333333) " points="9.9 1.3587232 9.1 1.33333333 9.1 5.33333333 9.9 5.33333333"></polygon>
                    <polygon id="路径备份-2" transform="translate(3.500000, 3.500000) rotate(90.000000) translate(-3.500000, -3.500000) " points="3.9 2.0190424 3.1 2 3.1 5 3.9 5"></polygon>
                    <polygon id="路径" transform="translate(8.500000, 5.166667) rotate(90.000000) translate(-8.500000, -5.166667) " points="8.9 3.68571084 8.1 3.66666667 8.1 6.66666667 8.9 6.66666667"></polygon>
                    <polygon id="路径备份-3" transform="translate(2.500000, 5.500000) rotate(90.000000) translate(-2.500000, -5.500000) " points="2.9 3.03174028 2.1 3 2.1 8 2.9 8"></polygon>
                    <polygon id="路径" transform="translate(9.500000, 7.000000) rotate(90.000000) translate(-9.500000, -7.000000) " points="9.9 5.02539157 9.1 5 9.1 9 9.9 9"></polygon>
                    <polygon id="路径备份-4" transform="translate(2.500000, 7.000000) rotate(90.000000) translate(-2.500000, -7.000000) " points="2.9 5.02539157 2.1 5 2.1 9 2.9 9"></polygon>
                    <polygon id="路径" points="6.24831697 8.53458444 6.24831697 0 6 0 6 9 12 9 12 8.53458444"></polygon>
                    <polygon id="路径" transform="translate(3.000000, 4.500000) scale(-1, 1) translate(-3.000000, -4.500000) " points="0.248316971 8.53458444 0.248316971 0 0 0 0 9 6 9 6 8.53458444"></polygon>
                </g>
            </g>
        </g>
    </g>
</svg>