<?xml version="1.0" encoding="UTF-8"?>
<svg width="24px" height="24px" viewBox="0 0 24 24" version="1.1" xmlns="http://www.w3.org/2000/svg" xmlns:xlink="http://www.w3.org/1999/xlink">
    <title>编组 24</title>
    <defs>
        <rect id="path-1" x="0" y="0" width="22" height="22" rx="3"></rect>
        <filter x="-6.8%" y="-6.8%" width="113.6%" height="113.6%" filterUnits="objectBoundingBox" id="filter-2">
            <feMorphology radius="0.5" operator="dilate" in="SourceAlpha" result="shadowSpreadOuter1"></feMorphology>
            <feOffset dx="0" dy="0" in="shadowSpreadOuter1" result="shadowOffsetOuter1"></feOffset>
            <feComposite in="shadowOffsetOuter1" in2="SourceAlpha" operator="out" result="shadowOffsetOuter1"></feComposite>
            <feColorMatrix values="0 0 0 0 0.733333333   0 0 0 0 0.811764706   0 0 0 0 1  0 0 0 1 0" type="matrix" in="shadowOffsetOuter1"></feColorMatrix>
        </filter>
    </defs>
    <g id="即席分析" stroke="none" stroke-width="1" fill="none" fill-rule="evenodd">
        <g id="切图" transform="translate(-522.000000, -38.000000)">
            <g id="编组-24" transform="translate(523.000000, 39.000000)">
                <g id="矩形">
                    <use fill="black" fill-opacity="1" filter="url(#filter-2)" xlink:href="#path-1"></use>
                    <rect stroke="#3F73FF" stroke-width="1" stroke-linejoin="square" fill="#FFFFFF" fill-rule="evenodd" x="0.5" y="0.5" width="21" height="21" rx="3"></rect>
                </g>
                <g id="编组-62备份-9" transform="translate(5.000000, 6.000000)" fill="#3F73FF" fill-rule="nonzero">
                    <g id="zhuzhuangtu">
                        <polygon id="路径" points="2.51325494 5.37615854 1.01301215 5.34814646 1.01301215 9.76276468 2.51325494 9.76276468"></polygon>
                        <polygon id="路径" points="5.42582896 1.70820655 3.92558617 1.6567539 3.92558617 9.76276468 5.42582896 9.76276468"></polygon>
                        <polygon id="路径" points="8.33840298 3.5818884 6.83816019 3.54240118 6.83816019 9.76276468 8.33840298 9.76276468"></polygon>
                        <polygon id="路径" points="11.250977 7.15345447 9.75073421 7.13678503 9.75073421 9.76276468 11.250977 9.76276468"></polygon>
                        <polygon id="路径" points="0.496633942 10.4311588 0.496633942 0 0 0 0 11 12 11 12 10.4311588"></polygon>
                    </g>
                </g>
            </g>
        </g>
    </g>
</svg>