<?xml version="1.0" encoding="UTF-8"?>
<svg width="24px" height="24px" viewBox="0 0 24 24" version="1.1" xmlns="http://www.w3.org/2000/svg" xmlns:xlink="http://www.w3.org/1999/xlink">
    <title>编组 19备份@2x</title>
    <defs>
        <rect id="path-1" x="0" y="0" width="22" height="22" rx="3"></rect>
        <filter x="-6.8%" y="-6.8%" width="113.6%" height="113.6%" filterUnits="objectBoundingBox" id="filter-2">
            <feMorphology radius="0.5" operator="dilate" in="SourceAlpha" result="shadowSpreadOuter1"></feMorphology>
            <feOffset dx="0" dy="0" in="shadowSpreadOuter1" result="shadowOffsetOuter1"></feOffset>
            <feComposite in="shadowOffsetOuter1" in2="SourceAlpha" operator="out" result="shadowOffsetOuter1"></feComposite>
            <feColorMatrix values="0 0 0 0 0.771116395   0 0 0 0 0.771116395   0 0 0 0 0.771116395  0 0 0 0.5 0" type="matrix" in="shadowOffsetOuter1"></feColorMatrix>
        </filter>
    </defs>
    <g id="即席分析" stroke="none" stroke-width="1" fill="none" fill-rule="evenodd">
        <g id="切图" transform="translate(-299.000000, -71.000000)">
            <g id="编组-19备份" transform="translate(300.000000, 72.000000)">
                <g id="编组-41">
                    <g id="矩形备份-27">
                        <use fill="black" fill-opacity="1" filter="url(#filter-2)" xlink:href="#path-1"></use>
                        <rect stroke="#BDBDBD" stroke-width="1" stroke-linejoin="square" fill="#FFFFFF" fill-rule="evenodd" x="0.5" y="0.5" width="21" height="21" rx="3"></rect>
                    </g>
                    <rect id="矩形备份-21" opacity="0.95" fill-rule="nonzero" x="5" y="5" width="12" height="12"></rect>
                    <polygon id="路径" fill="#D8D8D8" fill-rule="nonzero" points="8 13.0190359 6 13 6 16 8 16"></polygon>
                    <polygon id="路径" fill="#D8D8D8" fill-rule="nonzero" points="11 12.0253899 9 12 9 16 11 16"></polygon>
                    <polygon id="路径" fill="#D8D8D8" fill-rule="nonzero" points="5.49663394 16.4311588 5.49663394 6 5 6 5 17 17 17 17 16.4311588"></polygon>
                    <polygon id="路径" fill="#D8D8D8" fill-rule="nonzero" points="11.5320479 11 8.87757084 8.39693907 6.22218783 10.4508167 6 9.86636848 8.90635876 7.61837178 11.5298335 10.1910309 15.7329443 6 16 6.54489334"></polygon>
                </g>
                <g id="编组-32" transform="translate(5.000000, 5.000000)" fill="#D8D8D8" fill-rule="nonzero">
                    <g id="组合图备份-10">
                        <polygon id="路径" points="9 8.01904417 7 8 7 11 9 11"></polygon>
                        <polygon id="路径" points="12 5.03808736 10 5 10 11 12 11"></polygon>
                    </g>
                </g>
            </g>
        </g>
    </g>
</svg>