<?xml version="1.0" encoding="UTF-8"?>
<svg width="24px" height="24px" viewBox="0 0 24 24" version="1.1" xmlns="http://www.w3.org/2000/svg" xmlns:xlink="http://www.w3.org/1999/xlink">
    <title>编组 39</title>
    <defs>
        <rect id="path-1" x="0" y="0" width="22" height="22" rx="3"></rect>
        <filter x="-6.8%" y="-6.8%" width="113.6%" height="113.6%" filterUnits="objectBoundingBox" id="filter-2">
            <feMorphology radius="0.5" operator="dilate" in="SourceAlpha" result="shadowSpreadOuter1"></feMorphology>
            <feOffset dx="0" dy="0" in="shadowSpreadOuter1" result="shadowOffsetOuter1"></feOffset>
            <feComposite in="shadowOffsetOuter1" in2="SourceAlpha" operator="out" result="shadowOffsetOuter1"></feComposite>
            <feColorMatrix values="0 0 0 0 0.771116395   0 0 0 0 0.771116395   0 0 0 0 0.771116395  0 0 0 0.5 0" type="matrix" in="shadowOffsetOuter1"></feColorMatrix>
        </filter>
    </defs>
    <g id="即席分析" stroke="none" stroke-width="1" fill="none" fill-rule="evenodd">
        <g id="切图" transform="translate(-171.000000, -38.000000)">
            <g id="编组-37" transform="translate(172.000000, 39.000000)">
                <g id="矩形">
                    <use fill="black" fill-opacity="1" filter="url(#filter-2)" xlink:href="#path-1"></use>
                    <rect stroke="#979797" stroke-width="1" stroke-linejoin="square" fill="#FFFFFF" fill-rule="evenodd" x="0.5" y="0.5" width="21" height="21" rx="3"></rect>
                </g>
                <g id="编组-62备份-9" transform="translate(5.000000, 5.000000)" fill-rule="nonzero">
                    <rect id="矩形备份-20" opacity="0.95" x="0" y="0" width="12" height="12"></rect>
                    <g id="zhuzhuangtu" transform="translate(0.000000, 1.000000)" fill="#16234A">
                        <g id="编组-30" transform="translate(6.078989, 5.709759) rotate(90.000000) translate(-6.078989, -5.709759) translate(1.960007, 0.709759)">
                            <polygon id="路径" points="1.50024278 4.0380718 0 4 0 10 1.50024278 10"></polygon>
                            <polygon id="路径" points="3.74615014 0.0634746788 2.24590735 2.25998567e-13 2.24590735 10 3.74615014 10"></polygon>
                            <polygon id="路径" points="5.99205749 2.05078445 4.49181471 2 4.49181471 10 5.99205749 10"></polygon>
                            <polygon id="路径" points="8.23796485 5.03173946 6.73772206 5 6.73772206 10 8.23796485 10"></polygon>
                        </g>
                        <polygon id="路径" points="0.496633942 10.4311588 0.496633942 0 0 0 0 11 12 11 12 10.4311588"></polygon>
                    </g>
                </g>
            </g>
        </g>
    </g>
</svg>