<?xml version="1.0" encoding="UTF-8"?>
<svg width="16px" height="16px" viewBox="0 0 16 16" version="1.1" xmlns="http://www.w3.org/2000/svg" xmlns:xlink="http://www.w3.org/1999/xlink">
    <title>导出</title>
    <g id="即席分析" stroke="none" stroke-width="1" fill="none" fill-rule="evenodd">
        <g id="即席分析备份-9" transform="translate(-1426.000000, -92.000000)">
            <g id="编组-12" transform="translate(470.000000, 84.000000)">
                <g id="编组-4备份-8" transform="translate(944.000000, 0.000000)">
                    <g id="编组-3" transform="translate(12.000000, 7.000000)">
                        <g id="导出" transform="translate(0.000000, 1.000000)"></g>
                    </g>
                </g>
            </g>
        </g>
    </g>
</svg>