<?xml version="1.0" encoding="UTF-8"?>
<svg width="24px" height="24px" viewBox="0 0 24 24" version="1.1" xmlns="http://www.w3.org/2000/svg" xmlns:xlink="http://www.w3.org/1999/xlink">
    <title>右链接</title>
    <g id="页面-1" stroke="none" stroke-width="1" fill="none" fill-rule="evenodd">
        <g id="数据集——编辑——配置" transform="translate(-620.000000, -204.000000)" fill-rule="nonzero">
            <g id="编组-21" transform="translate(476.000000, 136.000000)">
                <g id="右链接" transform="translate(144.000000, 68.000000)">
                    <rect id="矩形" stroke="#3F73FF" fill="#F9F9F9" x="0.5" y="0.5" width="23" height="23" rx="11.5"></rect>
                    <g id="编组-25" transform="translate(6.000000, 8.000000)">
                        <rect id="矩形备份-7" stroke="#3F73FF" stroke-width="0.5" x="0.25" y="0.25" width="7.5" height="7.5" rx="3.75"></rect>
                        <rect id="矩形备份-19" fill="#3F73FF" x="4" y="0" width="8" height="8" rx="4"></rect>
                    </g>
                </g>
            </g>
        </g>
    </g>
</svg>