<?xml version="1.0" encoding="UTF-8"?>
<svg width="12px" height="12px" viewBox="0 0 12 12" version="1.1" xmlns="http://www.w3.org/2000/svg" xmlns:xlink="http://www.w3.org/1999/xlink">
    <title>矩形备份 20</title>
    <g id="即席分析" stroke="none" stroke-width="1" fill="none" fill-rule="evenodd">
        <g id="切图" transform="translate(-858.000000, -658.000000)">
            <g id="矩形备份-20" transform="translate(858.000000, 658.000000)">
                <rect id="矩形备份-13" x="0" y="0" width="12" height="12"></rect>
                <g id="ascending-order备份" transform="translate(5.000000, 1.000000)" fill="#373737" fill-rule="nonzero">
                    <path d="M2.83498879,2.19581709 L0.958503633,0.177291588 C0.738749141,-0.059097196 0.383401453,-0.059097196 0.165205504,0.177291588 C0.0607831572,0.289618173 0.00623416997,0.433798567 0.00155854249,0.579655476 C0.00155854249,0.589714573 0,0.601450187 0,0.611509284 L0,9.39645417 C0,9.73008089 0.250925341,10 0.561075297,10 C0.871225253,10 1.12215059,9.73008089 1.12215059,9.39645417 L1.12215059,2.06001928 L2.04169067,3.04916384 C2.15078864,3.16651997 2.29417455,3.22519804 2.439119,3.22519804 C2.58406345,3.22519804 2.72589082,3.16651997 2.83654734,3.04916384 C3.05474329,2.81445157 3.05474329,2.43220588 2.83498879,2.19581709 Z" id="路径"></path>
                </g>
            </g>
        </g>
    </g>
</svg>