<?xml version="1.0" encoding="UTF-8"?>
<svg width="12px" height="12px" viewBox="0 0 12 12" version="1.1" xmlns="http://www.w3.org/2000/svg" xmlns:xlink="http://www.w3.org/1999/xlink">
    <title>编组 14</title>
    <g id="即席分析" stroke="none" stroke-width="1" fill="none" fill-rule="evenodd">
        <g id="切图" transform="translate(-877.000000, -688.000000)">
            <g id="编组-14" transform="translate(877.000000, 688.000000)">
                <g id="descending-order备份-2" transform="translate(4.000000, 1.000000)" fill="#3F73FF" fill-rule="nonzero">
                    <path d="M3.78206311,6.95083616 C3.63452109,6.83348003 3.44541794,6.77480196 3.25215867,6.77480196 C3.0588994,6.77480196 2.86771819,6.83348003 2.72225422,6.95083616 L1.49620079,7.93998072 L1.49620079,0.603545832 C1.49620079,0.269919108 1.16163367,0 0.748100396,0 C0.334567122,0 0,0.269919108 0,0.603545832 L0,9.38849072 C0,9.39854981 0.00207805666,9.41028543 0.00207805666,9.42034452 C0.00831222663,9.56620143 0.0810442096,9.71038183 0.220274006,9.82270841 C0.511201938,10.0590972 0.984998855,10.0590972 1.27800484,9.82270841 L3.77998506,7.80418291 C4.07299105,7.56779412 4.07299105,7.18554843 3.78206311,6.95083616 Z" id="路径"></path>
                </g>
                <rect id="矩形备份-19" x="0" y="0" width="12" height="12"></rect>
            </g>
        </g>
    </g>
</svg>