<?xml version="1.0" encoding="UTF-8"?>
<svg width="19px" height="19px" viewBox="0 0 19 19" version="1.1" xmlns="http://www.w3.org/2000/svg" xmlns:xlink="http://www.w3.org/1999/xlink">
    <title>删除备份</title>
    <defs>
        <filter id="filter-1">
            <feColorMatrix in="SourceGraphic" type="matrix" values="0 0 0 0 0.352941 0 0 0 0 0.352941 0 0 0 0 0.352941 0 0 0 1.000000 0"></feColorMatrix>
        </filter>
    </defs>
    <g id="页面-1" stroke="none" stroke-width="1" fill="none" fill-rule="evenodd">
        <g id="指标知识库备份-3" transform="translate(-1300.000000, -369.000000)">
            <g id="编组-4" transform="translate(704.000000, 182.000000)">
                <g id="删除备份" transform="translate(596.000000, 187.000000)" filter="url(#filter-1)">
                    <g>
                        <rect id="矩形" fill="#000000" fill-rule="nonzero" opacity="0" x="0" y="0" width="19" height="19"></rect>
                        <path d="M6.25460718,6.62561583 L14.7453928,6.62561583 C14.6031405,6.62561583 14.4845606,6.50451523 14.4935083,6.36609929 L13.8508877,16.3071159 C13.858453,16.1900848 13.9538254,16.1034483 14.0769112,16.1034483 L6.92308877,16.1034483 C7.0449452,16.1034483 7.14163642,16.191469 7.14911234,16.3071159 L6.5064917,6.36609929 C6.5154343,6.50443812 6.39736529,6.62561583 6.25460718,6.62561583 Z M6.22234421,16.3629648 C6.24537115,16.7191778 6.55385534,17 6.92308877,17 L14.0769112,17 C14.4444841,17 14.7546918,16.7182068 14.7776558,16.3629648 L15.4202764,6.42194819 C15.4447749,6.04296592 15.1374069,5.7290641 14.7453928,5.7290641 L6.25460718,5.7290641 C5.86205129,5.7290641 5.55528587,6.04390662 5.57972355,6.42194819 L6.22234421,16.3629648 Z M16.5357143,6.62561583 C16.7921321,6.62561583 17,6.42491577 17,6.17733996 C17,5.92976393 16.7921321,5.7290641 16.5357143,5.7290641 L4.46428572,5.7290641 C4.20786791,5.7290641 4,5.92976393 4,6.17733996 C4,6.42491577 4.20786791,6.62561583 4.46428572,6.62561583 L16.5357143,6.62561583 Z M8.48626286,6.62561583 L12.5137371,6.62561583 C12.8932691,6.62561583 13.1997355,6.32637667 13.1997355,5.96184883 L13.1997355,4.663767 C13.1997355,4.29789814 12.890833,4 12.5137371,4 L8.48626286,4 C8.10673088,4 7.80026446,4.29923915 7.80026446,4.663767 L7.80026446,5.96184883 C7.80026446,6.32771746 8.10916698,6.62561583 8.48626286,6.62561583 Z M8.7288359,4.663767 C8.7288359,4.79215186 8.62191461,4.89655173 8.48626286,4.89655173 L12.5137371,4.89655173 C12.3782428,4.89655173 12.2711641,4.79328757 12.2711641,4.663767 L12.2711641,5.96184883 C12.2711641,5.83346375 12.3780854,5.7290641 12.5137371,5.7290641 L8.48626286,5.7290641 C8.62175722,5.7290641 8.7288359,5.83232825 8.7288359,5.96184883 L8.7288359,4.663767 Z M11.6005292,14.6065272 C11.6005292,14.854103 11.8083968,15.0548031 12.0648149,15.0548031 C12.3212327,15.0548031 12.5291006,14.854103 12.5291006,14.6065272 L12.5291006,8.12253692 C12.5291006,7.8749611 12.3212327,7.67426106 12.0648149,7.67426106 C11.8083968,7.67426106 11.6005292,7.8749611 11.6005292,8.12253692 L11.6005292,14.6065272 Z M9.39947084,8.12253692 C9.39947084,7.8749611 9.19160316,7.67426106 8.93518512,7.67426106 C8.67876732,7.67426106 8.47089942,7.8749611 8.47089942,8.12253692 L8.47089942,14.6065272 C8.47089942,14.854103 8.67876732,15.0548031 8.93518512,15.0548031 C9.19160316,15.0548031 9.39947084,14.854103 9.39947084,14.6065272 L9.39947084,8.12253692 Z" id="形状" fill="#000000" fill-rule="nonzero"></path>
                    </g>
                </g>
            </g>
        </g>
    </g>
</svg>