<?xml version="1.0" encoding="UTF-8"?>
<svg width="71px" height="71px" viewBox="0 0 71 71" version="1.1" xmlns="http://www.w3.org/2000/svg" xmlns:xlink="http://www.w3.org/1999/xlink">
    <title>超时闭环</title>
    <defs>
        <linearGradient x1="91.1752358%" y1="-9.60410315%" x2="36.4462019%" y2="100%" id="linearGradient-1">
            <stop stop-color="#B8B4FF" offset="0%"></stop>
            <stop stop-color="#7265E7" offset="100%"></stop>
        </linearGradient>
        <filter x="-37.5%" y="-37.5%" width="175.0%" height="175.0%" filterUnits="objectBoundingBox" id="filter-2">
            <feGaussianBlur stdDeviation="5" in="SourceGraphic"></feGaussianBlur>
        </filter>
        <filter id="filter-3">
            <feColorMatrix in="SourceGraphic" type="matrix" values="0 0 0 0 1.000000 0 0 0 0 1.000000 0 0 0 0 1.000000 0 0 0 1.000000 0"></feColorMatrix>
        </filter>
    </defs>
    <g id="页面-1" stroke="none" stroke-width="1" fill="none" fill-rule="evenodd">
        <g id="任务管理" transform="translate(-1247.000000, -166.000000)">
            <g id="超时闭环" transform="translate(1249.000000, 168.000000)">
                <g id="持仓配置">
                    <rect id="矩形" fill="url(#linearGradient-1)" x="13.3333333" y="13.3333333" width="46.6666667" height="46.6666667" rx="5.67375887"></rect>
                    <rect id="矩形" stroke="#FFFFFF" stroke-width="0.882352941" fill="#E2DFFF" x="-0.441176471" y="-0.441176471" width="54.2156863" height="54.2156863" rx="5.67375887"></rect>
                    <rect id="矩形备份-12" fill="url(#linearGradient-1)" opacity="0.551139" filter="url(#filter-2)" x="13.9361702" y="13.9361702" width="40" height="40" rx="5.67375887"></rect>
                </g>
                <g filter="url(#filter-3)" id="及时">
                    <g transform="translate(15.000000, 14.000000)">
                        <path d="M13.8020709,0.991698809 L13.8020709,1.43490546 L12.7083209,1.43490546 L12.7083466,2.76451463 C19.4791716,2.8630014 24.9479216,8.1322728 24.9479216,14.6326424 C24.9479216,21.2314987 19.3749806,26.55 12.4999929,26.55 C5.62497672,26.55 0.0520642081,21.2315256 0.0520642081,14.6326424 C0.0520642081,8.1322728 5.46874706,2.81377525 12.2395721,2.71528471 L12.2395721,2.71528471 L12.2395721,1.43490546 L11.1458222,1.43490546 L11.1458222,0.991698809 L13.8020709,0.991698809 Z M13.5937457,5.86698271 L6.77082509,14.0417082 L11.4062457,14.0417082 L10.3124958,20.6405915 L18.2291664,12.2196356 L12.239575,12.2196356 L13.5937457,5.86698271 Z M8.74999986,0.548484082 L9.11458318,1.97659888 C7.49998889,2.37056214 6.04165558,3.01075042 4.68748772,3.89716641 C3.38541824,4.78358778 2.18749996,5.86698271 1.30208372,7.14736196 L1.30208372,7.14736196 L0,6.31019205 C1.04167438,4.88206917 2.3437581,3.6509387 3.80209141,2.71527663 C5.26042472,1.73037117 6.92708322,0.99169073 8.74999986,0.548484082 L8.74999986,0.548484082 Z M15.9895794,0.45 C17.8645916,0.893206648 19.5833285,1.63188709 21.093746,2.61679254 C22.6041663,3.60171416 23.9583342,4.88207994 25,6.31019474 L25,6.31019474 L23.6978963,7.14736465 C22.7604045,5.86698271 21.5624891,4.7343417 20.2083212,3.84792571 C18.8541505,2.96150972 17.2916631,2.32132145 15.6249961,1.92735819 L15.6249961,1.92735819 Z" id="形状结合" fill="#020202" fill-rule="nonzero"></path>
                    </g>
                </g>
            </g>
        </g>
    </g>
</svg>