<?xml version="1.0" encoding="UTF-8"?>
<svg width="19px" height="16px" viewBox="0 0 19 16" version="1.1" xmlns="http://www.w3.org/2000/svg" xmlns:xlink="http://www.w3.org/1999/xlink">
    <title>编组 6备份</title>
    <g id="页面-1" stroke="none" stroke-width="1" fill="none" fill-rule="evenodd">
        <g id="任务管理备份" transform="translate(-1263.000000, -605.000000)" fill-rule="nonzero">
            <g id="编组" transform="translate(568.000000, 228.000000)">
                <g id="编组-6备份" transform="translate(695.000000, 377.000000)">
                    <path d="M17.9967857,15.4215201 L17.9967857,2.67876563 L8.24825893,2.67876563 L6.012,0 L0,0 L0,3.34757812 L0,3.34757812 L0,15.4215201 L17.9967857,15.4215201 Z M1.30415625,4.01641071 L16.6926696,4.01641071 L16.6926696,14.0838951 L1.30415625,14.0838951 L1.30415625,4.01641071 Z" id="形状" fill="#3F73FF"></path>
                    <path d="M11.0791607,11.8264018 C11.0791607,13.0927058 11.737794,14.2628189 12.8069598,14.8959709 C13.8761256,15.5291229 15.1933922,15.5291229 16.2625581,14.8959709 C17.3317239,14.2628189 17.9903571,13.0927058 17.9903571,11.8264018 C17.9903571,9.86886547 16.4432331,8.28196875 14.5347589,8.28196875 C12.6262847,8.28196875 11.0791607,9.86886547 11.0791607,11.8264018 L11.0791607,11.8264018 Z" id="路径备份-3" fill="#3F73FF"></path>
                    <g id="编组-5" transform="translate(14.534749, 11.826412) rotate(-45.000000) translate(-14.534749, -11.826412) translate(12.365618, 9.657281)" fill="#FFFFFF">
                        <polygon id="路径备份-5" transform="translate(2.169131, 2.169131) rotate(-270.000000) translate(-2.169131, -2.169131) " points="0.0543816964 3.6288683 0.745975446 4.33826116 4.28387946 0.709392857 3.59228571 -3.93326803e-12"></polygon>
                        <polygon id="路径备份-4" points="0.0543816964 3.6288683 0.745975446 4.33826116 4.28387946 0.709392857 3.59228571 0"></polygon>
                    </g>
                </g>
            </g>
        </g>
    </g>
</svg>