<?xml version="1.0" encoding="UTF-8"?>
<svg width="1180px" height="575px" viewBox="0 0 1180 575" version="1.1" xmlns="http://www.w3.org/2000/svg" xmlns:xlink="http://www.w3.org/1999/xlink">
    <title>暂无数据</title>
    <defs>
        <linearGradient x1="50%" y1="0%" x2="50%" y2="124.290773%" id="linearGradient-1">
            <stop stop-color="#D9E8FF" offset="0%"></stop>
            <stop stop-color="#D6E1F1" offset="100%"></stop>
        </linearGradient>
        <linearGradient x1="50%" y1="0.387893357%" x2="54.1700192%" y2="65.5352343%" id="linearGradient-2">
            <stop stop-color="#9BC2FF" offset="0%"></stop>
            <stop stop-color="#EAF0FC" offset="100%"></stop>
        </linearGradient>
        <linearGradient x1="50%" y1="0%" x2="50%" y2="124.290773%" id="linearGradient-3">
            <stop stop-color="#D9E8FF" offset="0%"></stop>
            <stop stop-color="#D6E1F1" offset="100%"></stop>
        </linearGradient>
        <linearGradient x1="50%" y1="0.387893357%" x2="54.0005614%" y2="65.5352343%" id="linearGradient-4">
            <stop stop-color="#9BC2FF" offset="0%"></stop>
            <stop stop-color="#EAF0FC" offset="100%"></stop>
        </linearGradient>
        <linearGradient x1="50%" y1="0%" x2="50%" y2="100%" id="linearGradient-5">
            <stop stop-color="#F5FAFF" offset="0%"></stop>
            <stop stop-color="#9DB4FF" offset="100%"></stop>
        </linearGradient>
        <path d="M189.774645,-3.17775257e-13 L189.774645,100.375668 C189.774645,106.008351 185.214544,110.574543 179.589374,110.574543 L10.2852191,110.574543 C4.66004901,110.574543 0.0999476714,106.008351 0.0999476714,100.375668 L0.0999476714,-3.17775257e-13 L77.7236681,-3.17775257e-13 L77.7236681,-3.17775257e-13 C77.7236681,9.55544506 85.430472,17.3016638 94.9372964,17.3016638 C104.444121,17.3016638 112.150925,9.55544506 112.150925,-3.17775257e-13 L189.774645,-3.17775257e-13 Z" id="path-6"></path>
        <linearGradient x1="0.220386402%" y1="50.2203864%" x2="99.7796136%" y2="50.2203864%" id="linearGradient-8">
            <stop stop-color="#B3C7E2" offset="0%"></stop>
            <stop stop-color="#D4E1F2" offset="100%"></stop>
        </linearGradient>
        <linearGradient x1="14.7898221%" y1="54.8416317%" x2="94.1606468%" y2="50%" id="linearGradient-9">
            <stop stop-color="#DEE8FF" offset="0%"></stop>
            <stop stop-color="#FCFCFF" offset="100%"></stop>
        </linearGradient>
        <linearGradient x1="13.061515%" y1="34.2504099%" x2="105.217126%" y2="54.6691229%" id="linearGradient-10">
            <stop stop-color="#8AA7E4" offset="0%"></stop>
            <stop stop-color="#A9C3F5" offset="100%"></stop>
        </linearGradient>
        <linearGradient x1="83.50485%" y1="6.51094992%" x2="0.672911133%" y2="73.8685304%" id="linearGradient-11">
            <stop stop-color="#F5F8FF" offset="0%"></stop>
            <stop stop-color="#D0DDFF" offset="100%"></stop>
        </linearGradient>
        <linearGradient x1="50%" y1="0%" x2="50%" y2="86.0706991%" id="linearGradient-12">
            <stop stop-color="#DEE8FF" offset="0%"></stop>
            <stop stop-color="#F2F4FF" stop-opacity="0" offset="100%"></stop>
        </linearGradient>
        <linearGradient x1="18.8308284%" y1="10.0574713%" x2="54.9958222%" y2="86.7587853%" id="linearGradient-13">
            <stop stop-color="#F5F8FF" offset="0%"></stop>
            <stop stop-color="#F8FAFF" stop-opacity="0.6" offset="51.0314817%"></stop>
            <stop stop-color="#FFFFFF" stop-opacity="0" offset="100%"></stop>
        </linearGradient>
        <linearGradient x1="50%" y1="0%" x2="50%" y2="86.0706991%" id="linearGradient-14">
            <stop stop-color="#DEE8FF" offset="0%"></stop>
            <stop stop-color="#F2F4FF" stop-opacity="0" offset="100%"></stop>
        </linearGradient>
        <linearGradient x1="10.7698568%" y1="22.9100573%" x2="56.2878418%" y2="74.9306546%" id="linearGradient-15">
            <stop stop-color="#F5F8FF" offset="0%"></stop>
            <stop stop-color="#F8FAFF" stop-opacity="0.6" offset="51.0314817%"></stop>
            <stop stop-color="#FFFFFF" stop-opacity="0" offset="100%"></stop>
        </linearGradient>
        <linearGradient x1="50%" y1="0%" x2="50%" y2="86.0706991%" id="linearGradient-16">
            <stop stop-color="#DEE8FF" offset="0%"></stop>
            <stop stop-color="#F2F4FF" stop-opacity="0" offset="100%"></stop>
        </linearGradient>
        <linearGradient x1="10.7698568%" y1="15.9202131%" x2="56.2878418%" y2="81.3633516%" id="linearGradient-17">
            <stop stop-color="#F5F8FF" offset="0%"></stop>
            <stop stop-color="#F8FAFF" stop-opacity="0.6" offset="51.0314817%"></stop>
            <stop stop-color="#FFFFFF" stop-opacity="0" offset="100%"></stop>
        </linearGradient>
        <linearGradient x1="6.42679834%" y1="59.3066288%" x2="84.9507706%" y2="42.4010751%" id="linearGradient-18">
            <stop stop-color="#DEE8FF" offset="0%"></stop>
            <stop stop-color="#F2F4FF" offset="100%"></stop>
        </linearGradient>
        <linearGradient x1="56.8749874%" y1="88.523647%" x2="67.1656586%" y2="9.54809651%" id="linearGradient-19">
            <stop stop-color="#DEE8FF" offset="0%"></stop>
            <stop stop-color="#F2F4FF" offset="100%"></stop>
        </linearGradient>
        <linearGradient x1="16.2023642%" y1="32.9244045%" x2="100.522059%" y2="55.0622304%" id="linearGradient-20">
            <stop stop-color="#8AA7E4" offset="0%"></stop>
            <stop stop-color="#A9C3F5" offset="100%"></stop>
        </linearGradient>
        <linearGradient x1="82.2773019%" y1="2.84947593%" x2="2.48015319%" y2="75.8780938%" id="linearGradient-21">
            <stop stop-color="#D0DDF8" offset="0%"></stop>
            <stop stop-color="#B8CCFF" offset="100%"></stop>
        </linearGradient>
    </defs>
    <g id="预警管理" stroke="none" stroke-width="1" fill="none" fill-rule="evenodd">
        <g id="暂无数据" transform="translate(-210.000000, -163.000000)">
            <g transform="translate(210.000000, 163.000000)">
                <rect id="矩形" x="0" y="0" width="1180" height="575"></rect>
                <g id="编组-5" transform="translate(187.000000, 67.000000)">
                    <g id="编组-3">
                        <g id="编组-32备份-3" opacity="0.348958333" transform="translate(0.000000, 266.520924)">
                            <ellipse id="椭圆形备份-10" stroke="#C09E8D" stroke-width="0.6" opacity="0.5" cx="169.986446" cy="59.5" rx="169.986446" ry="59.5"></ellipse>
                            <ellipse id="椭圆形备份-11" stroke="#C09E8D" stroke-width="0.6" cx="166.391566" cy="58.987069" rx="116.790361" ry="40.2215517"></ellipse>
                            <ellipse id="椭圆形备份-13" stroke="#8AAFFF" stroke-width="0.6" fill-opacity="0.7" fill="#E6EEFF" cx="166.391566" cy="57.9612069" rx="95.2210843" ry="29.962931"></ellipse>
                            <ellipse id="椭圆形备份-12" stroke="#C09E8D" stroke-width="0.84" cx="167.418675" cy="60.5258621" rx="142.768072" ry="50.2672414"></ellipse>
                        </g>
                        <g id="编组-2" transform="translate(75.000000, 152.520924)">
                            <g id="编组-13">
                                <polygon id="矩形" fill="#E6EDFF" fill-rule="nonzero" points="21.8219083 32.4939759 168.645038 32.4939759 168.645038 79.2853012 21.8219083 79.2853012"></polygon>
                                <path d="M1.39373296,61.0551339 L40.0123844,0 L40.0123844,0 L40.0123844,46.569088 L0.599686028,136.474699 L0.599686028,63.7992393 C0.599686028,62.8269971 0.875168529,61.8749715 1.39373296,61.0551339 Z" id="矩形" fill="url(#linearGradient-1)" fill-rule="nonzero"></path>
                                <path d="M1.39373296,64.954411 L40.0123844,3.89927711 L40.0123844,3.89927711 L40.0123844,50.4683651 L0.599686028,140.373976 L0.599686028,67.6985164 C0.599686028,66.7262742 0.875168529,65.7742486 1.39373296,64.954411 Z" id="矩形备份-17" fill="url(#linearGradient-2)" fill-rule="nonzero"></path>
                                <rect id="矩形" fill="#DEE9FF" fill-rule="nonzero" x="40.0123844" y="0" width="111.741497" height="46.7913253"></rect>
                                <rect id="矩形备份-16" fill="#CADAFF" fill-rule="nonzero" x="40.0123844" y="2.59951807" width="111.741497" height="42.0255422"></rect>
                                <path d="M152.536304,59.9141641 L190.300366,0 L190.300366,0 L190.300366,46.4781868 L151.753881,135.17494 L151.753881,62.6206618 C151.753881,61.663292 152.025048,60.7252917 152.536304,59.9141641 Z" id="矩形" fill="url(#linearGradient-3)" fill-rule="nonzero" transform="translate(171.027124, 67.587470) scale(-1, 1) translate(-171.027124, -67.587470) "></path>
                                <path d="M152.539564,63.2309927 L189.86726,3.89927711 L189.86726,50.4664471 L151.753881,138.640964 L151.753881,65.9568558 C151.753881,64.9919555 152.026301,64.0468136 152.539564,63.2309927 Z" id="矩形备份-18" fill="url(#linearGradient-4)" fill-rule="nonzero" transform="translate(170.810570, 71.270120) scale(-1, 1) translate(-170.810570, -71.270120) "></path>
                                <g id="形状结合备份-7" transform="translate(0.599686, 62.388434)">
                                    <g id="蒙版" fill="url(#linearGradient-5)" fill-rule="nonzero">
                                        <path d="M189.674698,-3.55543029e-13 L189.674698,100.375668 C189.674698,106.008351 185.114596,110.574543 179.489426,110.574543 L10.1852714,110.574543 C4.56010134,110.574543 0,106.008351 0,100.375668 L0,-3.55543029e-13 L77.6237204,-3.55543029e-13 L77.6237204,-3.55543029e-13 C77.6237204,9.55544506 85.3305243,17.3016638 94.8373487,17.3016638 C104.344173,17.3016638 112.050977,9.55544506 112.050977,-3.55543029e-13 L189.674698,-3.55543029e-13 Z" id="path-24"></path>
                                    </g>
                                    <g id="Clipped">
                                        <mask id="mask-7" fill="white">
                                            <use xlink:href="#path-6"></use>
                                        </mask>
                                        <g id="path-24"></g>
                                        <path d="M189.674698,2.54971888 L189.674698,95.6748164 C189.674698,101.3075 185.114596,105.873692 179.489426,105.873692 L10.1852714,105.873692 C4.56010134,105.873692 0,101.3075 0,95.6748164 L0,2.54971888 L77.6237204,2.54971888 L77.6237204,2.54971888 C77.6237204,12.1051639 85.3305243,19.8513827 94.8373487,19.8513827 C104.344173,19.8513827 112.050977,12.1051639 112.050977,2.54971888 L189.674698,2.54971888 Z" id="路径" fill="#B0C7FF" fill-rule="nonzero" mask="url(#mask-7)"></path>
                                    </g>
                                </g>
                                <g id="蒙版" transform="translate(59.069074, 96.615422)" fill="url(#linearGradient-8)" fill-rule="nonzero">
                                    <path d="M12.6523044,0.678173535 L61.8955183,0.678173535 C68.6945873,0.678173535 74.206322,6.2252357 74.206322,13.0678835 C74.206322,19.9105312 68.6945873,25.4575933 61.8955183,25.4575933 L12.6523044,25.4575933 C5.85323542,25.4575933 0.341500973,19.9105312 0.341500973,13.0678835 C0.341500973,6.2252357 5.85323542,0.678173535 12.6523044,0.678173535 Z" id="path-28"></path>
                                </g>
                                <g id="蒙版备份-4" transform="translate(59.069074, 96.447711)" fill="url(#linearGradient-9)" fill-rule="nonzero">
                                    <path d="M11.7711101,0.473919679 L62.7767128,0.473919679 C69.089112,0.473919679 74.206322,5.61933481 74.206322,11.9665259 C74.206322,18.3137171 69.089112,23.4591321 62.7767128,23.4591321 L11.7711101,23.4591321 C5.45871122,23.4591321 0.341500973,18.3137171 0.341500973,11.9665259 C0.341500973,5.61933481 5.45871122,0.473919679 11.7711101,0.473919679 Z" id="path-31"></path>
                                </g>
                            </g>
                            <g id="编组" transform="translate(88.763485, 102.493151)" fill-rule="nonzero">
                                <ellipse id="椭圆形" fill="url(#linearGradient-10)" cx="6.73651452" cy="6.46966732" rx="6.73651452" ry="6.46966732"></ellipse>
                                <ellipse id="椭圆形备份-17" fill="url(#linearGradient-11)" cx="6.73651452" cy="7.83170254" rx="6.73651452" ry="6.46966732"></ellipse>
                            </g>
                        </g>
                        <g id="编组-14备份-5备份-4" opacity="0.7" transform="translate(76.000000, 13.520924)" fill-rule="nonzero">
                            <polygon id="矩形" fill="url(#linearGradient-12)" points="0.0268456376 109.408434 81.147651 3.08571429 73.9772875 131.657143"></polygon>
                            <polygon id="矩形备份-12" fill="url(#linearGradient-13)" points="81.1159471 0 202.315436 144 73.9597315 132.115881"></polygon>
                        </g>
                        <g id="编组-14备份-5备份-5" opacity="0.6" transform="translate(14.000000, 94.520924)" fill-rule="nonzero">
                            <polygon id="矩形" fill="url(#linearGradient-14)" points="0.027027027 60.8239286 59.5945946 0 54.3293472 73.5517241"></polygon>
                            <polygon id="矩形备份-12" fill="url(#linearGradient-15)" points="60.8116514 0 151 78.6594828 55.4864865 72.1678255"></polygon>
                        </g>
                        <g id="编组-14备份-5备份-6" opacity="0.5" transform="translate(248.000000, 119.520924)" fill-rule="nonzero">
                            <polygon id="矩形" fill="url(#linearGradient-16)" points="0.0277777778 47.5678605 43.1944444 0 39.378892 57.5217391"></polygon>
                            <polygon id="矩形备份-12" fill="url(#linearGradient-17)" points="44.9208007 0 108.972222 62.6576087 41.1388889 57.4865638"></polygon>
                        </g>
                        <g id="飞机" transform="translate(157.000000, 25.520924)" opacity="0.751441592">
                            <polygon id="path-24" fill-opacity="0.8" fill="url(#linearGradient-18)" fill-rule="nonzero" transform="translate(61.615265, 40.152754) rotate(-12.000000) translate(-61.615265, -40.152754) " points="5.47017017 56.2986152 35.0275722 68.6715206 117.76036 11.6339876"></polygon>
                            <polygon id="path-27" fill="url(#linearGradient-19)" transform="translate(85.351672, 49.366028) rotate(-12.000000) translate(-85.351672, -49.366028) " points="50.1844157 71.1348667 93.0802073 91.762875 120.518929 6.9691804"></polygon>
                            <polygon id="path-31" fill="url(#linearGradient-20)" fill-rule="nonzero" transform="translate(56.370843, 88.162774) rotate(-12.000000) translate(-56.370843, -88.162774) " points="57.6302954 77.2654664 45.9471207 99.0600807 66.7945644 82.7844468"></polygon>
                            <polygon id="path-34" fill="url(#linearGradient-21)" fill-rule="nonzero" transform="translate(78.745867, 51.202965) rotate(-12.000000) translate(-78.745867, -51.202965) " points="36.7204705 65.6474876 38.3597577 94.0200445 49.5167839 73.3066715 120.771263 8.38588476"></polygon>
                        </g>
                        <g id="路径-15" transform="translate(201.929265, 25.017064) rotate(-12.000000) translate(-201.929265, -25.017064) translate(182.929265, 4.017064)">
                            <g id="path-31-link" transform="translate(0.001062, 0.994999)"></g>
                        </g>
                    </g>
                    <text id="抱歉，暂无数据…" font-family="PingFangSC-Regular, PingFang SC" font-size="42" font-weight="normal" fill="#B0C7FF">
                        <tspan x="394" y="238">抱歉，暂无数据</tspan>
                        <tspan x="688" y="238" font-family="Helvetica">…</tspan>
                    </text>
                </g>
            </g>
        </g>
    </g>
</svg>