<?xml version="1.0" encoding="UTF-8"?>
<svg width="24px" height="24px" viewBox="0 0 24 24" version="1.1" xmlns="http://www.w3.org/2000/svg" xmlns:xlink="http://www.w3.org/1999/xlink">
    <title>编组 40</title>
    <defs>
        <rect id="path-1" x="0" y="0" width="22" height="22" rx="3"></rect>
        <filter x="-6.8%" y="-6.8%" width="113.6%" height="113.6%" filterUnits="objectBoundingBox" id="filter-2">
            <feMorphology radius="0.5" operator="dilate" in="SourceAlpha" result="shadowSpreadOuter1"></feMorphology>
            <feOffset dx="0" dy="0" in="shadowSpreadOuter1" result="shadowOffsetOuter1"></feOffset>
            <feComposite in="shadowOffsetOuter1" in2="SourceAlpha" operator="out" result="shadowOffsetOuter1"></feComposite>
            <feColorMatrix values="0 0 0 0 0.882352941   0 0 0 0 0.882352941   0 0 0 0 0.882352941  0 0 0 1 0" type="matrix" in="shadowOffsetOuter1"></feColorMatrix>
        </filter>
    </defs>
    <g id="预警管理" stroke="none" stroke-width="1" fill="none" fill-rule="evenodd">
        <g id="切图" transform="translate(-130.000000, -65.000000)">
            <g id="编组-40" transform="translate(131.000000, 66.000000)">
                <g id="矩形备份-26">
                    <use fill="black" fill-opacity="1" filter="url(#filter-2)" xlink:href="#path-1"></use>
                    <rect stroke="#979797" stroke-width="1" stroke-linejoin="square" fill="#FFFFFF" fill-rule="evenodd" x="0.5" y="0.5" width="21" height="21" rx="3"></rect>
                </g>
                <path d="M8.73307692,7.24257692 C7.35434713,8.13794931 6.49495915,9.64589926 6.42730769,11.2884615 L8.12173077,11.2884615 C8.18788178,10.2253225 8.75096164,9.25545194 9.64142308,8.67088462 L8.73307692,7.24257692 Z M9.09692308,7.02680769 L10.0090769,8.46103846 C10.4729733,8.23302497 10.9830962,8.11475867 11.5,8.11538462 C12.4658846,8.11538462 13.3374231,8.51984615 13.9538462,9.16884615 L15.1596154,7.98126923 C14.2034453,6.9842994 12.8813787,6.42138943 11.5,6.42307314 C10.6305769,6.42307314 9.81234615,6.64138462 9.09692308,7.02638462 L9.09692308,7.02680769 Z M6.42730769,11.7115385 C6.53815385,14.4175385 8.76692308,16.5769231 11.5,16.5769231 L11.5,14.8846154 C9.7127636,14.8847584 8.23343304,13.4952808 8.12173077,11.7115385 L6.42730769,11.7115385 Z M15.4405385,8.29857692 L14.2263077,9.49419231 C14.9377958,10.4611612 15.0838952,11.7326387 14.610274,12.8357829 C14.1366528,13.938927 13.1141725,14.7086894 11.9230769,14.8588077 L11.9230769,16.5595769 C14.5292308,16.3442308 16.5769291,14.1611538 16.5769291,11.5 C16.5787207,10.3337302 16.1772491,9.20270412 15.4405385,8.29857692 L15.4405385,8.29857692 Z M11.5,17 C8.46230769,17 6,14.5376923 6,11.5 C6,8.46230769 8.46230769,6 11.5,6 C14.5376923,6 17,8.46230769 17,11.5 C17,14.5376923 14.5376923,17 11.5,17 Z M11.5,14.4615385 C13.1356125,14.4615385 14.4615385,13.1356125 14.4615385,11.5 C14.4615385,9.86438747 13.1356125,8.53846154 11.5,8.53846154 C9.86438747,8.53846154 8.53846154,9.86438747 8.53846154,11.5 C8.53846154,13.1356125 9.86438747,14.4615385 11.5,14.4615385 Z" id="形状" fill="#16234A" fill-rule="nonzero"></path>
            </g>
        </g>
    </g>
</svg>