<?xml version="1.0" encoding="UTF-8"?>
<svg width="17px" height="17px" viewBox="0 0 17 17" version="1.1" xmlns="http://www.w3.org/2000/svg" xmlns:xlink="http://www.w3.org/1999/xlink">
    <title>资源库</title>
    <g id="页面-1" stroke="none" stroke-width="1" fill="none" fill-rule="evenodd">
        <g id="通用切图" transform="translate(-198.000000, -134.000000)" fill="#C5CFE7" fill-rule="nonzero">
            <g id="资源库" transform="translate(198.200000, 134.073487)">
                <rect id="矩形" opacity="0" x="0" y="0" width="16" height="16"></rect>
                <path d="M14.0613692,9.89591217 L12.9280205,9.31412408 C12.9062046,9.30291981 12.8819967,9.29717387 12.8574727,9.29737366 L12.8414766,9.29737366 C12.8156884,9.29759159 12.7903806,9.30437735 12.7679453,9.31709478 L11.9846445,9.76187506 C11.9759972,9.76668396 11.9677107,9.77211493 11.9598506,9.77812506 C11.9369159,9.79359322 11.9234151,9.81965751 11.9240117,9.84731451 C11.9236562,9.86047129 11.9253305,9.87360428 11.9289756,9.88625103 L11.9289756,9.88724127 C11.9409861,9.92458758 11.9675381,9.95551913 12.0026338,9.97304888 L12.5120078,10.2375303 C12.5617665,10.2633352 12.593233,10.3144832 12.593831,10.3705319 C12.594429,10.4265807 12.564061,10.4783884 12.5148643,10.5052491 L8.06904201,12.9356016 C8.02472294,12.9598081 7.97126195,12.960365 7.92644826,12.937087 L3.48273341,10.6291172 C3.43352222,10.6035547 3.40218855,10.5531691 3.40102469,10.497727 C3.39986083,10.4422849 3.42905241,10.3906287 3.47714747,10.3630235 L4.03602052,10.0422383 C4.04941408,10.034545 4.05337501,10.0320821 4.06490236,10.0251251 C4.12281837,9.99003521 4.11673732,9.93993951 4.11611525,9.93385845 C4.11549318,9.9277774 4.11252247,9.86913775 4.06651466,9.84037017 C4.058834,9.83566021 4.05833888,9.835419 4.04978224,9.83069634 L3.26178419,9.39892877 C3.23898397,9.38646039 3.21336217,9.38006041 3.18737697,9.38034283 L3.17039064,9.38034283 C3.14669427,9.38056665 3.12338015,9.38634083 3.10231837,9.3972022 L1.93102345,9.99995025 C1.76002071,10.093291 1.65429479,10.2731962 1.65593781,10.4680081 C1.65761946,10.66282 1.76640003,10.8408947 1.93897072,10.9313038 L7.7762881,14.0473682 C7.84643614,14.0834618 7.92536184,14.0989802 8.00395314,14.0921319 L8.01385548,14.0921319 C8.10066603,14.0913829 8.18647365,14.0898975 8.23358595,14.0504659 C8.24197315,14.0437487 8.25098585,14.0378522 8.26050001,14.0328575 L14.0700401,10.8275196 C14.2372022,10.739848 14.3425303,10.5672758 14.3440811,10.3785245 C14.3440811,10.3661211 14.3428369,10.3718213 14.3430908,10.3589229 C14.3464424,10.2119874 14.2874092,10.0181807 14.0612422,9.89617877 L14.0613692,9.89591217 Z M14.0613692,7.37033209 L12.9280205,6.78841705 C12.9062046,6.77721278 12.8819967,6.77146684 12.8574727,6.77166663 L12.8414766,6.77166663 C12.8156884,6.77188456 12.7903806,6.77867032 12.7679453,6.79138775 L11.9845176,7.23604107 C11.9758702,7.24084997 11.9675837,7.24628094 11.9597236,7.25229107 C11.9367938,7.26776217 11.923298,7.29382595 11.9238975,7.32148052 C11.9235378,7.33463665 11.9252078,7.34776963 11.9288486,7.36041705 L11.9288486,7.36140728 C11.9408592,7.3987536 11.9674112,7.42968514 12.0025068,7.4472149 L12.5120078,7.71195025 C12.5617599,7.73775729 12.5932211,7.7889017 12.5938191,7.84494558 C12.5944171,7.90098947 12.5640544,7.95279354 12.5148643,7.97965631 L8.06904201,10.4100215 C8.02472294,10.4342281 7.97126195,10.4347849 7.92644826,10.4115069 L3.48273341,8.10353717 C3.43352222,8.07797461 3.40218855,8.02758906 3.40102469,7.97214692 C3.39986083,7.91670478 3.42905241,7.86504866 3.47714747,7.83744342 L4.03602052,7.51664556 C4.04941408,7.5089649 4.05337501,7.50648931 4.06490236,7.49954498 C4.12281837,7.46444244 4.11673732,7.41435943 4.11611525,7.40826568 C4.11549318,7.40217193 4.11252247,7.34354498 4.06651466,7.3147774 C4.058834,7.31008013 4.05833888,7.30982623 4.04978224,7.30511627 L3.26178419,6.87334869 C3.23898516,6.8608759 3.21336329,6.85447152 3.18737697,6.85475006 L3.17039064,6.85475006 C3.14669427,6.85497388 3.12338015,6.86074806 3.10231837,6.87160943 L1.93102345,7.47437017 C1.76002734,7.56771302 1.65430668,7.7476145 1.65594967,7.94242157 C1.65763131,8.13722864 1.7664066,8.31529979 1.93897072,8.40571099 L7.7762881,11.5217754 C7.84643614,11.557869 7.92536184,11.5733874 8.00395314,11.5665391 L8.01385548,11.5665391 C8.10066603,11.5658028 8.18647365,11.5643174 8.23358595,11.5248858 C8.24197315,11.5181686 8.25098585,11.5122721 8.26050001,11.5072774 L14.0700401,8.30119049 C14.2372062,8.21351672 14.342535,8.04093861 14.3440811,7.85218267 C14.3440811,7.83979205 14.3428369,7.84549224 14.3430908,7.83259381 C14.3464424,7.68565826 14.2874092,7.49185162 14.0612422,7.36983697 L14.0613692,7.37033209 Z M1.89904396,5.84069927 L7.70933302,9.00673248 C7.78066861,9.04423146 7.86131454,9.06033508 7.94158107,9.05310845 C8.03420607,9.05310845 8.1275674,9.05310845 8.17382912,9.00673248 L14.0303545,5.84069927 C14.2021298,5.7488154 14.3093729,5.56982861 14.3093729,5.37502252 C14.3093729,5.18021642 14.2021298,5.00122964 14.0303545,4.90934576 L8.26720314,1.97606842 C8.12630188,1.8830292 7.94348135,1.8830292 7.80258009,1.97606842 L1.94602931,4.90934576 C1.77149996,4.9982588 1.6630326,5.17899338 1.66666896,5.37483209 C1.62029298,5.56083111 1.76003029,5.74683013 1.89891701,5.8400772 L1.89904396,5.84069927 Z" id="形状"></path>
            </g>
        </g>
    </g>
</svg>