<?xml version="1.0" encoding="UTF-8"?>
<svg width="16px" height="16px" viewBox="0 0 16 16" version="1.1" xmlns="http://www.w3.org/2000/svg" xmlns:xlink="http://www.w3.org/1999/xlink">
    <title>减号</title>
    <g id="12..14" stroke="none" stroke-width="1" fill="none" fill-rule="evenodd">
        <g id="06.09创建报告=分组表" transform="translate(-312.000000, -905.000000)" fill-rule="nonzero">
            <g id="减号" transform="translate(312.000000, 905.000000)">
                <g id="minus-square" fill="#000000" opacity="0">
                    <rect id="矩形" x="0" y="0" width="16" height="16"></rect>
                </g>
                <g id="编组-14" transform="translate(2.864340, 2.670537)">
                    <rect id="矩形" fill="#C5CFE7" x="0" y="0" width="10" height="10" rx="1"></rect>
                    <path d="M7.14285834,5.35714164 L2.85714167,5.35714164 C2.65989703,5.35714163 2.5,5.1972436 2.5,4.99999997 C2.5,4.80275535 2.65989804,4.64285831 2.85714166,4.64285831 L7.14285829,4.64285836 C7.34010292,4.64285835 7.5,4.8027564 7.5,4.99999997 C7.5,5.1972446 7.34010196,5.35714164 7.14285834,5.35714164 Z" id="路径" fill="#FFFFFF"></path>
                </g>
            </g>
        </g>
    </g>
</svg>