<?xml version="1.0" encoding="UTF-8"?>
<svg width="16px" height="16px" viewBox="0 0 16 16" version="1.1" xmlns="http://www.w3.org/2000/svg" xmlns:xlink="http://www.w3.org/1999/xlink">
    <title>另存备份 2</title>
    <g id="页面-1" stroke="none" stroke-width="1" fill="none" fill-rule="evenodd">
        <g id="编辑报告" transform="translate(-1462.000000, -12.000000)" fill-rule="nonzero">
            <g id="另存备份-2" transform="translate(1462.000000, 12.000000)">
                <rect id="矩形" fill="#000000" opacity="0" x="0" y="0" width="16" height="16"></rect>
                <g id="编组-3" transform="translate(2.000000, 2.000000)" fill="#FFFFFF">
                    <path d="M7.25,0 L7.25,0.0421875 C7.3671875,0.07734375 7.47734375,0.134472656 7.57453613,0.21027832 L7.6671875,0.2921875 L9.2078125,2.8328125 C9.3640625,2.9890625 9.46280382,3.19088542 9.49137731,3.40753762 L9.5,3.5390625 L9.5,6.25 L8.375,6.25 L8.375,3.590625 L7.25,1.465625 L7.25,3.25 C7.25,3.49583333 7.07345679,3.69969136 6.83998628,3.74195816 L6.75,3.75 L2.75,3.75 C2.50416667,3.75 2.30030864,3.57345679 2.25804184,3.33998628 L2.25,3.25 L2.25,1.125 L1.125,1.125 L1.125,11.375 L8.375,11.375 L8.375,10.25 L9.5,10.25 L9.5,12 C9.5,12.2458333 9.32345679,12.4496914 9.08998628,12.4919582 L9,12.5 L0.5,12.5 C0.254166667,12.5 0.050308642,12.3234568 0.00804183813,12.0899863 L0,12 L0,0.5 C0,0.254166667 0.17654321,0.050308642 0.410013717,0.00804183813 L0.5,0 L7.25,0 Z M6.25,1.125 L3.25,1.125 L3.25,2.75 L6.25,2.75 L6.25,1.125 Z" id="形状结合"></path>
                    <path d="M8.77681546,12.0781248 C8.82681546,12.1421873 8.92369046,12.1421873 8.97369046,12.0781248 L10.7236904,9.86406228 C10.7877529,9.78281228 10.7299404,9.66249978 10.6252529,9.66249978 L9.46744046,9.66249978 L9.46744046,4.37499978 C9.46744046,4.30624978 9.41119046,4.24999978 9.34244046,4.24999978 L8.40494046,4.24999978 C8.33619046,4.24999978 8.27994046,4.30624978 8.27994046,4.37499978 L8.27994046,9.66093728 L7.12525296,9.66093728 C7.02056546,9.66093728 6.96275296,9.78124978 7.02681546,9.86249978 L8.77681546,12.0781248 Z" id="路径" transform="translate(8.875253, 8.188086) scale(-1, 1) rotate(90.000000) translate(-8.875253, -8.188086) "></path>
                </g>
            </g>
        </g>
    </g>
</svg>