<?xml version="1.0" encoding="UTF-8"?>
<svg width="20px" height="20px" viewBox="0 0 20 20" version="1.1" xmlns="http://www.w3.org/2000/svg" xmlns:xlink="http://www.w3.org/1999/xlink">
    <title>双环图</title>
    <g id="12..14" stroke="none" stroke-width="1" fill="none" fill-rule="evenodd">
        <g id="资源编辑" transform="translate(-1499.000000, -165.000000)">
            <g id="双环图" transform="translate(1499.000000, 165.000000)">
                <g id="编组-67">
                    <path d="M10,0 C13.9874221,0 17.5937426,2.3658777 19.1773389,6.02066879 C20.7609352,9.67545989 20.0190998,13.9205443 17.2895216,16.8235294 L17.2895216,16.8235294 L14.3262601,14.0431072 C15.3142449,12.9872941 15.9190304,11.5688843 15.9190304,10.0093146 C15.9190304,6.74689302 13.2725303,4.10217781 10.0079069,4.10217781 L10,4.102 Z" id="Combined-Shape" fill="#A2E1F6"></path>
                    <path d="M2.29560695,3.64705882 L5.46093103,6.26225424 C4.60970351,7.28560278 4.09783313,8.60074226 4.09783313,10.0353225 C4.09783313,13.2977371 6.74504466,15.9424468 10.0105456,15.9424468 C11.7145234,15.9424468 13.2501485,15.2223245 14.3291455,14.070083 L17.2941176,16.849523 C13.5962724,20.7812228 7.43990387,21.0710996 3.3878896,17.5043072 C-0.664124676,13.9375149 -1.1476846,7.80282992 2.29560695,3.64705882 L2.29560695,3.64705882 Z" id="Combined-Shape" fill="#AACAF7"></path>
                    <path d="M10,7.10542736e-15 L9.99994118,4.101 L9.78790649,4.10589262 C8.06222818,4.16992745 6.52693458,4.98438061 5.49446387,6.23468816 L2.35294118,3.62072035 C4.23837133,1.32751078 7.04210982,7.10542736e-15 10,7.10542736e-15 L10,7.10542736e-15 Z" id="Combined-Shape" fill="#89BEFF"></path>
                </g>
                <path d="M9.59130435,15 L9.68405797,15 C10.9826087,15 12.1652174,14.425 13,13.475 L9.63768116,10 L9.63768116,5 L9.59130435,5 C7.06376812,5 5,7.225 5,9.95 L5,10.05 C5,12.775 7.06376812,15 9.59130435,15 Z" id="形状备份" fill="#408CE8" fill-rule="nonzero"></path>
                <path d="M15,9.76696165 L15,9.67256637 C15,7.10029499 12.775,5 10.05,5 L10,5 L10,9.71976401 C12.1417697,12.0869457 13.2672173,13.2160022 13.3763428,13.1069336 C13.5400309,12.9433306 14.5305176,11.8235294 14.8212244,11.0109407 C14.9570228,10.6313545 15,10.1978793 15,9.76696165 Z" id="形状备份-2" fill="#24BEEF" fill-rule="nonzero"></path>
            </g>
        </g>
    </g>
</svg>