<?xml version="1.0" encoding="UTF-8"?>
<svg width="56px" height="56px" viewBox="0 0 56 56" version="1.1" xmlns="http://www.w3.org/2000/svg" xmlns:xlink="http://www.w3.org/1999/xlink">
    <title>44</title>
    <defs>
        <linearGradient x1="50%" y1="0%" x2="91.9573981%" y2="94.8133515%" id="linearGradient-1">
            <stop stop-color="#66A6FF" offset="0%"></stop>
            <stop stop-color="#69A5FF" offset="100%"></stop>
        </linearGradient>
        <rect id="path-2" x="0" y="0" width="55.4077792" height="55.4077792" rx="7.22710163"></rect>
        <filter x="-72.0%" y="-72.0%" width="244.1%" height="244.1%" filterUnits="objectBoundingBox" id="filter-4">
            <feGaussianBlur stdDeviation="9.63613551" in="SourceGraphic"></feGaussianBlur>
        </filter>
        <circle id="path-5" cx="44.8994073" cy="49.6759399" r="40.1228746"></circle>
        <filter x="-1.9%" y="-1.9%" width="103.7%" height="103.7%" filterUnits="objectBoundingBox" id="filter-6">
            <feGaussianBlur stdDeviation="1" in="SourceAlpha" result="shadowBlurInner1"></feGaussianBlur>
            <feOffset dx="0" dy="1" in="shadowBlurInner1" result="shadowOffsetInner1"></feOffset>
            <feComposite in="shadowOffsetInner1" in2="SourceAlpha" operator="arithmetic" k2="-1" k3="1" result="shadowInnerInner1"></feComposite>
            <feColorMatrix values="0 0 0 0 0.157317073   0 0 0 0 0.498500892   0 0 0 0 1  0 0 0 0.246776661 0" type="matrix" in="shadowInnerInner1"></feColorMatrix>
        </filter>
    </defs>
    <g id="页面-1" stroke="none" stroke-width="1" fill="none" fill-rule="evenodd">
        <g id="首页" transform="translate(-1820.000000, -303.000000)">
            <g id="44" transform="translate(1820.000000, 303.000000)">
                <g id="椭圆形">
                    <mask id="mask-3" fill="white">
                        <use xlink:href="#path-2"></use>
                    </mask>
                    <use id="蒙版" fill="url(#linearGradient-1)" xlink:href="#path-2"></use>
                    <circle fill="#59DBFF" filter="url(#filter-4)" mask="url(#mask-3)" cx="-3.55271368e-15" cy="-3.55271368e-15" r="20.0614373"></circle>
                    <g opacity="0.23609561" mask="url(#mask-3)">
                        <use fill="#3285FF" fill-rule="evenodd" xlink:href="#path-5"></use>
                        <use fill="black" fill-opacity="1" filter="url(#filter-6)" xlink:href="#path-5"></use>
                    </g>
                </g>
                <g id="renwu" transform="translate(13.000000, 13.000000)" fill="#FFFFFF" fill-rule="nonzero">
                    <path d="M25.4197362,0.0144331243 L4.56664707,0.0144331243 C2.0704023,0.0144331243 0.0143678161,2.09384796 0.0143678161,4.61889368 L0.0143678161,24.6700954 C0.0143678161,27.1951084 2.07036964,29.2745559 4.56661442,29.2745559 L25.4197035,29.2745559 C27.9162422,29.2745559 29.9719501,27.1951411 29.9719501,24.6700954 L29.9719501,4.61889368 C29.9719501,2.09388062 28.0631857,0.0144331243 25.4197035,0.0144331243 L25.4197362,0.0144331243 Z M27.7693639,24.8187696 C27.7693639,26.1553357 26.7416405,27.1950758 25.4197688,27.1950758 L4.56667973,27.1950758 C3.24506923,27.1950758 2.21708464,26.1553683 2.21708464,24.8187696 L2.21708464,4.61882837 C2.21708464,3.28226228 3.24506923,2.2425222 4.56667973,2.2425222 L25.4197688,2.2425222 C26.7416405,2.2425222 27.7693639,3.28222962 27.7693639,4.61882837 L27.7693639,24.8187696 Z M11.0282785,7.29231975 L7.79760972,10.559855 L6.32905564,9.07484326 C5.88822492,8.62921238 5.15412748,8.62921238 4.86050157,9.07484326 C4.41967085,9.52018025 4.41967085,10.2629963 4.86050157,10.559855 L7.21009666,12.9364551 C7.35704023,13.0849007 7.65066614,13.2333464 8.09113767,13.2333464 C8.53196839,13.2333464 8.53196839,13.0849007 8.97217868,12.9364551 L12.9372388,8.92610371 C13.3780695,8.48047283 13.3780695,7.73795063 12.9372388,7.44076541 C12.0561978,6.99542842 11.4686847,6.99542842 11.0281805,7.29231975 L11.0282785,7.29231975 Z M24.5386951,9.07484326 L14.4058582,9.07484326 C13.6717607,9.07484326 13.3778736,9.52018025 13.3778736,10.1145507 C13.3778736,10.8570729 13.8187043,11.1542581 14.4058582,11.1542581 L24.5389564,11.1542581 C25.2730538,11.1542581 25.5666797,10.7086272 25.5666797,10.1145507 C25.5666797,9.52018025 25.125849,9.07484326 24.5386951,9.07484326 Z M8.38476358,15.7583595 C6.47570533,15.7583595 5.00715125,17.2436978 5.00715125,19.1746343 C5.00715125,21.1053096 6.47570533,22.5906152 8.38476358,22.5906152 C10.2941484,22.5906152 11.7623759,21.1052769 11.7623759,19.1746343 C11.7623759,17.0952194 10.1472048,15.7583595 8.38476358,15.7583595 Z M8.38476358,20.214309 C7.65066614,20.214309 7.21009666,19.7686782 7.21009666,19.026156 C7.21009666,18.2833725 7.65066614,17.837709 8.38476358,17.837709 C9.11922022,17.837709 9.55969175,18.2833399 9.55969175,19.026156 C9.55969175,19.7686782 8.97217868,20.214309 8.38476358,20.214309 Z M24.5386951,17.9861546 L14.4058582,17.9861546 C13.6717607,17.9861546 13.3778736,18.4317855 13.3778736,19.026156 C13.3778736,19.6199386 13.8187043,20.0658634 14.4058582,20.0658634 L24.5389564,20.0658634 C25.2730538,20.0658634 25.5666797,19.6202325 25.5666797,19.026156 C25.5666797,18.4317855 25.125849,17.9864485 24.5386951,17.9864485 L24.5386951,17.9861546 Z" id="形状"></path>
                </g>
            </g>
        </g>
    </g>
</svg>