<?xml version="1.0" encoding="UTF-8"?>
<svg width="18px" height="18px" viewBox="0 0 18 18" version="1.1" xmlns="http://www.w3.org/2000/svg" xmlns:xlink="http://www.w3.org/1999/xlink">
    <title>团队目标</title>
    <g id="页面-1" stroke="none" stroke-width="1" fill="none" fill-rule="evenodd">
        <g id="指标知识库" transform="translate(-44.000000, -131.000000)" fill-rule="nonzero">
            <g id="团队目标" transform="translate(44.000000, 131.000000)">
                <rect id="矩形" opacity="0.95" x="0" y="0" width="18" height="18"></rect>
                <g id="部门" transform="translate(0.000000, 1.000000)" fill="#6479AE">
                    <path d="M15.7904202,1.90385723 L9.12695086,1.90385723 C9.00002754,1.90385723 8.87310451,1.90385723 8.80964181,1.77693391 L7.35002374,0.444240049 L7.35002373,0.44424004 C7.23741615,0.318167201 7.07474689,0.248451844 6.90579343,0.253855203 L2.20962421,0.253855203 L2.20962413,0.253855203 C1.22825574,0.253855246 0.432699976,1.04941097 0.432699976,2.03077936 C0.432699976,2.03077936 0.432699976,2.03077939 0.432699976,2.03077939 L0.432699976,13.2000331 L0.432699976,13.2000328 C0.432699976,14.1814012 1.22825574,14.976957 2.20962413,14.976957 C2.20962413,14.976957 2.20962416,14.976957 2.20962416,14.976957 L15.7903993,14.976957 L15.7903992,14.976957 C16.7717676,14.976957 17.5673234,14.1814012 17.5673234,13.2000328 C17.5673234,13.2000328 17.5673234,13.2000328 17.5673234,13.2000328 L17.5673234,3.68079095 L17.5673234,3.68079095 C17.5673234,2.69942256 16.7717676,1.9038668 15.7903992,1.9038668 C15.7903992,1.9038668 15.7903992,1.9038668 15.7903992,1.9038668 L15.7904202,1.90385723 Z M5.6365721,11.8673204 L5.6365721,11.8673204 C5.6365721,11.9374181 5.57974669,11.9942438 5.50964878,11.9942438 L4.43080038,11.9942438 L4.43080037,11.9942438 C4.36070246,11.9942438 4.30387705,11.9374184 4.30387705,11.8673204 L4.30387705,10.8519356 L4.30387705,10.8519356 C4.30387705,10.7818377 4.36070246,10.7250123 4.43080037,10.7250123 L5.50964877,10.7250123 L5.50964877,10.7250123 C5.57974638,10.7250123 5.6365721,10.7818377 5.6365721,10.8519356 L5.6365721,11.8673204 Z M5.6365721,9.20193273 L5.6365721,9.20193273 C5.6365721,9.27203034 5.57974669,9.32885605 5.50964878,9.32885605 L4.43080038,9.32885605 L4.43080037,9.32885605 C4.36070246,9.32885605 4.30387705,9.27203064 4.30387705,9.20193273 L4.30387705,8.18654792 L4.30387705,8.18654791 C4.30387705,8.11644999 4.36070246,8.05962458 4.43080037,8.05962458 L5.50964877,8.05962458 L5.50964877,8.05962458 C5.57974638,8.05962458 5.6365721,8.11644999 5.6365721,8.18654791 L5.6365721,9.20193273 Z M5.6365721,6.53654501 L5.6365721,6.53654501 C5.6365721,6.60664263 5.57974669,6.66346834 5.50964878,6.66346834 L4.43080038,6.66346834 L4.43080037,6.66346834 C4.36070246,6.66346834 4.30387705,6.60664293 4.30387705,6.53654501 L4.30387705,5.52116021 L4.30387705,5.52116019 C4.30387705,5.45106228 4.36070246,5.39423687 4.43080037,5.39423687 L5.50964877,5.39423687 L5.50964877,5.39423687 C5.57974638,5.39423687 5.6365721,5.45106228 5.6365721,5.52116019 L5.6365721,6.53654501 Z M13.6961869,11.8673204 L13.6961869,11.8673204 C13.6961869,11.9374184 13.6393615,11.9942438 13.5692636,11.9942438 L7.09617917,11.9942438 L7.09617917,11.9942438 C7.02608125,11.9942438 6.96925584,11.9374184 6.96925584,11.8673204 L6.96925584,10.8519356 L6.96925584,10.8519356 C6.96925584,10.7818377 7.02608125,10.7250123 7.09617917,10.7250123 L13.5692636,10.7250123 L13.5692636,10.7250123 C13.6393615,10.7250123 13.6961869,10.7818377 13.6961869,10.8519356 L13.6961869,11.8673204 Z M13.6961869,9.20193273 L13.6961869,9.20193273 C13.6961869,9.27203064 13.6393615,9.32885605 13.5692636,9.32885605 L7.09617917,9.32885605 L7.09617917,9.32885605 C7.02608125,9.32885605 6.96925584,9.27203064 6.96925584,9.20193273 L6.96925584,8.18654792 L6.96925584,8.18654791 C6.96925584,8.11644999 7.02608125,8.05962458 7.09617917,8.05962458 L13.5692636,8.05962458 L13.5692636,8.05962458 C13.6393615,8.05962458 13.6961869,8.11644999 13.6961869,8.18654791 L13.6961869,9.20193273 Z M13.6961869,6.53654501 L13.6961869,6.53654501 C13.6961869,6.60664293 13.6393615,6.66346834 13.5692636,6.66346834 L7.09617917,6.66346834 L7.09617917,6.66346834 C7.02608125,6.66346834 6.96925584,6.60664293 6.96925584,6.53654501 L6.96925584,5.52116021 L6.96925584,5.52116019 C6.96925584,5.45106228 7.02608125,5.39423687 7.09617917,5.39423687 L13.5692636,5.39423687 L13.5692636,5.39423687 C13.6393615,5.39423687 13.6961869,5.45106228 13.6961869,5.52116019 L13.6961869,6.53654501 Z" id="形状"></path>
                </g>
            </g>
        </g>
    </g>
</svg>