<?xml version="1.0" encoding="UTF-8"?>
<svg width="62px" height="65px" viewBox="0 0 62 65" version="1.1" xmlns="http://www.w3.org/2000/svg" xmlns:xlink="http://www.w3.org/1999/xlink">
    <title>智能问答icon</title>
    <defs>
        <filter x="-28.6%" y="-37.5%" width="157.1%" height="187.5%" filterUnits="objectBoundingBox" id="filter-1">
            <feOffset dx="0" dy="0" in="SourceAlpha" result="shadowOffsetOuter1"></feOffset>
            <feGaussianBlur stdDeviation="3" in="shadowOffsetOuter1" result="shadowBlurOuter1"></feGaussianBlur>
            <feColorMatrix values="0 0 0 0 0.129541611   0 0 0 0 0.242397977   0 0 0 0 0.559810915  0 0 0 0.17 0" type="matrix" in="shadowBlurOuter1" result="shadowMatrixOuter1"></feColorMatrix>
            <feMerge>
                <feMergeNode in="shadowMatrixOuter1"></feMergeNode>
                <feMergeNode in="SourceGraphic"></feMergeNode>
            </feMerge>
        </filter>
        <radialGradient cx="58.9883882%" cy="50%" fx="58.9883882%" fy="50%" r="41.0116118%" gradientTransform="translate(0.589884,0.500000),scale(1.000000,0.445891),scale(1.000000,2.415281),translate(-0.589884,-0.500000)" id="radialGradient-2">
            <stop stop-color="#FFFFFF" offset="0%"></stop>
            <stop stop-color="#DADADA" offset="100%"></stop>
        </radialGradient>
        <path d="M0.42454477,0.0285842035 C2.20200435,0.193139865 3.4267471,1.49162881 3.4267471,3.30059851 L3.4267471,4.47639368 C3.4267471,6.10976285 2.23140238,7.46389089 0.667936636,7.71139582 C0.787880644,6.91144803 0.849897133,6.09262078 0.849897133,5.25930529 C0.849897133,4.10957435 0.597940714,2.49343632 0.0940278742,0.410891197 L0.094043001,0.410887537 C0.0537021441,0.244168914 0.156151566,0.07631404 0.322870189,0.0359731831 C0.356123408,0.0279269113 0.390477603,0.0254302948 0.42454477,0.0285842035 C0.42454477,0.0285842035 0.42454477,0.0285842035 0.42454477,0.0285842035 Z" id="path-3"></path>
        <filter x="-201.8%" y="-91.1%" width="506.1%" height="282.2%" filterUnits="objectBoundingBox" id="filter-4">
            <feGaussianBlur stdDeviation="7" in="SourceAlpha" result="shadowBlurInner1"></feGaussianBlur>
            <feOffset dx="0" dy="0" in="shadowBlurInner1" result="shadowOffsetInner1"></feOffset>
            <feComposite in="shadowOffsetInner1" in2="SourceAlpha" operator="arithmetic" k2="-1" k3="1" result="shadowInnerInner1"></feComposite>
            <feColorMatrix values="0 0 0 0 1   0 0 0 0 1   0 0 0 0 1  0 0 0 1 0" type="matrix" in="shadowInnerInner1" result="shadowMatrixInner1"></feColorMatrix>
            <feGaussianBlur stdDeviation="1" in="SourceAlpha" result="shadowBlurInner2"></feGaussianBlur>
            <feOffset dx="0" dy="0" in="shadowBlurInner2" result="shadowOffsetInner2"></feOffset>
            <feComposite in="shadowOffsetInner2" in2="SourceAlpha" operator="arithmetic" k2="-1" k3="1" result="shadowInnerInner2"></feComposite>
            <feColorMatrix values="0 0 0 0 0.90698596   0 0 0 0 0.90698596   0 0 0 0 0.90698596  0 0 0 1 0" type="matrix" in="shadowInnerInner2" result="shadowMatrixInner2"></feColorMatrix>
            <feMerge>
                <feMergeNode in="shadowMatrixInner1"></feMergeNode>
                <feMergeNode in="shadowMatrixInner2"></feMergeNode>
            </feMerge>
        </filter>
        <linearGradient x1="50%" y1="0%" x2="50%" y2="99.8934659%" id="linearGradient-5">
            <stop stop-color="#99C2FA" offset="0%"></stop>
            <stop stop-color="#94B6FF" offset="100%"></stop>
        </linearGradient>
        <radialGradient cx="58.9883882%" cy="50%" fx="58.9883882%" fy="50%" r="41.0116118%" gradientTransform="translate(0.589884,0.500000),scale(1.000000,0.445891),scale(1.000000,3.678054),translate(-0.589884,-0.500000)" id="radialGradient-6">
            <stop stop-color="#FFFFFF" offset="0%"></stop>
            <stop stop-color="#DADADA" offset="100%"></stop>
        </radialGradient>
        <path d="M0.42454477,0.0285842035 C2.20200435,0.193139865 3.4267471,1.49162881 3.4267471,3.30059851 L3.4267471,4.47639368 C3.4267471,6.10976285 2.23140238,7.46389089 0.667936636,7.71139582 C0.787880644,6.91144803 0.849897133,6.09262078 0.849897133,5.25930529 C0.849897133,4.10957435 0.597940714,2.49343632 0.0940278742,0.410891197 L0.094043001,0.410887537 C0.0537021441,0.244168914 0.156151566,0.07631404 0.322870189,0.0359731831 C0.356123408,0.0279269113 0.390477603,0.0254302948 0.42454477,0.0285842035 C0.42454477,0.0285842035 0.42454477,0.0285842035 0.42454477,0.0285842035 Z" id="path-7"></path>
        <filter x="-201.8%" y="-91.1%" width="506.1%" height="282.2%" filterUnits="objectBoundingBox" id="filter-8">
            <feGaussianBlur stdDeviation="7" in="SourceAlpha" result="shadowBlurInner1"></feGaussianBlur>
            <feOffset dx="0" dy="0" in="shadowBlurInner1" result="shadowOffsetInner1"></feOffset>
            <feComposite in="shadowOffsetInner1" in2="SourceAlpha" operator="arithmetic" k2="-1" k3="1" result="shadowInnerInner1"></feComposite>
            <feColorMatrix values="0 0 0 0 1   0 0 0 0 1   0 0 0 0 1  0 0 0 1 0" type="matrix" in="shadowInnerInner1" result="shadowMatrixInner1"></feColorMatrix>
            <feGaussianBlur stdDeviation="1" in="SourceAlpha" result="shadowBlurInner2"></feGaussianBlur>
            <feOffset dx="0" dy="0" in="shadowBlurInner2" result="shadowOffsetInner2"></feOffset>
            <feComposite in="shadowOffsetInner2" in2="SourceAlpha" operator="arithmetic" k2="-1" k3="1" result="shadowInnerInner2"></feComposite>
            <feColorMatrix values="0 0 0 0 0.90698596   0 0 0 0 0.90698596   0 0 0 0 0.90698596  0 0 0 1 0" type="matrix" in="shadowInnerInner2" result="shadowMatrixInner2"></feColorMatrix>
            <feMerge>
                <feMergeNode in="shadowMatrixInner1"></feMergeNode>
                <feMergeNode in="shadowMatrixInner2"></feMergeNode>
            </feMerge>
        </filter>
        <linearGradient x1="50%" y1="0%" x2="50%" y2="100%" id="linearGradient-9">
            <stop stop-color="#99C2FA" offset="0%"></stop>
            <stop stop-color="#94B6FF" offset="99.8934659%"></stop>
        </linearGradient>
        <radialGradient cx="34.3622331%" cy="54.9706553%" fx="34.3622331%" fy="54.9706553%" r="76.0287307%" gradientTransform="translate(0.343622,0.549707),scale(0.815976,1.000000),rotate(1.594044),translate(-0.343622,-0.549707)" id="radialGradient-10">
            <stop stop-color="#FFFFFF" offset="0%"></stop>
            <stop stop-color="#F4F4F4" offset="100%"></stop>
        </radialGradient>
        <path d="M20.6657964,31.447502 C29.482164,31.447502 36.6292162,30.2267589 36.6292162,21.3921914 C36.6292162,12.5577875 29.482164,5.39597117 20.6657964,5.39597117 C11.8494288,5.39597117 4.7023766,12.5577875 4.7023766,21.3921914 C4.7023766,30.2267589 11.8494288,31.447502 20.6657964,31.447502 Z" id="path-11"></path>
        <filter x="-12.5%" y="-7.7%" width="125.1%" height="130.7%" filterUnits="objectBoundingBox" id="filter-12">
            <feOffset dx="0" dy="2" in="SourceAlpha" result="shadowOffsetOuter1"></feOffset>
            <feGaussianBlur stdDeviation="1" in="shadowOffsetOuter1" result="shadowBlurOuter1"></feGaussianBlur>
            <feColorMatrix values="0 0 0 0 0.877038043   0 0 0 0 0.877038043   0 0 0 0 0.877038043  0 0 0 0.5 0" type="matrix" in="shadowBlurOuter1"></feColorMatrix>
        </filter>
        <filter x="-28.2%" y="-26.9%" width="156.4%" height="169.1%" filterUnits="objectBoundingBox" id="filter-13">
            <feGaussianBlur stdDeviation="7" in="SourceAlpha" result="shadowBlurInner1"></feGaussianBlur>
            <feOffset dx="0" dy="0" in="shadowBlurInner1" result="shadowOffsetInner1"></feOffset>
            <feComposite in="shadowOffsetInner1" in2="SourceAlpha" operator="arithmetic" k2="-1" k3="1" result="shadowInnerInner1"></feComposite>
            <feColorMatrix values="0 0 0 0 1   0 0 0 0 1   0 0 0 0 1  0 0 0 1 0" type="matrix" in="shadowInnerInner1" result="shadowMatrixInner1"></feColorMatrix>
            <feGaussianBlur stdDeviation="1" in="SourceAlpha" result="shadowBlurInner2"></feGaussianBlur>
            <feOffset dx="0" dy="0" in="shadowBlurInner2" result="shadowOffsetInner2"></feOffset>
            <feComposite in="shadowOffsetInner2" in2="SourceAlpha" operator="arithmetic" k2="-1" k3="1" result="shadowInnerInner2"></feComposite>
            <feColorMatrix values="0 0 0 0 0.832965353   0 0 0 0 0.832965353   0 0 0 0 0.832965353  0 0 0 1 0" type="matrix" in="shadowInnerInner2" result="shadowMatrixInner2"></feColorMatrix>
            <feMerge>
                <feMergeNode in="shadowMatrixInner1"></feMergeNode>
                <feMergeNode in="shadowMatrixInner2"></feMergeNode>
            </feMerge>
        </filter>
        <linearGradient x1="100%" y1="50%" x2="0%" y2="50%" id="linearGradient-14">
            <stop stop-color="#4666F9" offset="0%"></stop>
            <stop stop-color="#44A6EF" offset="100%"></stop>
        </linearGradient>
        <path d="M20.6938631,8.31197579 C22.0456797,8.31197579 23.1415396,7.83612581 23.1415396,7.24912936 C23.1415396,6.66214378 22.0456797,6.18629018 20.6938631,6.18629018 C19.3420465,6.18629018 18.2461866,6.66214378 18.2461866,7.24912936 C18.2461866,7.83612581 19.3420465,8.31197579 20.6938631,8.31197579 Z" id="path-15"></path>
        <filter x="-20.4%" y="-47.0%" width="140.9%" height="194.1%" filterUnits="objectBoundingBox" id="filter-16">
            <feGaussianBlur stdDeviation="1" in="SourceAlpha" result="shadowBlurInner1"></feGaussianBlur>
            <feOffset dx="0" dy="0" in="shadowBlurInner1" result="shadowOffsetInner1"></feOffset>
            <feComposite in="shadowOffsetInner1" in2="SourceAlpha" operator="arithmetic" k2="-1" k3="1" result="shadowInnerInner1"></feComposite>
            <feColorMatrix values="0 0 0 0 0.384313725   0 0 0 0 0.211764706   0 0 0 0 1  0 0 0 1 0" type="matrix" in="shadowInnerInner1"></feColorMatrix>
        </filter>
        <path d="M2.78979384,7.68517106 C2.46260194,7.68517106 2.14719184,7.50589402 1.98833493,7.1942911 C1.76280223,6.75184392 1.93847618,6.21025934 2.38068877,5.98462379 L4.55894041,4.87317198 L1.62273698,4.87317198 C1.42465128,4.87863755 1.22478843,4.81624453 1.05823057,4.68938421 C0.907502454,4.57454154 0.801005471,4.418773 0.746243117,4.2466407 C0.662914823,4.06186517 0.372187275,3.4717161 0.242422873,3.20834842 C0.0724423681,2.86335947 0.0724423681,2.86335947 0.0518077549,2.80514793 C-0.095958454,2.38818476 0.0812951766,1.92565329 0.469831449,1.71443893 L3.42222663,0.109341449 C3.85841668,-0.127883727 4.40416435,0.0337125486 4.64118267,0.470101512 C4.87820099,0.906490475 4.71674419,1.45248702 4.28058705,1.68961342 L2.08574874,2.88288404 C2.11750695,2.94777936 2.14900189,3.01237836 2.17921333,3.07463968 L5.36049804,3.07463968 C5.73800944,3.07463968 6.07530474,3.31064663 6.20480586,3.66541433 C6.22109634,3.71002781 6.23363508,3.75529979 6.24258662,3.80083517 C6.31887216,3.99828685 6.56497365,4.53473512 6.65225115,4.70571504 C6.77503862,4.8934209 6.82552267,5.12392936 6.7857673,5.35249525 C6.73465797,5.64625278 6.54325301,5.88907522 6.28421785,6.01185283 L3.19745086,7.58682386 C3.06669916,7.65356299 2.92719338,7.68517106 2.78979384,7.68517106" id="path-17"></path>
        <filter x="-14.7%" y="-13.0%" width="129.4%" height="126.0%" filterUnits="objectBoundingBox" id="filter-18">
            <feGaussianBlur stdDeviation="1" in="SourceAlpha" result="shadowBlurInner1"></feGaussianBlur>
            <feOffset dx="0" dy="0" in="shadowBlurInner1" result="shadowOffsetInner1"></feOffset>
            <feComposite in="shadowOffsetInner1" in2="SourceAlpha" operator="arithmetic" k2="-1" k3="1" result="shadowInnerInner1"></feComposite>
            <feColorMatrix values="0 0 0 0 0.496992204   0 0 0 0 0.966627038   0 0 0 0 0  0 0 0 1 0" type="matrix" in="shadowInnerInner1"></feColorMatrix>
        </filter>
        <linearGradient x1="100%" y1="50%" x2="0%" y2="50%" id="linearGradient-19">
            <stop stop-color="#4666F9" offset="0%"></stop>
            <stop stop-color="#44A6EF" offset="100%"></stop>
        </linearGradient>
        <path d="M20.7482559,15.5883612 C20.9840684,15.5883612 21.2381122,15.4898238 21.5103873,15.292749 C22.0280821,14.9180206 22.6508589,14.716285 23.2899436,14.716285 L26.1974593,14.716285 L26.1974593,14.716285 C29.0155871,15.0686016 31.1372828,17.5711009 31.1372828,20.5427118 L31.1372828,22.4502638 C31.1372828,24.0684492 29.8844017,25.3802476 28.3388945,25.3802476 C28.2278219,25.3802476 28.1168478,25.3733237 28.0065613,25.3595125 L24.4250289,24.9109983 C24.2370504,24.8874578 24.0118056,24.8618013 23.7492945,24.8340288 L23.7492943,24.8340308 C22.947963,24.7492535 22.2132374,24.3492916 21.7070676,23.7223059 C21.4068661,23.3504504 21.0872622,23.1645227 20.7482559,23.1645227 C20.4135593,23.1645227 20.0978052,23.3491004 19.8009936,23.7182557 L19.8009895,23.7182524 C19.2869111,24.3576304 18.5358857,24.7616547 17.7190547,24.8382574 C17.4605345,24.8625015 17.2382287,24.8862363 17.0521376,24.9094618 L13.4344515,25.3609741 C11.8998087,25.5525082 10.5074395,24.4052003 10.3245079,22.7983903 C10.3114049,22.6832984 10.3048361,22.5674938 10.3048361,22.4515871 L10.3048361,20.5427118 C10.3048361,17.5711009 12.4265319,15.0686016 15.2446597,14.716285 L18.2065438,14.716285 C18.8456316,14.716282 19.468411,14.9180201 19.9861144,15.2927417 C20.2583933,15.4898214 20.5124404,15.5883612 20.7482559,15.5883612 Z" id="path-20"></path>
        <filter x="-4.8%" y="-9.4%" width="109.6%" height="118.8%" filterUnits="objectBoundingBox" id="filter-21">
            <feGaussianBlur stdDeviation="1" in="SourceAlpha" result="shadowBlurInner1"></feGaussianBlur>
            <feOffset dx="0" dy="0" in="shadowBlurInner1" result="shadowOffsetInner1"></feOffset>
            <feComposite in="shadowOffsetInner1" in2="SourceAlpha" operator="arithmetic" k2="-1" k3="1" result="shadowInnerInner1"></feComposite>
            <feColorMatrix values="0 0 0 0 0.384313725   0 0 0 0 0.211764706   0 0 0 0 1  0 0 0 1 0" type="matrix" in="shadowInnerInner1"></feColorMatrix>
        </filter>
    </defs>
    <g id="问答" stroke="none" stroke-width="1" fill="none" fill-rule="evenodd">
        <g id="PC弹出框" transform="translate(-764.000000, -860.000000)">
            <g id="智能问答icon" transform="translate(764.000000, 863.000000)">
                <rect id="矩形" fill="#89B1FF" fill-rule="nonzero" x="0" y="0" width="62" height="62" rx="8"></rect>
                <g id="机器人备份-4" transform="translate(10.000000, 1.000000)">
                    <rect id="矩形" opacity="0.95" fill-rule="nonzero" x="0" y="0" width="41.6666667" height="41.6666667"></rect>
                    <g id="机器人" filter="url(#filter-1)" transform="translate(1.000000, 5.000000)">
                        <g id="编组-91" transform="translate(36.304600, 16.161689)">
                            <g id="路径">
                                <use fill="url(#radialGradient-2)" fill-rule="evenodd" xlink:href="#path-3"></use>
                                <use fill="black" fill-opacity="1" filter="url(#filter-4)" xlink:href="#path-3"></use>
                            </g>
                            <rect id="矩形" fill="url(#linearGradient-5)" fill-rule="nonzero" x="3.80749678" y="2.75146272" width="1" height="2.18019037" rx="0.5"></rect>
                        </g>
                        <g id="编组-91备份" transform="translate(2.528733, 20.161689) scale(-1, 1) translate(-2.528733, -20.161689) translate(0.028733, 16.161689)">
                            <g id="路径">
                                <use fill="url(#radialGradient-6)" fill-rule="evenodd" xlink:href="#path-7"></use>
                                <use fill="black" fill-opacity="1" filter="url(#filter-8)" xlink:href="#path-7"></use>
                            </g>
                            <rect id="矩形" fill="url(#linearGradient-9)" fill-rule="nonzero" x="3.80749678" y="2.75146272" width="1" height="2.18019037" rx="0.5"></rect>
                        </g>
                        <g id="Fill-3备份-20">
                            <use fill="black" fill-opacity="1" filter="url(#filter-12)" xlink:href="#path-11"></use>
                            <use fill="url(#radialGradient-10)" fill-rule="evenodd" xlink:href="#path-11"></use>
                            <use fill="black" fill-opacity="1" filter="url(#filter-13)" xlink:href="#path-11"></use>
                        </g>
                        <g id="Fill-3备份-21" opacity="0.95" fill-rule="nonzero" transform="translate(20.693863, 7.249133) scale(1, -1) translate(-20.693863, -7.249133) ">
                            <use fill="url(#linearGradient-14)" xlink:href="#path-15"></use>
                            <use fill="black" fill-opacity="1" filter="url(#filter-16)" xlink:href="#path-15"></use>
                        </g>
                        <g id="编组-10备份-5" transform="translate(17.865437, 0.000000)">
                            <g id="路径">
                                <use fill="#00C635" fill-rule="evenodd" xlink:href="#path-17"></use>
                                <use fill="black" fill-opacity="1" filter="url(#filter-18)" xlink:href="#path-17"></use>
                            </g>
                            <ellipse id="椭圆形" fill="#C4FF85" fill-rule="nonzero" opacity="0.95" cx="3.80749678" cy="0.926580908" rx="1" ry="1"></ellipse>
                        </g>
                        <g id="路径" fill-rule="nonzero">
                            <use fill="url(#linearGradient-19)" xlink:href="#path-20"></use>
                            <use fill="black" fill-opacity="1" filter="url(#filter-21)" xlink:href="#path-20"></use>
                        </g>
                        <g id="编组-98备份" transform="translate(13.731583, 17.441523)" fill="#9FFFEA" fill-rule="nonzero">
                            <g id="编组-97">
                                <rect id="矩形" x="1.19664185" y="0" width="1.41421309" height="1" rx="0.329897227"></rect>
                                <rect id="矩形备份-9" x="0.217571245" y="0.545047593" width="3.37235429" height="1" rx="0.329897227"></rect>
                                <rect id="矩形" transform="translate(1.903748, 5.041690) scale(1, -1) translate(-1.903748, -5.041690) " x="1.19664185" y="4.90542834" width="1.41421309" height="1" rx="0.329897227"></rect>
                                <rect id="矩形备份-9" transform="translate(1.903748, 4.496643) scale(1, -1) translate(-1.903748, -4.496643) " x="0.217571245" y="4.36038074" width="3.37235429" height="1" rx="0.329897227"></rect>
                                <rect id="矩形备份-11" x="0" y="1.09009519" width="3.80749678" height="1" rx="0.329897227"></rect>
                                <rect id="矩形备份-13" x="0" y="1.63514278" width="3.80749678" height="1" rx="0.329897227"></rect>
                                <rect id="矩形备份-15" x="0" y="2.18019037" width="3.80749678" height="1" rx="0.329897227"></rect>
                                <rect id="矩形备份-17" x="0" y="2.72523796" width="3.80749678" height="1" rx="0.329897227"></rect>
                                <rect id="矩形备份-19" x="0" y="3.27028556" width="3.80749678" height="1" rx="0.329897227"></rect>
                                <rect id="矩形备份-21" x="0" y="3.81533315" width="3.80749678" height="1" rx="0.329897227"></rect>
                            </g>
                            <g id="编组-97备份" transform="translate(10.171456, 0.000000)">
                                <rect id="矩形" x="1.19664185" y="0" width="1.41421309" height="1" rx="0.329897227"></rect>
                                <rect id="矩形备份-9" x="0.217571245" y="0.545047593" width="3.37235429" height="1" rx="0.329897227"></rect>
                                <rect id="矩形" transform="translate(1.903748, 5.041690) scale(1, -1) translate(-1.903748, -5.041690) " x="1.19664185" y="4.90542834" width="1.41421309" height="1" rx="0.329897227"></rect>
                                <rect id="矩形备份-9" transform="translate(1.903748, 4.496643) scale(1, -1) translate(-1.903748, -4.496643) " x="0.217571245" y="4.36038074" width="3.37235429" height="1" rx="0.329897227"></rect>
                                <rect id="矩形备份-11" x="0" y="1.09009519" width="3.80749678" height="1" rx="0.329897227"></rect>
                                <rect id="矩形备份-13" x="0" y="1.63514278" width="3.80749678" height="1" rx="0.329897227"></rect>
                                <rect id="矩形备份-15" x="0" y="2.18019037" width="3.80749678" height="1" rx="0.329897227"></rect>
                                <rect id="矩形备份-17" x="0" y="2.72523796" width="3.80749678" height="1" rx="0.329897227"></rect>
                                <rect id="矩形备份-19" x="0" y="3.27028556" width="3.80749678" height="1" rx="0.329897227"></rect>
                                <rect id="矩形备份-21" x="0" y="3.81533315" width="3.80749678" height="1" rx="0.329897227"></rect>
                            </g>
                        </g>
                    </g>
                </g>
                <text id="智能问答" font-family="PingFangSC-Medium, PingFang SC" font-size="12" font-weight="400" letter-spacing="0.171428584" fill="#FFFFFF">
                    <tspan x="7" y="54">智能问答</tspan>
                </text>
            </g>
        </g>
    </g>
</svg>