<?xml version="1.0" encoding="UTF-8"?>
<svg width="18px" height="18px" viewBox="0 0 18 18" version="1.1" xmlns="http://www.w3.org/2000/svg" xmlns:xlink="http://www.w3.org/1999/xlink">
    <title>个人目标</title>
    <g id="页面-1" stroke="none" stroke-width="1" fill="none" fill-rule="evenodd">
        <g id="任务管理" transform="translate(-44.000000, -555.000000)" fill-rule="nonzero">
            <g id="个人目标" transform="translate(44.000000, 555.000000)">
                <g id="编组-5备份" opacity="0.95">
                    <rect id="矩形" x="0" y="0" width="18" height="18"></rect>
                </g>
                <g id="部门" transform="translate(0.000000, 2.000000)" fill="#6479AE">
                    <path d="M16.2075585,1.8503357 L9.36172765,1.8503357 C9.13497301,1.8503357 8.90821836,1.7611629 8.74625075,1.59396389 L7.4505099,0.256371814 C7.28854229,0.0891728049 7.07258548,0 6.83503299,0 L1.80323935,0 C0.809838032,0 0.0107978404,0.835995046 0.0107978404,1.8614823 L0,13.0080829 C0,14.0335702 0.809838032,14.8695652 1.80323935,14.8695652 L16.1967606,14.8695652 C17.190162,14.8695652 18,14.0335702 18,13.0080829 L18,3.711818 C18,2.68633075 17.190162,1.8503357 16.2075585,1.8503357 Z M9.00539892,4.63698585 C9.99880024,4.63698585 10.8086383,5.4729809 10.8086383,6.49846816 C10.8086383,7.52395541 9.99880024,8.35995046 9.00539892,8.35995046 C8.0119976,8.35995046 7.20215957,7.52395541 7.20215957,6.49846816 C7.20215957,5.4729809 8.0119976,4.63698585 9.00539892,4.63698585 Z M12.6010798,12.0717685 L5.39892022,12.0717685 L5.39892022,11.1466006 C5.39892022,9.90932794 7.80683863,9.28511831 8.99460108,9.28511831 C10.1823635,9.28511831 12.5902819,9.90932794 12.5902819,11.1466006 L12.5902819,12.0717685 L12.6010798,12.0717685 Z" id="形状"></path>
                </g>
            </g>
        </g>
    </g>
</svg>