<?xml version="1.0" encoding="UTF-8"?>
<svg width="14px" height="10px" viewBox="0 0 14 10" version="1.1" xmlns="http://www.w3.org/2000/svg" xmlns:xlink="http://www.w3.org/1999/xlink">
    <title>箭头5备份</title>
    <g id="12..14" stroke="none" stroke-width="1" fill="none" fill-rule="evenodd">
        <g id="05.11创建报告=指标版优化" transform="translate(-1310.000000, -1130.000000)" fill="#000000">
            <g id="箭头5备份" transform="translate(1317.000000, 1135.000000) scale(1, -1) translate(-1317.000000, -1135.000000) translate(1310.000000, 1130.000000)">
                <rect id="矩形" fill-opacity="0.8" x="0" y="8" width="14" height="2" rx="1"></rect>
                <rect id="矩形备份-20" fill-opacity="0.6" x="1.75" y="4" width="10.5" height="2" rx="1"></rect>
                <rect id="矩形备份-21" fill-opacity="0.4" x="3.5" y="0" width="7" height="2" rx="1"></rect>
            </g>
        </g>
    </g>
</svg>