<?xml version="1.0" encoding="UTF-8"?>
<svg width="16px" height="16px" viewBox="0 0 16 16" version="1.1" xmlns="http://www.w3.org/2000/svg" xmlns:xlink="http://www.w3.org/1999/xlink">
    <title>图表切换备份 4</title>
    <g id="12..14" stroke="none" stroke-width="1" fill="none" fill-rule="evenodd">
        <g id="创建报告=图片、标题图标、图表排序、组件背景色、柱形/折线切换" transform="translate(-824.000000, -187.000000)" fill-rule="nonzero">
            <g id="图表切换备份-4" transform="translate(824.000000, 187.000000)">
                <path d="M1.5830833,5.68169209 L14.4179168,5.68169209 C14.7389627,5.68169209 15,5.68169209 15,5.18527434 C15,4.90937683 14.5489356,4.6542458 14.5079297,4.62853492 L12.1305901,3.10467088 C11.8605515,2.93161689 11.5195028,2.97809425 11.3674811,3.2075144 C11.2174596,3.43792343 11.3134734,3.7652427 11.5835119,3.9382967 L12.7546792,4.6888566 L1.5830833,4.6888566 C1.26103729,4.6888566 1,4.91135459 1,5.18527434 C1,5.46018297 1.26103729,5.68169209 1.5830833,5.68169209 Z M14.4169167,11.3183079 L1.58208315,11.3183079 C1.26103729,11.3183079 1,11.3183079 1,11.8147257 C1,12.0906232 1.45106444,12.3457542 1.4920703,12.3714651 L3.86940992,13.8953291 C4.13944849,14.0683831 4.48049721,14.0219058 4.63251893,13.7924856 C4.78254036,13.5620766 4.68652665,13.2347573 4.41648807,13.0626922 L3.24532076,12.3111434 L14.4169167,12.3111434 C14.7379626,12.3111434 15,12.0886454 15,11.8147257 C15,11.5408059 14.7379626,11.3183079 14.4169167,11.3183079 L14.4169167,11.3183079 Z" id="形状" fill="#222E53"></path>
                <rect id="矩形" opacity="0.95" x="0" y="0" width="16" height="16"></rect>
            </g>
        </g>
    </g>
</svg>