<?xml version="1.0" encoding="UTF-8"?>
<svg width="15px" height="14px" viewBox="0 0 15 14" version="1.1" xmlns="http://www.w3.org/2000/svg" xmlns:xlink="http://www.w3.org/1999/xlink">
    <title>纵向</title>
    <g id="12..14" stroke="none" stroke-width="1" fill="none" fill-rule="evenodd">
        <g id="06.09创建报告=分组表" transform="translate(-1433.000000, -558.000000)" fill="#3F73FF" fill-rule="nonzero">
            <g id="纵向" transform="translate(1433.000000, 558.000000)">
                <polygon id="路径" points="0.07343968 0 2.7546928 0 2.7546928 14 0.07343968 14"></polygon>
                <polygon id="路径" points="3.8246928 0 6.50594592 0 6.50594592 10 3.8246928 10"></polygon>
                <polygon id="路径备份-20" points="3.8246928 11 6.50594592 11 6.50594592 14 3.8246928 14"></polygon>
                <polygon id="路径" points="11.327199 11 14.0084522 11 14.0084522 14 11.327199 14"></polygon>
                <polygon id="路径备份-22" points="11.327199 7 14.0084522 7 14.0084522 10 11.327199 10"></polygon>
                <polygon id="路径备份-23" points="11.327199 3 14.0084522 3 14.0084522 6 11.327199 6"></polygon>
                <polygon id="路径备份-24" points="11.327199 0 14.0084522 0 14.0084522 2 11.327199 2"></polygon>
                <polygon id="路径" points="7.57594592 11 10.257199 11 10.257199 14 7.57594592 14"></polygon>
                <polygon id="路径备份-21" points="7.57594592 0 10.257199 0 10.257199 10 7.57594592 10"></polygon>
            </g>
        </g>
    </g>
</svg>