<?xml version="1.0" encoding="UTF-8"?>
<svg width="16px" height="16px" viewBox="0 0 16 16" version="1.1" xmlns="http://www.w3.org/2000/svg" xmlns:xlink="http://www.w3.org/1999/xlink">
    <title>重置备份 2</title>
    <g id="12..14" stroke="none" stroke-width="1" fill="none" fill-rule="evenodd">
        <g id="创建报告=撤销重做" transform="translate(-1013.000000, -153.000000)">
            <g id="重置备份-2" transform="translate(1021.000000, 161.000000) scale(-1, 1) translate(-1021.000000, -161.000000) translate(1013.000000, 153.000000)">
                <g id="撤销" transform="translate(8.000000, 8.000000) scale(-1, 1) translate(-8.000000, -8.000000) ">
                    <rect id="矩形备份-5" x="0" y="0" width="16" height="16"></rect>
                    <path d="M7.71428553,5.08800897 L7.64786481,5.09221617 C3.72433801,5.36788569 2,8.25425653 2,13.4412795 C2,14.0411018 2.82746059,14.2110086 3.08423689,13.6880427 L3.1388551,13.5652618 L3.17072068,13.4974311 C3.23356019,13.3659261 3.31037067,13.2181731 3.40130411,13.0583232 C3.66222018,12.5996644 3.98186426,12.1405995 4.36039368,11.7140555 L4.4424561,11.6230853 C5.32104252,10.665065 6.3600627,10.0395077 7.57466189,9.86423972 L7.71428553,9.84599972 L7.71428553,12.3251663 C7.71428553,12.8146924 8.31365071,13.0670009 8.67807037,12.7308808 L13.8209273,7.98739948 C14.0550143,7.77149089 14.0603095,7.40942891 13.8326321,7.18707936 L8.68977508,2.16456977 C8.32979518,1.8130137 7.71428553,2.06200004 7.71428553,2.55917539 L7.71428553,5.08800897 Z M8.85714263,3.9066031 L12.6082854,7.56996579 L8.85714263,11.0299168 L8.85714263,9.25585484 C8.85714263,8.94764868 8.60130535,8.69779822 8.28571408,8.69779822 C6.35110041,8.69779822 4.75748899,9.56242017 3.49674905,10.9830788 L3.36867094,11.130738 L3.26542853,11.2548137 L3.27841135,11.1550511 C3.72398525,7.79506092 5.28920037,6.18654343 8.28571408,6.18654343 C8.60130535,6.18654343 8.85714263,5.93669297 8.85714263,5.6284868 L8.85714263,3.9066031 Z" id="路径" fill="#3F73FF" fill-rule="nonzero"></path>
                </g>
            </g>
        </g>
    </g>
</svg>