<?xml version="1.0" encoding="UTF-8"?>
<svg width="18px" height="18px" viewBox="0 0 18 18" version="1.1" xmlns="http://www.w3.org/2000/svg" xmlns:xlink="http://www.w3.org/1999/xlink">
    <title>编组 3备份</title>
    <g id="页面-1" stroke="none" stroke-width="1" fill="none" fill-rule="evenodd">
        <g id="指标板备份" transform="translate(-32.000000, -32.000000)" fill="#FFFFFF" fill-rule="nonzero">
            <g id="编组-2" transform="translate(16.000000, 16.000000)">
                <g id="编组" transform="translate(16.000000, 15.000000)">
                    <g id="编组-3备份" transform="translate(0.000000, 1.000000)">
                        <path d="M0,9 C0,13.9705627 4.02943725,18 9,18 C13.9705627,18 18,13.9705627 18,9 C18,4.02943725 13.9705627,0 9,0 C4.02943725,0 0,4.02943725 0,9 Z" id="路径" opacity="0.2"></path>
                        <path d="M15.75,8.99999649 C15.75,12.7278628 12.7278703,15.75 9.00000448,15.75 C7.31712409,15.7524247 5.6944935,15.123791 4.45249634,13.9882138 L6.15235012,10.9285669 L8.08092027,13.8214225 L11.6409402,8.90010256 L12.8571448,9.9642817 L12.3750022,6.10714085 L9.00000448,6.58928346 L10.1060696,7.55703407 L8.08092027,10.4464243 L6.15235012,7.55356867 L3.10159321,12.284593 C2.54134623,11.2806352 2.24813163,10.1496941 2.25,8.99999649 C2.25,5.27213012 5.27213865,2.25 9.00000448,2.25 C12.7278703,2.25 15.75,5.27213012 15.75,8.99999649 Z" id="路径"></path>
                    </g>
                </g>
            </g>
        </g>
    </g>
</svg>