<?xml version="1.0" encoding="UTF-8"?>
<svg width="12px" height="12px" viewBox="0 0 16 16" version="1.1" xmlns="http://www.w3.org/2000/svg" xmlns:xlink="http://www.w3.org/1999/xlink">
    <title>向下2</title>
    <g id="凡软自研" stroke="none" stroke-width="1" fill="none" fill-rule="evenodd">
        <g id="表格" transform="translate(-835.000000, -116.000000)" fill-rule="nonzero">
            <g id="向下2" transform="translate(843.000000, 124.000000) scale(1, -1) translate(-843.000000, -124.000000) translate(835.000000, 116.000000)">
                <rect id="矩形" opacity="0.95" x="0" y="0" width="16" height="16"></rect>
                <g id="编组" transform="translate(8.000000, 8.000000) scale(1, -1) translate(-8.000000, -8.000000) translate(2.000000, 1.000000)" fill="#FFFFFF">
                    <path d="M11.749549,8 L0.249769859,8 C0.149481421,8 0.0577629293,8.05928393 0.0186392601,8.14906264 C-0.0192662728,8.23943281 0.00151369798,8.3421412 0.0730397905,8.41080602 L5.82232746,13.9295763 C5.92015097,14.0234815 6.078523,14.0234677 6.17634651,13.9295763 L11.9268523,8.41080602 C11.9983927,8.3421412 12.0197889,8.2388551 11.9806653,8.14847118 C11.9421435,8.05927018 11.8510412,8 11.7495347,8 L11.749549,8 Z" id="路径备份"></path>
                    <path d="M11.7495294,6 C11.8504219,6 11.941526,5.94067914 11.9806649,5.85145705 C12.0197894,5.7622212 11.9983927,5.65889475 11.9268508,5.59020309 L6.17622339,0.070446099 C6.07839782,-0.023482033 5.92002243,-0.023482033 5.82219686,0.070446099 L0.0727876481,5.59020309 C0.00124571209,5.65889475 -0.0189327827,5.7622212 0.0183716363,5.85145705 C0.0568942172,5.9406929 0.149216563,6 0.24949279,6 L11.7495294,6 Z" id="路径备份-2" opacity="0.569870722"></path>
                </g>
            </g>
        </g>
    </g>
</svg>
