<?xml version="1.0" encoding="UTF-8"?>
<svg width="20px" height="20px" viewBox="0 0 20 20" version="1.1" xmlns="http://www.w3.org/2000/svg" xmlns:xlink="http://www.w3.org/1999/xlink">
    <title>柱状图备份</title>
    <g id="12..14" stroke="none" stroke-width="1" fill="none" fill-rule="evenodd">
        <g id="创建报告-各状态操作按钮" transform="translate(-727.000000, -1115.000000)" fill-rule="nonzero">
            <g id="柱状图备份" transform="translate(727.000000, 1115.000000)">
                <rect id="矩形备份-20" opacity="0.95" x="1" y="0.5" width="18" height="18"></rect>
                <g id="zhuzhuangtu" transform="translate(1.000000, 1.500000)" fill="#3F73FF">
                    <polygon id="路径" points="3.77053795 8.21417738 1.52053795 8.17139405 1.52053795 14.9139179 3.77053795 14.9139179"></polygon>
                    <polygon id="路径" points="8.13869196 2.61205 5.88869196 2.53346548 5.88869196 14.9139179 8.13869196 14.9139179"></polygon>
                    <polygon id="路径" points="12.506846 5.47375714 10.256846 5.41344762 10.256846 14.9139179 12.506846 14.9139179"></polygon>
                    <polygon id="路径" points="16.875 10.9286726 14.625 10.9032131 14.625 14.9139179 16.875 14.9139179"></polygon>
                    <polygon id="路径" points="0.746095982 15.9347679 0.746095982 0.00307619048 0.001265625 0.00307619048 0.001265625 16.803569 17.9983527 16.803569 17.9983527 15.9347679"></polygon>
                </g>
                <rect id="矩形备份-33" opacity="0.95" x="0" y="0" width="20" height="20"></rect>
            </g>
        </g>
    </g>
</svg>