<?xml version="1.0" encoding="UTF-8"?>
<svg width="20px" height="20px" viewBox="0 0 20 20" version="1.1" xmlns="http://www.w3.org/2000/svg" xmlns:xlink="http://www.w3.org/1999/xlink">
    <title>气泡选中</title>
    <g id="12..14" stroke="none" stroke-width="1" fill="none" fill-rule="evenodd">
        <g id="创建报告=气泡图备份-2" transform="translate(-1233.000000, -12.000000)" fill-rule="nonzero">
            <g id="气泡选中" transform="translate(1233.000000, 12.000000)">
                <rect id="矩形备份-16" opacity="0.95" x="0" y="0" width="20" height="20"></rect>
                <g id="编组-124" transform="translate(1.001266, 1.500000)" fill="#365EFA">
                    <polygon id="路径备份-33" points="17.9818393 16.9167753 0 16.9167753 0 -1.20200918e-13 0.744207589 -1.20200918e-13 0.744207589 16.0937692 17.9818393 16.0937692"></polygon>
                    <path d="M3.99873437,13.5 C5.10273437,13.5 5.99873437,12.604 5.99873437,11.5 C5.99873437,10.396 5.10273437,9.5 3.99873437,9.5 C2.89473437,9.5 1.99873437,10.396 1.99873437,11.5 C1.99873437,12.604 2.89473437,13.5 3.99873437,13.5 Z" id="路径备份-34"></path>
                    <path d="M9.99873437,7.5 C11.1027344,7.5 11.9987344,6.604 11.9987344,5.5 C11.9987344,4.396 11.1027344,3.5 9.99873437,3.5 C8.89473437,3.5 7.99873437,4.396 7.99873437,5.5 C7.99873437,6.604 8.89473437,7.5 9.99873437,7.5 Z" id="路径备份-35"></path>
                    <path d="M8.49873437,10.5 C9.32673437,10.5 9.99873437,9.828 9.99873437,9 C9.99873437,8.172 9.32673437,7.5 8.49873437,7.5 C7.67073437,7.5 6.99873437,8.172 6.99873437,9 C6.99873437,9.828 7.67073437,10.5 8.49873437,10.5 Z" id="路径备份-39"></path>
                    <path d="M12.9987344,11.5 C14.1027344,11.5 14.9987344,10.604 14.9987344,9.5 C14.9987344,8.396 14.1027344,7.5 12.9987344,7.5 C11.8947344,7.5 10.9987344,8.396 10.9987344,9.5 C10.9987344,10.604 11.8947344,11.5 12.9987344,11.5 Z" id="路径备份-40"></path>
                    <path d="M3.99873437,4.5 C4.55073437,4.5 4.99873437,4.052 4.99873437,3.5 C4.99873437,2.948 4.55073437,2.5 3.99873437,2.5 C3.44673437,2.5 2.99873437,2.948 2.99873437,3.5 C2.99873437,4.052 3.44673437,4.5 3.99873437,4.5 Z" id="路径备份-42"></path>
                    <path d="M12.9987344,13.5 C12.4467344,13.5 11.9987344,13.948 11.9987344,14.5 C11.9987344,15.052 12.4467344,15.5 12.9987344,15.5 C13.5507344,15.5 13.9987344,15.052 13.9987344,14.5 C13.9987344,13.948 13.5507344,13.5 12.9987344,13.5 Z" id="路径备份-46"></path>
                    <path d="M14.4987344,4.5 C14.7747344,4.5 14.9987344,4.276 14.9987344,4 C14.9987344,3.724 14.7747344,3.5 14.4987344,3.5 C14.2227344,3.5 13.9987344,3.724 13.9987344,4 C13.9987344,4.276 14.2227344,4.5 14.4987344,4.5 Z" id="路径备份-47"></path>
                </g>
            </g>
        </g>
    </g>
</svg>