<?xml version="1.0" encoding="UTF-8"?>
<svg width="20px" height="20px" viewBox="0 0 20 20" version="1.1" xmlns="http://www.w3.org/2000/svg" xmlns:xlink="http://www.w3.org/1999/xlink">
    <title>筛选器备份</title>
    <g id="12..14" stroke="none" stroke-width="1" fill="none" fill-rule="evenodd">
        <g id="创建报告-各状态操作按钮" transform="translate(-1187.000000, -1053.000000)" fill-rule="nonzero" stroke="#222E53">
            <g id="筛选器备份" transform="translate(1187.000000, 1053.000000)">
                <g id="编组-24">
                    <g id="编组-23">
                        <rect id="矩形" x="0.5" y="0.5" width="8" height="8"></rect>
                        <rect id="矩形备份-12" x="10.5" y="0.5" width="8" height="8"></rect>
                    </g>
                    <g id="编组-23备份" transform="translate(0.000000, 10.000000)" opacity="0.95">
                        <rect id="矩形" x="0.5" y="0.5" width="8" height="8"></rect>
                    </g>
                </g>
                <circle id="椭圆形" cx="14.5" cy="14.5" r="4"></circle>
                <line x1="18" y1="17.1464466" x2="18" y2="18.8535534" id="直线-6" stroke-linecap="square" transform="translate(18.000000, 17.853553) rotate(-45.000000) translate(-18.000000, -17.853553) "></line>
            </g>
        </g>
    </g>
</svg>