<?xml version="1.0" encoding="UTF-8"?>
<svg width="20px" height="20px" viewBox="0 0 20 20" version="1.1" xmlns="http://www.w3.org/2000/svg" xmlns:xlink="http://www.w3.org/1999/xlink">
    <title>iframe</title>
    <g id="12..14" stroke="none" stroke-width="1" fill="none" fill-rule="evenodd">
        <g id="创建报告-各状态操作按钮" transform="translate(-980.000000, -1053.000000)" fill-rule="nonzero">
            <g id="iframe" transform="translate(980.000000, 1053.000000)">
                <path d="M20,0 L1,0 L1,19 L20,19 L20,0 Z M19.15,12.0175 L11.925,12.0175 L11.925,6.9825 L19.15,6.9825 L19.15,12.0175 Z M19.15,0.9595 L19.15,5.9945 L11.925,5.9945 L11.925,0.9595 L19.15,0.9595 Z M2.075,0.9595 L11.075,0.9595 L11.075,9.025 L2.075,9.025 L2.075,0.9595 Z M2.075,18.05 L2.075,9.975 L11.075,9.975 L11.075,18.05 L2.075,18.05 Z M11.925,18.05 L11.925,13.015 L19.15,13.015 L19.15,18.05 L11.925,18.05 L11.925,18.05 Z" id="形状" fill="#16234A"></path>
                <rect id="矩形备份-52" opacity="0.95" x="0" y="0" width="20" height="20"></rect>
            </g>
        </g>
    </g>
</svg>