<?xml version="1.0" encoding="UTF-8"?>
<svg width="16px" height="16px" viewBox="0 0 16 16" version="1.1" xmlns="http://www.w3.org/2000/svg" xmlns:xlink="http://www.w3.org/1999/xlink">
    <title>iframe备份 8</title>
    <g id="12..14" stroke="none" stroke-width="1" fill="none" fill-rule="evenodd">
        <g id="创建报告-各状态操作按钮" transform="translate(-889.000000, -996.000000)" fill-rule="nonzero">
            <g id="iframe备份-8" transform="translate(889.000000, 996.000000)">
                <path d="M16,0 L0.8,0 L0.8,15.2 L16,15.2 L16,0 Z M15.32,9.614 L9.54,9.614 L9.54,5.586 L15.32,5.586 L15.32,9.614 Z M15.32,0.7676 L15.32,4.7956 L9.54,4.7956 L9.54,0.7676 L15.32,0.7676 Z M1.66,0.7676 L8.86,0.7676 L8.86,7.22 L1.66,7.22 L1.66,0.7676 Z M1.66,14.44 L1.66,7.98 L8.86,7.98 L8.86,14.44 L1.66,14.44 Z M9.54,14.44 L9.54,10.412 L15.32,10.412 L15.32,14.44 L9.54,14.44 L9.54,14.44 Z" id="形状" fill="#16234A"></path>
                <rect id="矩形备份-52" opacity="0.95" x="0" y="0" width="16" height="16"></rect>
            </g>
        </g>
    </g>
</svg>