<?xml version="1.0" encoding="UTF-8"?>
<svg width="16px" height="16px" viewBox="0 0 16 16" version="1.1" xmlns="http://www.w3.org/2000/svg" xmlns:xlink="http://www.w3.org/1999/xlink">
    <title>添加子任务</title>
    <g id="预警管理" stroke="none" stroke-width="1" fill="none" fill-rule="evenodd">
        <g id="任务管理01" transform="translate(-627.000000, -202.000000)" fill="#000000" fill-rule="nonzero">
            <g id="添加子任务" transform="translate(627.000000, 202.000000)">
                <rect id="矩形" opacity="0" x="0" y="0" width="16" height="16"></rect>
                <path d="M10.5,6.75 C8.6203125,6.75 7.0640625,8.1328125 6.7921875,9.9375 L5,9.9375 C4.7578125,9.9375 4.5625,9.7421875 4.5625,9.5 L4.5625,3.8125 L9.109375,3.8125 C9.33125,4.3625 9.8703125,4.75 10.5,4.75 C11.328125,4.75 12,4.078125 12,3.25 C12,2.421875 11.328125,1.75 10.5,1.75 C9.8703125,1.75 9.33125,2.1375 9.109375,2.6875 L1.75,2.6875 L1.75,3.8125 L3.4375,3.8125 L3.4375,9.5 C3.4375,10.3625 4.1375,11.0625 5,11.0625 L6.7921875,11.0625 C7.0640625,12.8671875 8.6203125,14.25 10.5,14.25 C12.5703125,14.25 14.25,12.5703125 14.25,10.5 C14.25,8.4296875 12.5703125,6.75 10.5,6.75 Z M12.5,10.90625 C12.5,10.975 12.44375,11.03125 12.375,11.03125 L11.03125,11.03125 L11.03125,12.375 C11.03125,12.44375 10.975,12.5 10.90625,12.5 L10.09375,12.5 C10.025,12.5 9.96875,12.44375 9.96875,12.375 L9.96875,11.03125 L8.625,11.03125 C8.55625,11.03125 8.5,10.975 8.5,10.90625 L8.5,10.09375 C8.5,10.025 8.55625,9.96875 8.625,9.96875 L9.96875,9.96875 L9.96875,8.625 C9.96875,8.55625 10.025,8.5 10.09375,8.5 L10.90625,8.5 C10.975,8.5 11.03125,8.55625 11.03125,8.625 L11.03125,9.96875 L12.375,9.96875 C12.44375,9.96875 12.5,10.025 12.5,10.09375 L12.5,10.90625 Z" id="形状" fill-opacity="0.85"></path>
            </g>
        </g>
    </g>
</svg>