<?xml version="1.0" encoding="UTF-8"?>
<svg width="12px" height="12px" viewBox="0 0 12 12" version="1.1" xmlns="http://www.w3.org/2000/svg" xmlns:xlink="http://www.w3.org/1999/xlink">
    <title>箭头1</title>
    <g id="预警管理" stroke="none" stroke-width="1" fill="none" fill-rule="evenodd">
        <g id="任务管理01备份-2" transform="translate(-65.000000, -203.000000)" fill="#000000" fill-rule="nonzero">
            <g id="箭头1" transform="translate(71.000000, 209.000000) scale(-1, 1) rotate(90.000000) translate(-71.000000, -209.000000) translate(65.000000, 203.000000)">
                <rect id="矩形" opacity="0" x="0" y="0" width="12" height="12"></rect>
                <polygon id="路径" points="1.2 3 6 8 10.8 3"></polygon>
            </g>
        </g>
    </g>
</svg>