<?xml version="1.0" encoding="UTF-8"?>
<svg width="8px" height="9px" viewBox="0 0 8 9" version="1.1" xmlns="http://www.w3.org/2000/svg" xmlns:xlink="http://www.w3.org/1999/xlink">
    <title>路径备份 6</title>
    <g id="预警管理04.10" stroke="none" stroke-width="1" fill="none" fill-rule="evenodd">
        <g id="指标工作台-卡片7.28备份-2" transform="translate(-69.000000, -336.000000)" fill="#6DD400">
            <g id="编组-7" transform="translate(27.000000, 240.000000)">
                <path d="M44.8895203,96.4214181 L47.2806157,96.4214181 C47.4915919,96.4214181 47.7025776,96.4964712 47.7025776,96.7216305 L47.7025776,99.7237108 C47.7025776,99.9488701 47.7729062,100.023923 47.9838824,100.023923 L49.3904158,100.023923 C49.7279891,100.023923 49.7561187,100.489254 49.516994,100.744421 L46.3804233,104.091733 C46.2397662,104.241839 46.0006605,104.241839 45.8459433,104.091733 L42.7093821,100.744412 C42.4702764,100.489228 42.568725,100.023915 42.9062983,100.023915 L44.2003041,100.06896 C44.4112803,100.06896 44.594127,99.9488788 44.594127,99.7237195 L44.594127,96.7216391 C44.6081871,96.5114922 44.6785156,96.4214181 44.8895013,96.4214181 L44.8895013,96.4214181 L44.8895203,96.4214181 Z" id="路径备份-6"></path>
            </g>
        </g>
    </g>
</svg>