<?xml version="1.0" encoding="UTF-8"?>
<svg width="19px" height="16px" viewBox="0 0 19 16" version="1.1" xmlns="http://www.w3.org/2000/svg" xmlns:xlink="http://www.w3.org/1999/xlink">
    <title>编组 10</title>
    <g id="预警管理04.10" stroke="none" stroke-width="1" fill="none" fill-rule="evenodd">
        <g id="指标管理-新增指标显示设置" transform="translate(-790.000000, -270.000000)" fill-rule="nonzero">
            <g id="编组-10" transform="translate(790.000000, 270.000000)">
                <circle id="椭圆形" fill="#DBE9FF" cx="10.4" cy="8" r="8"></circle>
                <g id="箭头" transform="translate(0.000000, 4.000000)" fill="#3F73FF">
                    <path d="M6.40982431,0 C6.53652043,-0.000691690292 6.62681721,0.00949099098 6.70171451,0.0509490912 C6.73881329,0.0720418445 6.76821232,0.107681241 6.79901099,0.13459301 L7.02370364,0.325882134 C7.19379803,0.472076751 7.39329132,0.608088459 7.53958644,0.773193297 L8.45935236,1.55289714 C9.05573281,2.06421381 9.64231565,2.58280611 10.2400909,3.09339694 C10.5004821,3.31596141 10.7573738,3.54143551 11.017765,3.76472739 C11.1010621,3.83527893 11.2382574,3.94001513 11.1899595,4.11603029 C11.1507609,4.25786047 11.0443645,4.32332079 10.9428677,4.40987355 L10.5242814,4.76772233 L8.78834269,6.25075624 L7.18819467,7.61814739 C7.06989834,7.71924672 6.8851045,7.92217357 6.73180968,7.97599617 L6.73180969,7.97599617 C6.66168623,7.99871601 6.58766433,8.00541503 6.51481678,7.99563426 C6.29712384,7.95126685 6.08153102,7.75124994 6.2005274,7.50977447 C6.23902612,7.43122239 6.3223232,7.38030864 6.38742137,7.32430381 L6.73180969,7.02391467 L9.7984054,4.40986933 L9.7984054,4.40332331 L0.351557261,4.40332331 C0.327058092,4.39023125 0.290659285,4.3945953 0.261960522,4.38441262 L0.261960526,4.38441262 C0.187039918,4.35769345 0.120016811,4.31134868 0.0673668082,4.24985573 C-0.106927108,4.02219941 0.0862662191,3.769087 0.313758594,3.71308218 L0.508352311,3.70653616 L9.79842345,3.70653616 L9.79842345,3.70071747 C9.69832679,3.64398532 9.58703015,3.51961125 9.49953355,3.44469543 C9.27834113,3.25631593 9.06204827,3.0642994 8.84085585,2.87591912 C8.13387956,2.27223044 7.43110353,1.66490862 6.72412574,1.06121603 L6.34263805,0.722277475 C6.25864091,0.650271276 6.15854425,0.587720579 6.10324596,0.492439721 L6.10324596,0.492439719 C6.05334914,0.39048563 6.05920997,0.268686082 6.11864544,0.17241217 L6.11864546,0.17241215 C6.17319807,0.101895611 6.24571679,0.0487202517 6.32793862,0.018944251 C6.35523767,0.00948890573 6.38743666,0.0131255704 6.40983562,0 L6.40982431,0 Z" id="路径"></path>
                </g>
            </g>
        </g>
    </g>
</svg>