<?xml version="1.0" encoding="UTF-8"?>
<svg width="18px" height="18px" viewBox="0 0 18 18" version="1.1" xmlns="http://www.w3.org/2000/svg" xmlns:xlink="http://www.w3.org/1999/xlink">
    <title>收起备份 4</title>
    <g id="页面-1" stroke="none" stroke-width="1" fill="none" fill-rule="evenodd">
        <g id="指标管理-0402血缘图（全屏）" transform="translate(-703.000000, -275.000000)" fill-rule="nonzero">
            <g id="编组" transform="translate(223.000000, 182.000000)">
                <g id="收起备份-4" transform="translate(489.000000, 102.000000) scale(-1, 1) translate(-489.000000, -102.000000) translate(481.000000, 94.000000)">
                    <rect id="矩形" stroke="#3F73FF" x="0" y="0" width="16" height="16" rx="2"></rect>
                    <g id="shrink" transform="translate(2.000000, 2.000000)" fill="#3F73FF">
                        <path d="M11.7765625,0.928125 L11.071875,0.2234375 C11.0234375,0.175 10.94375,0.175 10.8953125,0.2234375 L8.434375,2.6859375 L7.5796875,1.83125 C7.50625,1.7578125 7.38125,1.8015625 7.36875,1.9046875 L7.0015625,4.859375 C6.9921875,4.940625 7.059375,5.0078125 7.140625,4.9984375 L10.096875,4.63125 C10.2,4.61875 10.2421875,4.49375 10.1703125,4.4203125 L9.315625,3.565625 L11.778125,1.103125 C11.825,1.05625 11.825,0.9765625 11.7765625,0.928125 Z M4.859375,7.0015625 L1.903125,7.36875 C1.8,7.38125 1.7578125,7.5078125 1.8296875,7.5796875 L2.684375,8.434375 L0.2234375,10.8953125 C0.175,10.94375 0.175,11.0234375 0.2234375,11.071875 L0.928125,11.7765625 C0.9765625,11.825 1.05625,11.825 1.1046875,11.7765625 L3.5671875,9.3140625 L4.421875,10.16875 C4.4953125,10.2421875 4.6203125,10.1984375 4.6328125,10.0953125 L4.9984375,7.140625 C5.009375,7.059375 4.940625,6.990625 4.859375,7.0015625 Z" id="形状"></path>
                    </g>
                </g>
            </g>
        </g>
    </g>
</svg>