<?xml version="1.0" encoding="UTF-8"?>
<svg width="11px" height="7px" viewBox="0 0 11 7" version="1.1" xmlns="http://www.w3.org/2000/svg" xmlns:xlink="http://www.w3.org/1999/xlink">
    <title>对号</title>
    <g id="20923指标管理" stroke="none" stroke-width="1" fill="none" fill-rule="evenodd">
        <g id="指标管理-复合-弹窗" transform="translate(-1095.000000, -428.000000)" fill="#6DD400" fill-rule="nonzero">
            <g id="对号" transform="translate(1095.000000, 428.000000)">
                <path d="M4.4,7 C4.29,7 4.18,6.95625 4.092,6.86875 L0.132,2.93125 C-0.044,2.75625 -0.044,2.49375 0.132,2.31875 C0.308,2.14375 0.572,2.14375 0.748,2.31875 L4.4,5.95 L10.252,0.13125 C10.428,-0.04375 10.692,-0.04375 10.868,0.13125 C11.044,0.30625 11.044,0.56875 10.868,0.74375 L4.708,6.86875 C4.62,6.95625 4.51,7 4.4,7 L4.4,7 Z" id="路径"></path>
            </g>
        </g>
    </g>
</svg>