<?xml version="1.0" encoding="UTF-8"?>
<svg width="20px" height="20px" viewBox="0 0 20 20" version="1.1" xmlns="http://www.w3.org/2000/svg" xmlns:xlink="http://www.w3.org/1999/xlink">
    <title>内容/或/绿备份 16</title>
    <g id="20923指标管理" stroke="none" stroke-width="1" fill="none" fill-rule="evenodd">
        <g id="指标管理-复合编辑" transform="translate(-604.000000, -661.000000)">
            <g id="内容/或/绿备份-16" transform="translate(604.000000, 661.000000)">
                <rect id="矩形" fill-opacity="0.1" fill="#B2B2B2" x="0" y="0" width="20" height="20" rx="4"></rect>
                <text id="或" font-family="PingFangSC-Medium, PingFang SC" font-size="12" font-weight="400" fill="#000000" fill-opacity="0.3">
                    <tspan x="4" y="14.9166667">或</tspan>
                </text>
            </g>
        </g>
    </g>
</svg>