<?xml version="1.0" encoding="UTF-8"?>
<svg width="16px" height="16px" viewBox="0 0 16 16" version="1.1" xmlns="http://www.w3.org/2000/svg" xmlns:xlink="http://www.w3.org/1999/xlink">
    <title>编组备份 37</title>
    <g id="预警管理04.10" stroke="none" stroke-width="1" fill="none" fill-rule="evenodd">
        <g id="指标管理-新增指标显示设置" transform="translate(-728.000000, -216.000000)" fill-rule="nonzero">
            <g id="编组备份-37" transform="translate(728.000000, 216.000000)">
                <rect id="矩形备份-5" opacity="0.95" x="0" y="0" width="16" height="16"></rect>
                <g id="分享" transform="translate(0.000000, 1.000000)" fill="#595959">
                    <path d="M12.878263,6.42056279 C12.8688708,6.42056279 12.8594786,6.41903585 12.8500864,6.41903585 C12.6935498,6.41903585 12.5526669,6.51828692 12.4994445,6.667927 C12.4681372,6.75648949 12.4681372,6.84810587 12.4681372,6.9381953 L12.4681372,8.29869847 C12.4681372,9.39809496 12.4681372,10.534138 12.4665718,11.6518578 C12.4665718,12.1313168 12.1081031,12.4947284 11.6322319,12.4947284 C9.98233657,12.4962554 8.30269926,12.4962554 6.64028097,12.4962554 C4.97160121,12.4962554 3.27161415,12.4962554 1.58884611,12.4947284 C1.12236715,12.4947284 0.757636961,12.1389515 0.757636961,11.6854504 C0.756071595,9.58438159 0.756071595,7.44819312 0.756071595,5.38224387 L0.756071595,2.42608885 C0.756071595,2.1848324 0.85468963,1.98327638 1.05818716,1.8107322 C1.27264225,1.62902639 1.53718904,1.60459536 1.77042852,1.60459536 L8.87405771,1.60459536 C8.92101868,1.60459536 8.97111038,1.60459536 9.01963671,1.60001454 C9.15425816,1.58932597 9.25287619,1.51755981 9.30922935,1.38776994 C9.35932105,1.27172253 9.35149422,1.15567513 9.28731423,1.05947793 C9.21061132,0.948011343 9.06972841,0.883879881 8.90066893,0.883879881 L8.48115094,0.883879881 C7.31182282,0.883879881 6.1424947,0.882352941 4.97316658,0.882352941 C3.70835116,0.882352941 2.59850693,0.882352941 1.58258464,0.883879881 C0.895389136,0.88540682 0.305246296,1.30378826 0.0798336467,1.95121064 C0.0735721842,1.96800698 0.0688760874,1.98633026 0.0641799905,2.00465353 C0.0500916999,2.05504254 0.0375687749,2.10085072 0.00156536562,2.14055115 L0,2.14207809 L0,11.9801498 L0.00156536562,11.9816767 C0.0250458499,12.0122155 0.0266112156,12.0488621 0.0281765812,12.0855086 C0.0281765812,12.0931433 0.0281765812,12.102305 0.0297419468,12.1099396 C0.0657453561,12.5680215 0.353772631,12.8413437 0.776421348,13.1100851 C0.881300845,13.1772704 1.00653009,13.1910129 1.12862861,13.2047553 C1.19437397,13.21239 1.26168469,13.2200247 1.32586468,13.2352941 L11.910867,13.2352941 C11.9218246,13.2307133 11.9312168,13.2261325 11.9421743,13.2215517 C11.9640894,13.21239 11.9860046,13.2017014 12.0079197,13.1955937 C12.8109522,12.9573911 13.2352941,12.3985312 13.2352941,11.5800916 L13.2352941,6.92445285 L13.2352941,6.88322548 C13.2352941,6.83436341 13.2367317,6.78244747 13.2289049,6.7335854 C13.1991629,6.56714899 13.0551493,6.43430524 12.878263,6.42056279 L12.878263,6.42056279 Z" id="路径"></path>
                    <path d="M14.6114818,1.15450847 C13.954517,0.881978587 13.288122,0.601961616 12.642159,0.332426564 C12.3781158,0.221617709 12.1125008,0.110808855 11.8468859,0 L11.7337245,0 L11.7321528,0.00149741696 C11.7038624,0.0224612543 11.6724287,0.0374354239 11.640995,0.0524095935 C11.5891293,0.0778656817 11.535692,0.10332177 11.4979715,0.152736529 C11.4241023,0.248571215 11.3989553,0.356385235 11.4272457,0.458209588 C11.4586794,0.573510694 11.5545522,0.669345379 11.6975757,0.730739474 C12.0606352,0.884973421 12.4315531,1.03920737 12.7898975,1.18894906 C13.0272221,1.28777858 13.2724052,1.38960293 13.5128732,1.49142729 C13.523875,1.49591954 13.5364485,1.50041179 13.5474503,1.50340662 C13.5820274,1.51388854 13.6181761,1.52437046 13.6370364,1.5633033 C13.6024593,1.56929297 13.5663105,1.57528264 13.5317334,1.57977489 C13.4500057,1.59325164 13.3714214,1.60523098 13.2928371,1.62020515 C12.3906893,1.79390551 11.5686974,2.2251616 10.7074134,2.97536749 C9.85870289,3.71509147 9.10586523,4.63450548 8.40803659,5.78601912 C8.23986617,6.06453867 8.09998611,6.3146073 7.98053796,6.5526966 C7.88780848,6.73687888 7.96324941,6.93004567 8.16128186,7.02138811 C8.21629088,7.04684419 8.27287158,7.05882353 8.3278806,7.05882353 C8.45518717,7.05882353 8.57306363,6.99143977 8.65007625,6.87613866 C8.67365155,6.84169807 8.69251178,6.80276523 8.71137201,6.76682722 C8.72080213,6.7473608 8.73023225,6.7293918 8.74123405,6.70992538 C9.53179218,5.2813896 10.3616425,4.22870548 11.3549481,3.39614166 C12.1643665,2.71781177 12.937636,2.36142654 13.7879182,2.27757119 C13.8397839,2.27307894 13.879076,2.26858669 13.9089381,2.26858669 C13.9466585,2.26858669 13.9686621,2.27457636 13.9780923,2.28655569 C13.9953808,2.30901695 13.984379,2.35693429 13.9560887,2.45276897 C13.8885062,2.67139185 13.819352,2.89450698 13.7533411,3.11013502 C13.6480382,3.45154608 13.5380201,3.80343907 13.4342889,4.15233722 C13.3918533,4.29459183 13.4107136,4.43085677 13.4861545,4.52669146 C13.5521653,4.61054681 13.6558966,4.65696673 13.7753448,4.65696673 C13.8052068,4.65696673 13.8366405,4.6539719 13.8680742,4.64798223 C14.0582483,4.61354164 14.1258308,4.46978961 14.1682663,4.33502209 C14.3018596,3.90226859 14.4338812,3.4710125 14.5674746,3.03975642 C14.6932095,2.63395643 14.8189443,2.22665901 14.9431076,1.82085902 C15.0641274,1.43153061 15.0091184,1.32072175 14.6114818,1.15450847 L14.6114818,1.15450847 Z" id="路径"></path>
                </g>
            </g>
        </g>
    </g>
</svg>