<?xml version="1.0" encoding="UTF-8"?>
<svg width="16px" height="16px" viewBox="0 0 16 16" version="1.1" xmlns="http://www.w3.org/2000/svg" xmlns:xlink="http://www.w3.org/1999/xlink">
    <title>定制化资源icon</title>
    <g id="12..14" stroke="none" stroke-width="1" fill="none" fill-rule="evenodd">
        <g id="创建报告-保存为资源到资源列表" transform="translate(-35.000000, -777.000000)" fill-rule="nonzero">
            <g id="定制化资源icon" transform="translate(35.000000, 777.000000)">
                <g id="定制化组件icon" fill="#000000" opacity="0">
                    <rect id="矩形" x="0" y="0" width="16" height="16"></rect>
                </g>
                <path d="M7.22222222,15 L1,15 L1,4.5 L4.11111112,1 L7.22222222,4.5 L7.22222222,15 Z M15,15 L8.71264648,15 L8.71264648,1.71333008 L15,1.71333008 L15,15 Z M6.599,12.588 L1.699,12.588 L1.7,14.3583333 L6.6,14.3583333 L6.599,12.588 Z M14.3163208,2.41837158 L9.38000488,2.41837158 L9.38000488,14.3 L14.3163208,14.3 L14.316,12.199 L12.6666667,12.2 L12.6666667,11.5 L14.316,11.499 L14.316,8.699 L12.6666667,8.7 L12.6666667,8 L14.316,7.999 L14.316,5.199 L12.6666667,5.2 L12.6666667,4.5 L14.316,4.499 L14.3163208,2.41837158 Z M6.599,5.199 L1.699,5.199 L1.699,11.888 L6.599,11.888 L6.599,5.199 Z M4.15,1.88397217 L1.828,4.499 L6.474,4.499 L4.15,1.88397217 Z" id="形状结合备份" stroke="#2D395C" stroke-width="0.2" fill="#222E53" stroke-linejoin="round"></path>
            </g>
        </g>
    </g>
</svg>