<?xml version="1.0" encoding="UTF-8"?>
<svg width="16px" height="17px" viewBox="0 0 16 17" version="1.1" xmlns="http://www.w3.org/2000/svg" xmlns:xlink="http://www.w3.org/1999/xlink">
    <title>指标看板备份 5</title>
    <g id="12..14" stroke="none" stroke-width="1" fill="none" fill-rule="evenodd">
        <g id="创建报告-保存为资源到资源列表2" transform="translate(-35.000000, -431.000000)">
            <g id="编组-15" transform="translate(0.000000, 60.000000)">
                <g id="指标看板备份-5" transform="translate(35.000000, 371.000000)">
                    <rect id="矩形备份-17" opacity="0.95" fill-rule="nonzero" x="0" y="0.4" width="16" height="16"></rect>
                    <rect id="矩形" stroke="#16234A" stroke-width="0.8" opacity="0.95" fill-rule="nonzero" x="0.4" y="1.6" width="14.4" height="14.4"></rect>
                    <polygon id="直线" fill="#16234A" fill-rule="nonzero" transform="translate(5.200000, 4.700000) scale(1, -1) translate(-5.200000, -4.700000) " points="8 4.2 8 5 2.4 5 2.4 4.2"></polygon>
                    <polygon id="直线备份-2" fill="#16234A" fill-rule="nonzero" transform="translate(5.200000, 9.500000) scale(1, -1) translate(-5.200000, -9.500000) " points="8 9 8 9.8 2.4 9.8 2.4 9"></polygon>
                    <polygon id="直线备份" fill="#16234A" fill-rule="nonzero" transform="translate(10.000000, 4.700000) scale(1, -1) translate(-10.000000, -4.700000) " points="12.8 4.2 12.8 5 7.2 5 7.2 4.2"></polygon>
                    <polygon id="直线备份-3" fill="#16234A" fill-rule="nonzero" transform="translate(10.000000, 9.500000) scale(1, -1) translate(-10.000000, -9.500000) " points="12.8 9 12.8 9.8 7.2 9.8 7.2 9"></polygon>
                    <g id="sanjiaoxing" transform="translate(4.000000, 7.600000)"></g>
                    <polygon id="路径" fill="#16234A" fill-rule="nonzero" points="3.6 6 2.4 7.6 4.8 7.6"></polygon>
                    <polygon id="路径备份-2" fill="#16234A" fill-rule="nonzero" points="3.6 11.6 2.4 13.2 4.8 13.2"></polygon>
                    <polygon id="路径备份" fill="#16234A" fill-rule="nonzero" points="9.2 6 8 7.6 10.4 7.6"></polygon>
                    <polygon id="路径备份-3" fill="#16234A" fill-rule="nonzero" points="9.2 11.6 8 13.2 10.4 13.2"></polygon>
                    <polygon id="路径备份-11" fill="#16234A" fill-rule="nonzero" transform="translate(6.000000, 6.800000) scale(1, -1) translate(-6.000000, -6.800000) " points="6 6 4.8 7.6 7.2 7.6"></polygon>
                    <polygon id="路径备份-13" fill="#16234A" fill-rule="nonzero" transform="translate(6.000000, 12.400000) scale(1, -1) translate(-6.000000, -12.400000) " points="6 11.6 4.8 13.2 7.2 13.2"></polygon>
                    <polygon id="路径备份-12" fill="#16234A" fill-rule="nonzero" transform="translate(11.600000, 6.800000) scale(1, -1) translate(-11.600000, -6.800000) " points="11.6 6 10.4 7.6 12.8 7.6"></polygon>
                    <polygon id="路径备份-18" fill="#16234A" fill-rule="nonzero" transform="translate(11.600000, 12.400000) scale(1, -1) translate(-11.600000, -12.400000) " points="11.6 11.6 10.4 13.2 12.8 13.2"></polygon>
                </g>
            </g>
        </g>
    </g>
</svg>