<?xml version="1.0" encoding="UTF-8"?>
<svg width="20px" height="20px" viewBox="0 0 20 20" version="1.1" xmlns="http://www.w3.org/2000/svg" xmlns:xlink="http://www.w3.org/1999/xlink">
    <title>手机</title>
    <g id="登录注册" stroke="none" stroke-width="1" fill="none" fill-rule="evenodd">
        <g id="登录1" transform="translate(-308.000000, -57.000000)">
            <g id="Icon-24px" transform="translate(308.000000, 57.000000)">
                <polygon id="Shape" points="0 0 20 0 20 20 0 20"></polygon>
                <g id="手机" transform="translate(4.000000, 1.000000)" fill="#A2A5BD" fill-rule="nonzero">
                    <path d="M11.2666663,0 L11.2666663,0 C12.2239605,0 13,0.752283101 13,1.6802722 L13,15.9625849 L13,15.9625849 C13,16.890574 12.2239605,17.6428571 11.2666663,17.6428571 C11.2666663,17.6428571 11.2666663,17.6428571 11.2666663,17.6428571 L1.73333381,17.6428571 L1.73333373,17.6428571 C0.776039543,17.6428571 0,16.890574 0,15.9625849 C0,15.9625849 0,15.9625849 0,15.9625849 L0,1.6802722 L0,1.68027246 C0,0.752283354 0.776039543,0 1.73333373,0 L11.2666662,0 L11.2666663,0 Z M6.49998996,12.6020464 L6.49998993,12.6020464 C5.66235675,12.6019525 4.98324446,13.2601253 4.98314696,14.0721145 C4.98305004,14.8841057 5.66200738,15.5424288 6.49963852,15.5425233 C6.49975554,15.5425233 6.49987255,15.5425233 6.49998956,15.5425233 L6.49998953,15.5425233 C7.33762271,15.5424293 8.0165786,14.8841057 8.0164811,14.0721145 C8.01638419,13.2602572 7.33748458,12.602139 6.49998953,12.6020464 L6.49998996,12.6020464 Z M9.96666554,2.52040923 L3.03333469,2.52040923 L3.03333467,2.52040923 C2.79401061,2.52040923 2.60000174,2.70848026 2.60000174,2.94047685 C2.60000174,2.94047685 2.60000174,2.94047685 2.60000174,2.94047685 L2.60000174,10.0816431 L2.60000174,10.081643 C2.60000174,10.3136408 2.79401183,10.5017106 3.03333467,10.5017106 L9.96666552,10.5017106 L9.9666655,10.5017106 C10.2059896,10.5017106 10.3999984,10.3136396 10.3999984,10.081643 C10.3999984,10.081643 10.3999984,10.081643 10.3999984,10.081643 L10.3999984,2.94047678 L10.3999984,2.94047678 C10.3999984,2.70847902 10.2059883,2.52040923 9.9666655,2.52040923 C9.9666655,2.52040923 9.9666655,2.52040923 9.9666655,2.52040923 L9.96666554,2.52040923 Z" id="形状"></path>
                </g>
            </g>
        </g>
    </g>
</svg>