<?xml version="1.0" encoding="UTF-8"?>
<svg width="20px" height="20px" viewBox="0 0 20 20" version="1.1" xmlns="http://www.w3.org/2000/svg" xmlns:xlink="http://www.w3.org/1999/xlink">
    <title>确认密码</title>
    <g id="登录注册" stroke="none" stroke-width="1" fill="none" fill-rule="evenodd">
        <g id="登录1" transform="translate(-274.000000, -57.000000)">
            <g id="确认密码" transform="translate(274.000000, 57.000000)">
                <g id="Icon-24px">
                    <polygon id="Shape" points="0 0 20 0 20 20 0 20"></polygon>
                    <path d="M14.1809194,6.66666667 L14.1809194,5 C14.1809194,2.7 12.3119631,0.833333333 10.0091418,0.833333333 C7.70632057,0.833333333 5.8373642,2.7 5.8373642,5 L5.8373642,6.66666667 L4.21591398,6.66666667 C3.29812291,6.66666667 2.54720293,7.41666667 2.54720293,8.33333333 L2.54720293,16.6666667 C2.54720293,17.5833333 3.29812291,18.3333333 4.21591398,18.3333333 L15.8784919,18.3333333 C16.796283,18.3333333 17.5472029,17.5833333 17.5472029,16.6666667 L17.5472029,8.33333333 C17.5472029,7.41666667 16.796283,6.66666667 15.8784919,6.66666667 L14.1809194,6.66666667 Z M7.42263969,6.66666667 L7.42263969,5 C7.42263969,3.575 8.58239387,2.41666667 10.0091418,2.41666667 C11.4358898,2.41666667 12.5956439,3.575 12.5956439,5 L12.5956439,6.66666667 L7.42263969,6.66666667 Z" id="Shape" fill="#A2A5BD"></path>
                </g>
                <path d="M9.84313725,16 L6,12.5996205 L7.01960784,11.7738773 L9.06318083,13.2792536 C9.06318083,13.2792536 11.8845316,10.3636939 14.6100218,9 L15,9.43833017 C15,9.43833017 11.5947712,12.258697 9.84313725,16" id="路径" fill="#FFFFFF" fill-rule="nonzero"></path>
            </g>
        </g>
    </g>
</svg>