<?xml version="1.0" encoding="UTF-8"?>
<svg width="20px" height="20px" viewBox="0 0 20 20" version="1.1" xmlns="http://www.w3.org/2000/svg" xmlns:xlink="http://www.w3.org/1999/xlink">
    <title>邮箱</title>
    <g id="登录注册" stroke="none" stroke-width="1" fill="none" fill-rule="evenodd">
        <g id="登录1" transform="translate(-340.000000, -57.000000)">
            <g id="Icon-24px" transform="translate(340.000000, 57.000000)">
                <polygon id="Shape" points="0 0 20 0 20 20 0 20"></polygon>
                <g id="邮箱" transform="translate(3.000000, 4.000000)" fill="#A2A5BD" fill-rule="nonzero">
                    <path d="M1.50017343,0 L13.4998266,0 C14.3184183,0 14.9895942,0.665783664 15,1.4816777 L7.50260146,5.67240618 L0.00693721818,1.48697572 C0.0138744364,0.667549669 0.679847381,0 1.50017343,0 Z M0.00693721818,3.09050773 L0,10.5006623 C0,11.3253863 0.674644468,12 1.50017343,12 L13.4998266,12 C14.3253555,12 15,11.3253863 15,10.5006623 L15,3.08697572 L7.67950052,7.0816777 C7.56677072,7.14348786 7.43149497,7.14348786 7.32049948,7.0816777 L0.00693721818,3.09050773 Z" id="形状"></path>
                </g>
            </g>
        </g>
    </g>
</svg>