<?xml version="1.0" encoding="UTF-8"?>
<svg width="16px" height="16px" viewBox="0 0 16 16" version="1.1" xmlns="http://www.w3.org/2000/svg" xmlns:xlink="http://www.w3.org/1999/xlink">
    <title>编组 4</title>
    <g id="系统管理" stroke="none" stroke-width="1" fill="none" fill-rule="evenodd">
        <g id="03.22资源备份" transform="translate(-1489.000000, -147.000000)" fill-rule="nonzero">
            <g id="自动备份" transform="translate(1489.000000, 147.000000)">
                <rect id="矩形" opacity="0.95" x="0" y="0" width="16" height="16"></rect>
                <g id="备份" transform="translate(1.000000, 1.000000)" fill="#FFFFFF">
                    <path d="M12.6248339,0.336576403 L4.94772195,0.336576403 L4.9477219,0.336576403 C4.38588067,0.336576403 3.93038732,0.792057561 3.93038732,1.35389879 C3.93038732,1.35389879 3.93038732,1.35389881 3.93038732,1.35389881 L3.93038732,1.62305135 L3.93038732,1.62305295 C3.92760586,1.86293567 4.11628522,2.06145529 4.35600176,2.07083027 L4.35600177,2.07083027 C4.59540888,2.07523524 4.79305811,1.88472805 4.79746268,1.64532018 C4.79751204,1.64263736 4.7975365,1.63995413 4.79753605,1.63727086 L4.79753605,1.57379785 L4.79753605,1.57379782 C4.79753608,1.36940545 4.9632293,1.20371238 5.16762149,1.20371238 L12.4049344,1.20371238 L12.4049343,1.20371238 C12.6093267,1.2037124 12.7750198,1.36940545 12.7750198,1.57379782 L12.7750198,10.5453422 L12.7750198,10.5453422 C12.7750198,10.7497346 12.6093267,10.9154276 12.4049343,10.9154276 L10.7254996,10.9154276 L10.7254996,10.9154276 C10.4856169,10.9126142 10.2870973,11.101293 10.2777204,11.3410091 L10.2777204,11.3410096 C10.2733148,11.5804167 10.4638215,11.7780659 10.7032286,11.7825458 C10.705912,11.7825458 10.7085957,11.7825458 10.7112795,11.7825458 L12.6248333,11.7825458 L12.6248333,11.7825458 C13.1866745,11.7825458 13.6421349,11.3270834 13.6421349,10.7652422 L13.6421349,1.35387995 L13.6421349,1.35387993 C13.6421349,0.7920387 13.1866726,0.336576403 12.6248314,0.336576403 C12.6248314,0.336576403 12.6248314,0.336576403 12.6248314,0.336576403 L12.6248339,0.336576403 Z M9.64403185,9.49336471 L9.64403186,9.49336471 C9.40462475,9.48895884 9.20697364,9.67946543 9.20256907,9.91887292 C9.20251969,9.92155627 9.20249522,9.92424003 9.20249568,9.92692383 L9.20249568,12.5223871 L9.20249568,12.5223871 C9.20249568,12.7267794 9.03680261,12.8924725 8.83241024,12.8924725 L1.59509737,12.8924725 L1.59509736,12.8924725 C1.39070498,12.8924725 1.22501191,12.7267792 1.22501191,12.5223871 C1.22501191,12.5223871 1.22501191,12.5223871 1.22501191,12.5223871 L1.22501191,3.55084269 L1.22501191,3.55084263 C1.22501195,3.34645025 1.39070517,3.18075719 1.59509736,3.18075719 L8.83241022,3.18075719 L8.83241022,3.18075719 C9.03680259,3.18075723 9.20249566,3.34645044 9.20249566,3.55084263 L9.20249566,3.98162768 L9.20249564,3.98162933 C9.19968314,4.22151205 9.38836269,4.42003167 9.62807904,4.42940665 L9.62807904,4.42940665 C9.86748615,4.4338116 10.0651354,4.24330443 10.06954,4.00389656 C10.0696443,4.00121376 10.0696443,3.99853054 10.0696443,3.99584729 L10.0696443,3.33094137 L10.0696443,3.33094136 C10.0696443,2.76910013 9.61415102,2.31363783 9.05230979,2.31363783 C9.05230979,2.31363783 9.05230978,2.31363783 9.05230978,2.31363783 L1.37519782,2.31363783 L1.37519777,2.31363783 C0.813356545,2.31363783 0.357894247,2.76910013 0.357894247,3.33094136 L0.357894247,12.7423036 L0.357894247,12.7423037 C0.357894247,13.304145 0.813356545,13.7596073 1.37519777,13.7596073 L9.05230974,13.7596073 L9.0523097,13.7596073 C9.61415093,13.7596073 10.0696443,13.304145 10.0696443,12.7423037 L10.0696443,9.94116229 L10.0696443,9.94116061 C10.0724257,9.70127789 9.8837462,9.50275827 9.64402984,9.49338329 L9.64403185,9.49336471 Z M5.67089491,4.73392826 L2.40429394,7.50177694 L2.40429401,7.50177688 C2.10891144,7.75202905 2.07232512,8.19435283 2.32257616,8.4897354 C2.34751979,8.51917741 2.37485182,8.54650962 2.40429382,8.57145325 L5.67264309,11.3393019 L5.67264308,11.3393019 C5.92951057,11.5549981 6.31259917,11.521622 6.5282953,11.2647545 C6.61978554,11.1558009 6.67012153,11.018185 6.67052251,10.8759135 L6.67052251,9.60090215 L6.67052251,9.60090303 C6.67021624,9.44647931 6.78591606,9.31644635 6.93932915,9.29879799 C7.92992515,9.18641941 11.3585064,8.48544131 12.0889733,4.15227442 C12.1475906,3.80299931 11.7005045,3.60390821 11.4816445,3.88208043 C9.79215239,6.03114617 7.81511681,6.57430134 7.02500115,6.70957786 L7.02500116,6.70957786 C6.85931656,6.73735391 6.70248621,6.62555696 6.67470903,6.45987274 C6.67190238,6.44313106 6.67050207,6.42618388 6.67052279,6.40920852 L6.67052279,5.19732374 L6.67052281,5.19736629 C6.670407,4.86194781 6.39840193,4.59013148 6.06298345,4.59024615 C5.91943111,4.59029571 5.78053637,4.64119291 5.67094096,4.7339079 L5.67089491,4.73392826 Z M10.728617,5.85147102 C10.0928412,7.70987833 7.905627,8.37860042 6.67050496,8.61168736 C6.60633828,8.62382702 6.54459947,8.63457929 6.48598221,8.6446378 L6.48598221,8.6446378 C6.0969494,8.71042438 5.81250024,9.04783178 5.81344583,9.4423858 L5.81344583,10.3604897 L3.0691897,8.03661344 L5.81344583,5.7127372 L5.81344583,6.69049922 L5.81344582,6.69050216 C5.81301055,7.13625861 6.17401529,7.49796728 6.61977174,7.49840341 C6.63194839,7.4984153 6.64412377,7.49815164 6.6562885,7.49761261 L6.67050923,7.49761261 C7.64861904,7.45044141 9.29024177,7.15492837 10.728617,5.85147627 L10.728617,5.85147102 Z" id="形状"></path>
                </g>
            </g>
        </g>
    </g>
</svg>