<?xml version="1.0" encoding="UTF-8"?>
<svg width="16px" height="16px" viewBox="0 0 16 16" version="1.1" xmlns="http://www.w3.org/2000/svg" xmlns:xlink="http://www.w3.org/1999/xlink">
    <title>部门管理 @1.5x</title>
    <defs>
        <filter id="filter-1">
            <feColorMatrix in="SourceGraphic" type="matrix" values="0 0 0 0 0.247059 0 0 0 0 0.450980 0 0 0 0 1.000000 0 0 0 1.000000 0"></feColorMatrix>
        </filter>
    </defs>
    <g id="2023-03优化" stroke="none" stroke-width="1" fill="none" fill-rule="evenodd">
        <g id="部门管理-" transform="translate(-654.000000, -194.000000)" filter="url(#filter-1)">
            <g transform="translate(654.000000, 194.000000)" id="编组-19" fill-rule="nonzero">
                <rect id="矩形" fill="#000000" opacity="0" x="0" y="0" width="16" height="16"></rect>
                <polygon id="路径" fill="#FFFFFF" points="3.02675 8 3.02075 8 3.02075 7.25 7.625 7.25 7.625 5 5.75 5 5.75 2 10.25 2 10.25 5 8.375 5 8.375 7.25 13.25 7.25 13.25 11 14 11 14 14 11 14 11 11 12.5 11 12.5 8 8.375 8 8.375 11 9.5 11 9.5 14 6.5 14 6.5 11 7.625 11 7.625 8 3.77675 8 3.77675 11 5 11 5 14 2 14 2 11 3.02675 11"></polygon>
            </g>
        </g>
    </g>
</svg>