<?xml version="1.0" encoding="UTF-8"?>
<svg width="164px" height="108px" viewBox="0 0 164 108" version="1.1" xmlns="http://www.w3.org/2000/svg" xmlns:xlink="http://www.w3.org/1999/xlink">
    <title>新建资源配图</title>
    <g id="12..14" stroke="none" stroke-width="1" fill="none" fill-rule="evenodd">
        <g id="报告管理-资源管理-弹窗" transform="translate(-496.000000, -172.000000)">
            <g id="新建资源配图" transform="translate(496.000000, 172.000000)">
                <rect id="矩形" x="0" y="0" width="164" height="108"></rect>
                <g id="编组-108" transform="translate(22.000000, 23.000000)">
                    <path d="M115.324915,6.91885296 L115.324915,63 L38.305802,63 L38.305802,6.91885296 C38.305802,5.08385906 39.0321476,3.32402174 40.325051,2.02648511 C41.6179543,0.728948487 43.3715076,0 45.1999491,0 L108.430768,0 C112.2383,0 115.324915,3.09767598 115.324915,6.91885296 Z" id="路径" stroke="#3F73FF" stroke-width="1.8" fill="#FFFFFF" fill-rule="nonzero"></path>
                    <path d="M115.324915,6.85579937 L115.324915,11.0454545 L38.305802,11.0454545 L38.305802,6.85579937 C38.305802,5.03752833 39.0321476,3.29372893 40.325051,2.00801715 C41.6179543,0.72230536 43.3715076,0 45.1999491,0 L108.43364,0 C112.240051,0.00157718257 115.324915,3.07056122 115.324915,6.85579937 L115.324915,6.85579937 Z" id="路径" fill="#3F73FF" fill-rule="nonzero"></path>
                    <ellipse id="椭圆形" fill="#FFFFFF" fill-rule="nonzero" cx="48.6972696" cy="5.52272727" rx="1.42627986" ry="1.43181818"></ellipse>
                    <ellipse id="椭圆形" fill="#FFFFFF" fill-rule="nonzero" cx="53.9948805" cy="5.52272727" rx="1.42627986" ry="1.43181818"></ellipse>
                    <ellipse id="椭圆形" fill="#FFFFFF" fill-rule="nonzero" cx="58.8849829" cy="5.52272727" rx="1.42627986" ry="1.43181818"></ellipse>
                    <rect id="矩形" fill="#3F73FF" fill-rule="nonzero" x="83.9467577" y="19.2272727" width="4.07508532" height="20.0454545"></rect>
                    <rect id="矩形" fill="#3F73FF" fill-rule="nonzero" x="66.0163823" y="31.0909091" width="4.07508532" height="8.59090909"></rect>
                    <rect id="矩形" fill="#3F73FF" fill-rule="nonzero" x="56.643686" y="27.8181818" width="4.07508532" height="11.8636364"></rect>
                    <rect id="矩形" fill="#3F73FF" fill-rule="nonzero" x="74.98157" y="23.7272727" width="4.07508532" height="15.9545455"></rect>
                    <path d="M119.4,22.395 L119.385709,22.395 C119.409527,22.395 119.385709,30.2980682 119.385709,34.4225 C119.383623,35.7802112 118.300214,36.8812218 116.961066,36.8865341 C112.662446,36.9039205 104.14428,36.919375 104.14428,36.919375 L99.7037059,36.919375 C97.7532073,36.919375 96.1720137,38.5224754 96.1720137,40.5 L96.1720137,25.9456818 C96.1710045,25.0046725 96.5388711,24.1018254 97.1946357,23.4358877 C97.8504002,22.7699501 98.7403063,22.395512 99.6684557,22.395 L116.677159,22.395 C118.177564,22.3896979 119.392438,21.1575598 119.397142,19.6363636 L119.4,22.395 Z" id="路径" stroke="#3F73FF" stroke-width="1.8" fill="#FFFFFF" fill-rule="nonzero"></path>
                    <path d="M101.469625,39.9904785 L101.469625,36.8705701 C101.469625,36.8416368 101.446252,36.8181818 101.417421,36.8181818 L99.4849399,36.8181818 C98.3495027,36.8181818 96.9996561,37.647039 96.5363455,38.6845138 C95.8695302,40.0438211 96.13449,41.6778734 97.1963533,42.7548951 C97.8426297,43.4074918 98.7219328,43.7739263 99.6387553,43.7727273 L101.409963,43.7727273 C101.438794,43.7727273 101.462167,43.7492693 101.462167,43.7203361 L101.462167,43.0486436 C101.466828,41.9793617 101.469625,40.9671455 101.469625,39.9904785 Z" id="路径" fill="#3F73FF" fill-rule="nonzero"></path>
                    <path d="M119.394195,19.6600494 C119.441267,20.3655317 119.200616,21.0604499 118.72521,21.5918552 C118.249803,22.1232606 117.578603,22.4475995 116.85934,22.4934864 C116.803368,22.4934864 116.747397,22.4990695 116.691425,22.5 L115.173548,22.5 L115.173548,17.1960294 L114.917406,17.1820716 L116.59466,17.1820716 C118.044926,17.1628162 119.265315,18.2430305 119.394195,19.6600494 L119.394195,19.6600494 Z" id="路径" fill="#3F73FF" fill-rule="nonzero"></path>
                    <path d="M106.710931,33.5393294 C106.500031,33.7832962 106.202689,33.9317989 105.884369,33.9521428 C105.566049,33.9724867 105.252849,33.8630038 105.013725,33.6477982 C104.976358,33.6136411 104.940846,33.577431 104.907347,33.5393294 L102.35912,30.5889792 C101.637876,29.728226 101.737456,28.4342841 102.581546,27.6987798 L102.581546,27.6987798 L105.818326,31.5849196 L110.046351,26.4977348 C110.390937,26.0827546 110.883154,25.8244438 111.414609,25.779686 C111.946065,25.7349281 112.473175,25.9073937 112.879863,26.2591035 L112.879863,26.2591035 L106.710931,33.5393294 Z" id="路径" fill="#3F73FF" fill-rule="nonzero"></path>
                    <rect id="矩形" fill="#3F73FF" fill-rule="nonzero" x="52.5686007" y="49.9090909" width="9.37269625" height="4.90909091"></rect>
                    <rect id="矩形" fill="#3F73FF" fill-rule="nonzero" x="67.2389078" y="49.9090909" width="9.37269625" height="4.90909091"></rect>
                    <rect id="矩形" fill="#3F73FF" fill-rule="nonzero" x="81.909215" y="49.9090909" width="9.37269625" height="4.90909091"></rect>
                    <path d="M0,27.4090909 L0,41.9118334 C0,43.1300952 0.485261304,44.2984463 1.34900515,45.1597979 C2.21274899,46.0211495 3.38420213,46.5049245 4.60559334,46.5046711 L22.7453856,46.5046711 L32.1931741,54.4090909 L32.1931741,34.2615627 C32.1931741,32.4441742 31.4693648,30.7012212 30.180976,29.4161334 C28.8925872,28.1310457 27.145157,27.4090909 25.3231001,27.4090909 L0,27.4090909 L0,27.4090909 Z" id="路径" fill="#3F73FF" fill-rule="nonzero"></path>
                    <polyline id="路径" stroke="#FFFFFF" stroke-width="4.452" stroke-linecap="round" stroke-linejoin="round" points="32.6006826 46.2272727 21.0907373 36.5804672 17.480091 40.8873151 7.74266212 32.7272727"></polyline>
                    <polyline id="路径" stroke="#FFFFFF" stroke-width="2.964" stroke-linecap="round" points="11.0027304 31.5 6.92764505 31.8676059 7.26070968 36.4090909"></polyline>
                </g>
            </g>
        </g>
    </g>
</svg>