<?xml version="1.0" encoding="UTF-8"?>
<svg width="16px" height="16px" viewBox="0 0 16 16" version="1.1" xmlns="http://www.w3.org/2000/svg" xmlns:xlink="http://www.w3.org/1999/xlink">
    <title>权限申请</title>
    <g id="页面-1" stroke="none" stroke-width="1" fill="none" fill-rule="evenodd">
        <g id="报告列表" transform="translate(-1371.000000, -276.000000)">
            <g id="权限申请" transform="translate(1371.000000, 276.000000)">
                <g fill-rule="nonzero">
                    <g id="监测查看" fill="#000000" opacity="0">
                        <rect id="矩形" x="0" y="0" width="16" height="16"></rect>
                    </g>
                    <path d="M6.88113528,8.30157878 L6.88113516,8.30157865 C8.05176057,9.50928188 9.95090636,9.51050042 11.1229846,8.30429849 C12.2950676,7.09809709 12.2962502,5.14123517 11.1256242,3.93353677 C9.95499883,2.72583354 8.05585304,2.72461501 6.88377478,3.93081693 C6.88289444,3.9317229 6.88201465,3.93262942 6.88113541,3.93353651 L6.88113529,3.93353664 C5.71153937,5.14017747 5.71153937,7.09494198 6.88113553,8.30157799 L6.88113528,8.30157878 Z M6.17126768,9.03301966 L6.17126772,9.0330197 C4.61033073,7.42285175 4.61173984,4.81371325 6.17441368,3.20533204 C7.73709097,1.59695728 10.2692749,1.59840921 11.8302182,3.20857361 C13.3899273,4.81747153 13.3899273,7.4241134 11.8302182,9.03300971 L11.8302185,9.03300948 C10.2692815,10.6431774 7.73709126,10.6446262 6.17441397,9.03625158 C6.17336471,9.03517163 6.17231604,9.03409107 6.17126794,9.03300993 L6.17126768,9.03301966 Z M6.14627234,8.84243295 L6.14627234,8.84243295 C6.34229671,8.64045128 6.66011556,8.64045128 6.85613994,8.84243295 C7.05216432,9.04441462 7.05216432,9.37189217 6.85613994,9.57387384 L2.85688586,13.6946676 L2.85688589,13.6946675 C2.66086151,13.8966492 2.34304267,13.8966492 2.14701829,13.6946676 C1.95099391,13.4926859 1.95099391,13.1652084 2.14701822,12.9632267 L6.14627234,8.84243295 Z M6.35623318,11.417929 L6.35623321,11.4179291 C6.55225759,11.6199107 6.55225759,11.9473883 6.35623315,12.14937 C6.16020877,12.3513516 5.84238992,12.3513516 5.64636555,12.1493699 L5.14645878,11.6342707 L5.14645878,11.6342707 C4.95043441,11.432289 4.95043441,11.1048114 5.14645879,10.9028298 C5.34248316,10.7008481 5.66030201,10.7008481 5.85632639,10.9028298 L6.35623318,11.417929 Z M5.35641966,12.9632267 L5.35641969,12.9632267 C5.55244407,13.1652084 5.55244407,13.4926859 5.35641962,13.6946676 C5.16039525,13.8966493 4.8425764,13.8966493 4.64655202,13.6946675 L3.6467385,12.6644691 L3.6467385,12.6644691 C3.45071412,12.4624874 3.45071412,12.1350099 3.6467385,11.9330282 C3.84276288,11.7310465 4.16058173,11.7310465 4.3566061,11.9330282 L5.35641966,12.9632267 Z" id="形状" fill="#3F73FF"></path>
                </g>
                <g id="权限" transform="translate(2.000000, 2.000000)"></g>
            </g>
        </g>
    </g>
</svg>