<?xml version="1.0" encoding="UTF-8"?>
<svg width="188px" height="122px" viewBox="0 0 188 122" version="1.1" xmlns="http://www.w3.org/2000/svg" xmlns:xlink="http://www.w3.org/1999/xlink">
    <title>编组 19</title>
    <g id="页面-1" stroke="none" stroke-width="1" fill="none" fill-rule="evenodd">
        <g id="报告管理" transform="translate(-1364.000000, -198.000000)">
            <g id="编组-19" transform="translate(1364.000000, 198.000000)">
                <rect id="矩形" fill="#F7F7F7" fill-rule="nonzero" x="0" y="0" width="188" height="122"></rect>
                <g id="编组-11备份-4" transform="translate(14.000000, 13.000000)">
                    <polygon id="路径备份" fill="#A4BCF2" points="142.2 0 0 0 0 29.9189189 142.2 29.9189189"></polygon>
                    <polygon id="路径备份-3" fill="#EBF1FF" points="4.5 2.91891892 4.5 27 137.7 27 137.7 2.91891892"></polygon>
                    <path d="M18,8.75675676 C21.4548387,8.75675676 24.3,11.0636443 24.3,13.8648649 C24.3,16.6660854 21.4548387,18.972973 18,18.972973 C14.5451613,18.972973 11.7,16.6660854 11.7,13.8648649 C11.7,11.0636443 14.4774194,8.75675676 18,8.75675676 L18,8.75675676 Z" id="路径备份-4" fill="#FFFFFF"></path>
                    <polygon id="路径备份-5" fill="#FFFFFF" points="83.7 8.75675676 28.8 8.75675676 28.8 10.9459459 83.7 10.9459459"></polygon>
                    <polygon id="路径备份-6" fill="#FFFFFF" points="59.4 14.5945946 28.8 14.5945946 28.8 18.972973 59.4 18.972973"></polygon>
                    <polygon id="路径备份-7" fill="#FED64E" points="84.6 18.972973 68.4 18.972973 68.4 21.8918919 84.6 21.8918919"></polygon>
                </g>
                <g id="编组-5" transform="translate(52.000000, 50.000000)" fill-rule="nonzero">
                    <path d="M119.407507,0 L1.59249236,0 C0.716392318,0 0,0.573749654 0,1.27472738 L0,62.7252726 C0,63.4265562 0.716774394,64 1.59249236,64 L119.407507,64 C120.283608,64 121,63.4262503 121,62.7252726 L121,1.27472738 C121,0.573443817 120.283608,0 119.407507,0 Z" id="路径备份-15" fill="#FFFFFF"></path>
                    <path d="M59.5036531,9.6 L7.49672581,9.6 C7.22354556,9.6 7,9.41924366 7,9.19835328 L7,6.80164672 C7,6.58075634 7.22354556,6.4 7.49672581,6.4 L59.5032742,6.4 C59.7764544,6.4 60,6.58075634 60,6.80164672 L60,9.19835328 C60,9.41924366 59.7768333,9.6 59.5036531,9.6 Z" id="路径备份-16" fill="#A4BCF2"></path>
                    <path d="M49.5016147,40 L7.49876576,40 C7.22446361,40 7,39.8192437 7,39.5983533 L7,37.2016467 C7,36.9807563 7.22446361,36.8 7.49876576,36.8 L49.5012342,36.8 C49.7755364,36.8 50,36.9807563 50,37.2016467 L50,39.5983533 C50,39.8192437 49.7755364,40 49.5016147,40 Z" id="路径备份-17" fill="#A4BCF2"></path>
                    <path d="M100.499062,16 L7.50132008,16 C7.22561315,16 7,15.8192437 7,15.5983533 L7,13.2016467 C7,12.9807563 7.22561315,12.8 7.50132008,12.8 L100.49868,12.8 C100.774387,12.8 101,12.9807563 101,13.2016467 L101,15.5983533 C101,15.8192437 100.774769,16 100.499062,16 Z" id="路径备份-18" fill="#A4BCF2"></path>
                    <path d="M33.4346468,25.6 L8.56535318,25.6 C7.70397168,25.6 7,25.4592057 7,25.2869294 L7,20.3130706 C7,20.1407943 7.70397168,20 8.56535318,20 L33.4346468,20 C34.2960283,20 35,20.1407943 35,20.3130706 L35,25.2869294 C34.9985425,25.4592057 34.2945708,25.6 33.4346468,25.6 Z" id="路径备份-19" fill="#A4BCF2"></path>
                    <path d="M33.4346468,33.6 L8.56535318,33.6 C7.70397168,33.6 7,33.4592057 7,33.2869294 L7,28.3130706 C7,28.1407943 7.70397168,28 8.56535318,28 L33.4346468,28 C34.2960283,28 35,28.1407943 35,28.3130706 L35,33.2869294 C34.9985425,33.4592057 34.2945708,33.6 33.4346468,33.6 Z" id="路径备份-20" fill="#A4BCF2"></path>
                    <path d="M25.4437038,51.2 L8.55629619,51.2 C7.69989857,51.2 7,51.0600203 7,50.8887408 L7,47.5112592 C7,47.3399797 7.69989857,47.2 8.55629619,47.2 L25.4437038,47.2 C26.3001014,47.2 27,47.3399797 27,47.5112592 L27,50.8887408 C27,51.0600203 26.2986524,51.2 25.4437038,51.2 Z" id="路径备份-21" fill="#FDD740"></path>
                    <path d="M98.6984761,57.6 L93.3015239,57.6 C93.1357264,57.6 93,57.4930641 93,57.3624357 L93,47.4375643 C93,47.3069359 93.1357264,47.2 93.3015239,47.2 L98.6984761,47.2 C98.8642736,47.2 99,47.3069359 99,47.4375643 L99,57.3624357 C99,57.4930641 98.8642736,57.6 98.6984761,57.6 Z" id="路径备份-22" fill="#F6D67D"></path>
                    <path d="M87.6984761,57.6 L82.3015239,57.6 C82.1357264,57.6 82,57.4930641 82,57.3624357 L82,47.4375643 C82,47.3069359 82.1357264,47.2 82.3015239,47.2 L87.6984761,47.2 C87.8642736,47.2 88,47.3069359 88,47.4375643 L88,57.3624357 C88,57.4930641 87.8642736,57.6 87.6984761,57.6 Z" id="路径备份-23" fill="#F6D67D"></path>
                    <path d="M78.6984761,57.6 L73.3015239,57.6 C73.1357264,57.6 73,57.3614506 73,57.0700489 L73,34.9299511 C73,34.6385494 73.1357264,34.4 73.3015239,34.4 L78.6984761,34.4 C78.8642736,34.4 79,34.6385494 79,34.9299511 L79,57.0700489 C79,57.3614506 78.8642736,57.6 78.6984761,57.6 Z" id="路径备份-24" fill="#F6D67D"></path>
                    <path d="M106.698476,57.6 L101.301524,57.6 C101.135726,57.6 101,57.4965907 101,57.3702703 L101,32.2297297 C101,32.1034093 101.135726,32 101.301524,32 L106.698476,32 C106.864274,32 107,32.1034093 107,32.2297297 L107,57.3702703 C107,57.4965907 106.864274,57.6 106.698476,57.6 Z" id="路径备份-25" fill="#F6D67D"></path>
                    <path d="M114.698882,57.6 L109.301524,57.6 C109.135726,57.6 109,57.4987454 109,57.3750572 L109,20.2249428 C109,20.1012546 109.135726,20 109.301524,20 L114.698475,20 C114.864273,20 115,20.1012546 115,20.2249428 L115,57.3750572 C115.000405,57.4987454 114.864679,57.6 114.698882,57.6 Z" id="路径备份-26" fill="#F6D67D"></path>
                </g>
            </g>
        </g>
    </g>
</svg>