<?xml version="1.0" encoding="UTF-8"?>
<svg width="16px" height="16px" viewBox="0 0 16 16" version="1.1" xmlns="http://www.w3.org/2000/svg" xmlns:xlink="http://www.w3.org/1999/xlink">
    <title>收藏悬浮@1.5x</title>
    <g id="预警管理" stroke="none" stroke-width="1" fill="none" fill-rule="evenodd">
        <g id="指标工作台-卡片" transform="translate(-277.000000, -384.000000)" fill-rule="nonzero">
            <g id="收藏悬浮" transform="translate(277.000000, 384.000000)">
                <rect id="矩形" opacity="0.95" x="0" y="0" width="16" height="16"></rect>
                <g id="收藏" fill="#3F73FF">
                    <path d="M3.64712073,15 C3.39956653,15 3.15951952,14.9250952 2.94968438,14.7749488 C2.55967665,14.5050515 2.37217998,14.0474712 2.44706879,13.5748762 L3.04709476,9.88493658 C3.06961633,9.73497327 3.02457319,9.58500996 2.91965561,9.47990748 L0.347245214,6.8325699 C0.0248022066,6.50261401 -0.0802984672,6.02251171 0.0623381615,5.58763643 C0.204791688,5.15257805 0.579785032,4.8376368 1.02985029,4.77007091 L4.50989106,4.23760047 C4.66735897,4.21507851 4.79498122,4.11766645 4.86236283,3.97502735 L6.39949864,0.70495571 C6.60200969,0.269897329 7.02204618,0 7.5019571,0 C7.98186801,0 8.40190451,0.270080434 8.60441556,0.70495571 L10.1344177,3.975042 C10.2019824,4.11749799 10.3369288,4.21491005 10.4868895,4.23761512 L13.9669302,4.76990245 L13.9669303,4.76990246 C14.4180736,4.83756458 14.7924606,5.15392864 14.9344424,5.58746798 C15.0844031,6.02252636 14.9719784,6.50244556 14.6495354,6.83240145 L12.0769492,9.47992946 C11.9720316,9.58503194 11.9269885,9.74250257 11.94951,9.88495855 L12.549536,13.5748982 C12.6246079,14.0399858 12.4296041,14.5048904 12.0471035,14.7749708 C11.664603,15.0450512 11.1696777,15.0750805 10.7571484,14.8425367 L7.72717286,13.1625375 C7.58471934,13.0876474 7.41974424,13.0876474 7.27729071,13.1625375 L4.23980068,14.8500367 C4.0521209,14.9474488 3.84960985,15 3.64709879,15 L3.64712073,15 Z M7.50197907,0.749992309 C7.3144824,0.749992309 7.15701449,0.854911692 7.07443539,1.02007274 L5.55193311,4.29015904 C5.37945082,4.65765153 5.03448624,4.92022465 4.62946413,4.98010011 L1.14942336,5.51257055 C0.969433879,5.54259983 0.834487543,5.65520964 0.774430015,5.8275118 C0.714372488,5.99999707 0.759415633,6.17998966 0.886854778,6.30761411 L3.45963138,8.95495168 C3.72970715,9.23253943 3.84963911,9.62237079 3.78958158,10.0048779 L3.18955561,13.695008 C3.15952684,13.8825079 3.23459875,14.0549931 3.38455947,14.1599125 C3.53452019,14.265015 3.72201686,14.2725223 3.87948477,14.1824345 L6.91697481,12.4949353 C7.28446096,12.2924208 7.72701902,12.2924208 8.09450518,12.4949353 L11.1319952,14.1824345 C11.2894631,14.2723392 11.4769598,14.2648319 11.6271036,14.1599125 C11.7770643,14.0549931 11.8521362,13.8823248 11.8221075,13.695008 L11.2222646,10.0050684 C11.1622071,9.62256122 11.2823221,9.23254676 11.5522148,8.95514211 L14.124801,6.30761411 C14.2522401,6.18017276 14.2897761,6.00018017 14.2372257,5.8275118 C14.1773513,5.65502653 14.0422219,5.53509251 13.8622324,5.51257055 L10.3823821,4.98010011 C9.97735994,4.92022465 9.63239536,4.65765153 9.45991307,4.29015904 L7.92954472,1.02007274 C7.84714873,0.855094797 7.68968082,0.749992309 7.50200104,0.749992309 L7.50197907,0.749992309 Z" id="形状"></path>
                </g>
            </g>
        </g>
    </g>
</svg>