<?xml version="1.0" encoding="UTF-8"?>
<svg width="16px" height="16px" viewBox="0 0 16 16" version="1.1" xmlns="http://www.w3.org/2000/svg" xmlns:xlink="http://www.w3.org/1999/xlink">
    <title>编组icon</title>
    <g id="指标管理04.10" stroke="none" stroke-width="1" fill="none" fill-rule="evenodd">
        <g id="编辑故事备份" transform="translate(-377.000000, -150.000000)" fill-rule="nonzero">
            <g id="编组icon" transform="translate(377.000000, 150.000000)">
                <rect id="矩形" opacity="0.95" x="0" y="0" width="16" height="16"></rect>
                <path d="M3.367625,12.4 C3.400125,12.4 3.432625,12.39675 3.465125,12.391875 L6.198375,11.9125 C6.230875,11.906 6.26175,11.891375 6.2845,11.867 L13.172875,4.978625 C13.23625,4.91525 13.23625,4.812875 13.172875,4.7495 L10.472125,2.047125 C10.44125,2.01625 10.400625,2 10.35675,2 C10.312875,2 10.27225,2.01625 10.241375,2.047125 L3.353,8.9355 C3.328625,8.959875 3.314,8.989125 3.3075,9.021625 L2.828125,11.754875 C2.79725,11.93525 2.8525,12.11075 2.980875,12.239125 C3.088125,12.343125 3.223,12.4 3.367625,12.4 L3.367625,12.4 Z M4.462875,9.566 L10.35675,3.67375 L11.547875,4.864875 L5.654,10.757125 L4.209375,11.01225 L4.462875,9.566 L4.462875,9.566 Z M13.48,13.765 L1.52,13.765 C1.232375,13.765 1,13.997375 1,14.285 L1,14.87 C1,14.9415 1.0585,15 1.13,15 L13.87,15 C13.9415,15 14,14.9415 14,14.87 L14,14.285 C14,13.997375 13.767625,13.765 13.48,13.765 Z" id="形状备份" fill="#3F73FF"></path>
            </g>
        </g>
    </g>
</svg>