<?xml version="1.0" encoding="UTF-8"?>
<svg width="16px" height="16px" viewBox="0 0 16 16" version="1.1" xmlns="http://www.w3.org/2000/svg" xmlns:xlink="http://www.w3.org/1999/xlink">
    <title>215更多-横向</title>
    <g id="预警管理" stroke="none" stroke-width="1" fill="none" fill-rule="evenodd">
        <g id="指标工作台-卡片备份-2" transform="translate(-457.000000, -93.000000)" fill="#000000" fill-rule="nonzero">
            <g id="编组-14" transform="translate(457.000000, 93.000000)">
                <rect id="矩形" opacity="0" x="0" y="0" width="16" height="16"></rect>
                <path d="M5,8 C5,8.55 4.55,9 4,9 C3.45,9 3,8.55 3,8 C3,7.45 3.45,7 4,7 C4.55,7 5,7.45 5,8 Z M8,7 C7.45,7 7,7.45 7,8 C7,8.55 7.45,9 8,9 C8.55,9 9,8.55 9,8 C9,7.45 8.55,7 8,7 Z M12,7 C11.45,7 11,7.45 11,8 C11,8.55 11.45,9 12,9 C12.55,9 13,8.55 13,8 C13,7.45 12.55,7 12,7 Z" id="形状" fill-opacity="0.85"></path>
            </g>
        </g>
    </g>
</svg>